
    type    code    pin_pathname
    ----   ------   ------------------------------------
      0    UO       "/\dest_x[0] "
      1    UO       "/\dest_x[0] "
      0    UO       "/\dest_x[1] "
      1    UO       "/\dest_x[1] "
      0    UO       "/\dest_x[2] "
      1    UO       "/\dest_x[2] "
      0    UO       "/\dest_x[3] "
      1    UO       "/\dest_x[3] "
      0    UO       "/\dest_x[4] "
      1    UO       "/\dest_x[4] "
      0    UO       "/\dest_x[5] "
      1    UO       "/\dest_x[5] "
      0    UO       "/\dest_x[6] "
      1    UO       "/\dest_x[6] "
      0    UO       "/\dest_x[7] "
      1    UO       "/\dest_x[7] "
      0    UO       "/\dest_x[8] "
      1    UO       "/\dest_x[8] "
      0    UO       "/\dest_x[9] "
      1    UO       "/\dest_x[9] "
      0    UO       "/\dest_x[10] "
      1    UO       "/\dest_x[10] "
      1    UO       /g007/Y
      0    EQ       /g007/A
      0    EQ       "/\dest_x[11] "
      0    UO       /g007/Y
      1    EQ       /g007/A
      1    EQ       "/\dest_x[11] "
      0    UO       "/\dest_x[12] "
      1    UO       "/\dest_x[12] "
      1    UO       /g006/Y
      0    EQ       /g006/A
      0    EQ       "/\dest_x[13] "
      0    UO       /g006/Y
      1    EQ       /g006/A
      1    EQ       "/\dest_x[13] "
      1    UO       /g005/Y
      0    EQ       /g005/A
      0    EQ       "/\dest_x[14] "
      0    UO       /g005/Y
      1    EQ       /g005/A
      1    EQ       "/\dest_x[14] "
      0    UO       "/\dest_x[15] "
      1    UO       "/\dest_x[15] "
      0    UO       "/\dest_x[16] "
      1    UO       "/\dest_x[16] "
      1    UO       /g004/Y
      0    EQ       /g004/A
      0    EQ       "/\dest_x[17] "
      0    UO       /g004/Y
      1    EQ       /g004/A
      1    EQ       "/\dest_x[17] "
      0    UO       "/\dest_x[18] "
      1    UO       "/\dest_x[18] "
      1    UO       /g003/Y
      0    EQ       /g003/A
      0    EQ       "/\dest_x[19] "
      0    UO       /g003/Y
      1    EQ       /g003/A
      1    EQ       "/\dest_x[19] "
      0    UO       "/\dest_x[20] "
      1    UO       "/\dest_x[20] "
      0    DS       "/\dest_x[21] "
//			       num_detections = 1
      1    UO       "/\dest_x[21] "
      1    DS       /g002/Y
//                              num_detections = 1
      0    EQ       /g002/A
//                              num_detections = 1
      0    EQ       "/\dest_x[22] "
//                              num_detections = 1
      0    UO       /g002/Y
      1    EQ       /g002/A
      1    EQ       "/\dest_x[22] "
      1    DS       /g001/Y
//                              num_detections = 2
      0    EQ       /g001/A
//                              num_detections = 2
      0    EQ       "/\dest_x[23] "
//                              num_detections = 2
      0    DS       /g001/Y
//                              num_detections = 2
      1    EQ       /g001/A
//                              num_detections = 2
      1    EQ       "/\dest_x[23] "
//                              num_detections = 2
      0    DS       "/\dest_x[24] "
//			       num_detections = 2
      1    UO       "/\dest_x[24] "
      0    DS       "/\dest_x[25] "
//			       num_detections = 2
      1    DS       "/\dest_x[25] "
//			       num_detections = 2
      0    DS       "/\dest_x[26] "
//			       num_detections = 15
      1    DS       "/\dest_x[26] "
//			       num_detections = 14
      1    DS       /g000/Y
//                              num_detections = 18
      0    EQ       /g000/A
//                              num_detections = 18
      0    EQ       "/\dest_x[27] "
//                              num_detections = 18
      0    DS       /g000/Y
//                              num_detections = 19
      1    EQ       /g000/A
//                              num_detections = 19
      1    EQ       "/\dest_x[27] "
//                              num_detections = 19
      0    DS       "/\dest_x[28] "
//			       num_detections = 18
      1    DS       "/\dest_x[28] "
//			       num_detections = 15
      0    DS       "/\dest_x[29] "
//			       num_detections = 18
      1    DS       "/\dest_x[29] "
//			       num_detections = 23
      0    UO       "/\dest_y[0] "
      1    UO       "/\dest_y[0] "
      0    UO       "/\dest_y[1] "
      1    UO       "/\dest_y[1] "
      0    UO       "/\dest_y[2] "
      1    UO       "/\dest_y[2] "
      0    UO       "/\dest_y[3] "
      1    UO       "/\dest_y[3] "
      0    UO       "/\dest_y[4] "
      1    UO       "/\dest_y[4] "
      0    UO       "/\dest_y[5] "
      1    UO       "/\dest_y[5] "
      0    UO       "/\dest_y[6] "
      1    UO       "/\dest_y[6] "
      0    UO       "/\dest_y[7] "
      1    UO       "/\dest_y[7] "
      0    UO       "/\dest_y[8] "
      1    UO       "/\dest_y[8] "
      0    UO       "/\dest_y[9] "
      1    UO       "/\dest_y[9] "
      0    UO       "/\dest_y[10] "
      1    UO       "/\dest_y[10] "
      0    UO       "/\dest_y[11] "
      1    UO       "/\dest_y[11] "
      0    UO       "/\dest_y[12] "
      1    UO       "/\dest_y[12] "
      1    UO       /g117/Y
      0    EQ       /g117/A
      0    EQ       "/\dest_y[13] "
      0    UO       /g117/Y
      1    EQ       /g117/A
      1    EQ       "/\dest_y[13] "
      0    UO       "/\dest_y[14] "
      1    UO       "/\dest_y[14] "
      0    UO       "/\dest_y[15] "
      1    UO       "/\dest_y[15] "
      0    UO       "/\dest_y[16] "
      1    UO       "/\dest_y[16] "
      0    UO       "/\dest_y[17] "
      1    UO       "/\dest_y[17] "
      0    UO       "/\dest_y[18] "
      1    UO       "/\dest_y[18] "
      0    UO       "/\dest_y[19] "
      1    UO       "/\dest_y[19] "
      0    UO       "/\dest_y[20] "
      1    UO       "/\dest_y[20] "
      0    UO       "/\dest_y[21] "
      1    UO       "/\dest_y[21] "
      1    UO       /g114/Y
      0    EQ       /g114/A
      0    EQ       "/\dest_y[22] "
      0    UO       /g114/Y
      1    EQ       /g114/A
      1    EQ       "/\dest_y[22] "
      0    UO       "/\dest_y[23] "
      1    UO       "/\dest_y[23] "
      0    UO       "/\dest_y[24] "
      1    UO       "/\dest_y[24] "
      0    UO       "/\dest_y[25] "
      1    UO       "/\dest_y[25] "
      0    UO       "/\dest_y[26] "
      1    UO       "/\dest_y[26] "
      0    UO       "/\dest_y[27] "
      1    UO       "/\dest_y[27] "
      0    UO       "/\dest_y[28] "
      1    UO       "/\dest_y[28] "
      0    UO       "/\dest_y[29] "
      1    UO       "/\dest_y[29] "
      0    TI       "/\outport[3] "
      0    EQ       /g227/Y
      1    DS       "/\outport[3] "
//                              num_detections >= 255
      1    EQ       /g227/Y
//                              num_detections >= 255
      0    TI       "/\outport[4] "
      0    EQ       /g228/Y
      1    DS       "/\outport[4] "
//                              num_detections >= 255
      1    EQ       /g228/Y
//                              num_detections >= 255
      0    TI       "/\outport[5] "
      0    EQ       /g229/Y
      1    DS       "/\outport[5] "
//                              num_detections >= 255
      1    EQ       /g229/Y
//                              num_detections >= 255
      0    TI       "/\outport[6] "
      0    EQ       /g230/Y
      1    DS       "/\outport[6] "
//                              num_detections >= 255
      1    EQ       /g230/Y
//                              num_detections >= 255
      0    TI       "/\outport[7] "
      0    EQ       /g231/Y
      1    DS       "/\outport[7] "
//                              num_detections >= 255
      1    EQ       /g231/Y
//                              num_detections >= 255
      0    TI       "/\outport[8] "
      0    EQ       /g232/Y
      1    DS       "/\outport[8] "
//                              num_detections >= 255
      1    EQ       /g232/Y
//                              num_detections >= 255
      0    TI       "/\outport[9] "
      0    EQ       /g233/Y
      1    DS       "/\outport[9] "
//                              num_detections >= 255
      1    EQ       /g233/Y
//                              num_detections >= 255
      0    TI       "/\outport[10] "
      0    EQ       /g234/Y
      1    DS       "/\outport[10] "
//                              num_detections >= 255
      1    EQ       /g234/Y
//                              num_detections >= 255
      0    TI       "/\outport[11] "
      0    EQ       /g235/Y
      1    DS       "/\outport[11] "
//                              num_detections >= 255
      1    EQ       /g235/Y
//                              num_detections >= 255
      0    TI       "/\outport[12] "
      0    EQ       /g236/Y
      1    DS       "/\outport[12] "
//                              num_detections >= 255
      1    EQ       /g236/Y
//                              num_detections >= 255
      0    TI       "/\outport[13] "
      0    EQ       /g237/Y
      1    DS       "/\outport[13] "
//                              num_detections >= 255
      1    EQ       /g237/Y
//                              num_detections >= 255
      0    TI       "/\outport[14] "
      0    EQ       /g238/Y
      1    DS       "/\outport[14] "
//                              num_detections >= 255
      1    EQ       /g238/Y
//                              num_detections >= 255
      0    TI       "/\outport[15] "
      0    EQ       /g239/Y
      1    DS       "/\outport[15] "
//                              num_detections >= 255
      1    EQ       /g239/Y
//                              num_detections >= 255
      0    TI       "/\outport[16] "
      0    EQ       /g240/Y
      1    DS       "/\outport[16] "
//                              num_detections >= 255
      1    EQ       /g240/Y
//                              num_detections >= 255
      0    TI       "/\outport[17] "
      0    EQ       /g241/Y
      1    DS       "/\outport[17] "
//                              num_detections >= 255
      1    EQ       /g241/Y
//                              num_detections >= 255
      0    TI       "/\outport[18] "
      0    EQ       /g242/Y
      1    DS       "/\outport[18] "
//                              num_detections >= 255
      1    EQ       /g242/Y
//                              num_detections >= 255
      0    TI       "/\outport[19] "
      0    EQ       /g243/Y
      1    DS       "/\outport[19] "
//                              num_detections >= 255
      1    EQ       /g243/Y
//                              num_detections >= 255
      0    TI       "/\outport[20] "
      0    EQ       /g244/Y
      1    DS       "/\outport[20] "
//                              num_detections >= 255
      1    EQ       /g244/Y
//                              num_detections >= 255
      0    TI       "/\outport[21] "
      0    EQ       /g245/Y
      1    DS       "/\outport[21] "
//                              num_detections >= 255
      1    EQ       /g245/Y
//                              num_detections >= 255
      0    TI       "/\outport[22] "
      0    EQ       /g246/Y
      1    DS       "/\outport[22] "
//                              num_detections >= 255
      1    EQ       /g246/Y
//                              num_detections >= 255
      0    TI       "/\outport[23] "
      0    EQ       /g247/Y
      1    DS       "/\outport[23] "
//                              num_detections >= 255
      1    EQ       /g247/Y
//                              num_detections >= 255
      0    TI       "/\outport[24] "
      0    EQ       /g248/Y
      1    DS       "/\outport[24] "
//                              num_detections >= 255
      1    EQ       /g248/Y
//                              num_detections >= 255
      0    TI       "/\outport[25] "
      0    EQ       /g249/Y
      1    DS       "/\outport[25] "
//                              num_detections >= 255
      1    EQ       /g249/Y
//                              num_detections >= 255
      0    TI       "/\outport[26] "
      0    EQ       /g250/Y
      1    DS       "/\outport[26] "
//                              num_detections >= 255
      1    EQ       /g250/Y
//                              num_detections >= 255
      0    TI       "/\outport[27] "
      0    EQ       /g251/Y
      1    DS       "/\outport[27] "
//                              num_detections >= 255
      1    EQ       /g251/Y
//                              num_detections >= 255
      0    TI       "/\outport[28] "
      0    EQ       /g252/Y
      1    DS       "/\outport[28] "
//                              num_detections >= 255
      1    EQ       /g252/Y
//                              num_detections >= 255
      0    TI       "/\outport[29] "
      0    EQ       /g253/Y
      1    DS       "/\outport[29] "
//                              num_detections >= 255
      1    EQ       /g253/Y
//                              num_detections >= 255
      0    UO       /g223/Y
      0    EQ       /g224/A0
      0    UO       /g224/Y
      1    EQ       /g224/A0
      1    EQ       /g224/A1
      1    EQ       /g223/Y
      0    EQ       /g223/A0
      0    EQ       /g223/A1
      0    EQ       /g225/A0
      1    UO       /g223/A0
      1    UO       /g223/A1
      0    UO       /g185/Y
      1    EQ       /g185/A0
      1    EQ       /g185/A1
      0    EQ       /g186/A0
      1    UO       /g186/Y
      1    EQ       /g186/A0
      1    EQ       /g186/A1
      1    EQ       /g185/Y
      1    EQ       /g217/A1
      0    UO       /g185/A0
      0    UO       /g185/A1
      1    UC       /g080/Y
      0    EQ       /g080/A0
      0    EQ       /g080/A1
      0    EQ       /g079/Y
      1    EQ       /g079/A0
      1    EQ       /g079/A1
      0    EQ       /g027/Y
      1    EQ       /g078/Y
      0    EQ       /g078/A0
      0    EQ       /g078/A1
      0    EQ       /g077/Y
      1    EQ       /g077/A0
      1    EQ       /g077/A1
      1    EQ       /g076/Y
      0    EQ       /g076/A0
      0    EQ       /g076/A1
      0    EQ       /g075/Y
      1    EQ       /g075/A0
      1    EQ       /g075/A1
      0    EQ       /g032/Y
      1    EQ       /g032/A
      1    EQ       /g074/Y
      0    EQ       /g074/A0
      0    EQ       /g074/A1
      0    EQ       /g073/Y
      1    EQ       /g073/A0
      1    EQ       /g073/A1
      1    EQ       /g072/Y
      0    EQ       /g072/A0
      0    EQ       /g072/A1
      0    EQ       /g071/Y
      1    EQ       /g071/A0
      1    EQ       /g071/A1
      0    EQ       /g037/Y
      1    EQ       /g037/A
      1    EQ       /g070/Y
      0    EQ       /g070/A0
      0    EQ       /g070/A1
      0    EQ       /g069/Y
      1    EQ       /g069/A0
      1    EQ       /g069/A1
      1    EQ       /g068/Y
      0    EQ       /g068/A0
      0    EQ       /g068/A1
      0    EQ       /g067/Y
      0    EQ       /g067/A0
      0    EQ       /g067/A1
      0    EQ       /g066/Y
      1    EQ       /g066/A0
      1    EQ       /g066/A1
      0    EQ       /g043/Y
      1    EQ       /g043/A
      1    EQ       /g065/Y
      0    EQ       /g065/A0
      0    EQ       /g065/A1
      0    EQ       /g064/Y
      0    EQ       /g064/A0
      0    EQ       /g064/A1
      0    EQ       /g063/Y
      1    EQ       /g063/A0
      1    EQ       /g063/A1
      0    EQ       /g047/Y
      1    EQ       /g047/A
      1    EQ       /g062/Y
      0    EQ       /g062/A0
      0    EQ       /g062/A1
      0    EQ       /g061/Y
      0    EQ       /g061/A0
      0    EQ       /g061/A1
      0    EQ       /g060/Y
      1    EQ       /g060/A0
      1    EQ       /g060/A1
      0    EQ       /g054/Y
      0    EQ       /g054/A0
      0    EQ       /g054/A1
      1    EQ       /g059/Y
      0    EQ       /g059/A0
      0    EQ       /g059/A1
      0    EQ       /g053/Y
      0    EQ       /g053/A0
      0    EQ       /g053/A1
      0    EQ       /g050/Y
      0    EQ       /g050/A0
      0    EQ       /g050/A1
      0    EQ       /g058/Y
      0    EQ       /g058/A0
      0    EQ       /g058/A1
      0    EQ       /g056/Y
      0    EQ       /g056/A0
      0    EQ       /g056/A1
      0    EQ       /g052/Y
      0    EQ       /g052/A0
      0    EQ       /g052/A1
      0    EQ       /g051/Y
      0    EQ       /g051/A0
      0    EQ       /g051/A1
      0    EQ       /g057/Y
      1    EQ       /g057/A
      1    EQ       /g082/A1
      1    UO       /g050/Y
      1    EQ       /g054/A1
      1    UO       /g050/A0
      1    UO       /g050/A1
      0    UC       /g109/Y
      0    EQ       /g109/A0
      0    EQ       /g109/A1
      0    EQ       /g108/Y
      1    EQ       /g108/A0
      1    EQ       /g108/A1
      1    EQ       /g107/Y
      0    EQ       /g107/A0
      0    EQ       /g107/A1
      0    EQ       /g106/Y
      0    EQ       /g106/A0
      0    EQ       /g106/A1
      0    EQ       /g105/Y
      0    EQ       /g105/A0
      0    EQ       /g105/A1
      0    EQ       /g104/Y
      1    EQ       /g104/A0
      1    EQ       /g104/A1
      1    EQ       /g103/Y
      0    EQ       /g103/A0
      0    EQ       /g103/A1
      0    EQ       /g102/Y
      0    EQ       /g102/A0
      0    EQ       /g102/A1
      0    EQ       /g101/Y
      0    EQ       /g101/A0
      0    EQ       /g101/A1
      0    EQ       /g100/Y
      1    EQ       /g100/A0
      1    EQ       /g100/A1
      1    EQ       /g099/Y
      0    EQ       /g099/A0
      0    EQ       /g099/A1
      0    EQ       /g098/Y
      1    EQ       /g098/A0
      1    EQ       /g098/A1
      1    EQ       /g097/Y
      0    EQ       /g097/A0
      0    EQ       /g097/A1
      0    EQ       /g096/Y
      0    EQ       /g096/A0
      0    EQ       /g096/A1
      0    EQ       /g095/Y
      1    EQ       /g095/A0
      1    EQ       /g095/A1
      1    EQ       /g094/Y
      0    EQ       /g094/A0
      0    EQ       /g094/A1
      0    EQ       /g093/Y
      0    EQ       /g093/A0
      0    EQ       /g093/A1
      0    EQ       /g092/Y
      1    EQ       /g092/A0
      1    EQ       /g092/A1
      1    EQ       /g091/Y
      0    EQ       /g091/A0
      0    EQ       /g091/A1
      0    EQ       /g090/Y
      0    EQ       /g090/A0
      0    EQ       /g090/A1
      0    EQ       /g087/Y
      0    EQ       /g087/A0
      0    EQ       /g087/A1
      0    EQ       /g089/Y
      0    EQ       /g089/A0
      0    EQ       /g089/A1
      0    EQ       /g086/Y
      0    EQ       /g086/A0
      0    EQ       /g086/A1
      0    EQ       /g083/Y
      1    EQ       /g083/A0
      1    EQ       /g083/A1
      0    EQ       /g088/Y
      1    EQ       /g088/A0
      1    EQ       /g088/A1
      0    EQ       /g085/Y
      1    EQ       /g085/A0
      1    EQ       /g085/A1
      0    EQ       /g084/Y
      1    EQ       /g084/A0
      1    EQ       /g084/A1
      0    EQ       /g110/A0
      1    UO       /g083/Y
      1    EQ       /g087/A1
      0    UO       /g083/A0
      0    UO       /g083/A1
      1    UO       /g051/Y
      1    EQ       /g053/A1
      1    UO       /g051/A0
      1    UO       /g051/A1
      1    UO       /g084/Y
      1    EQ       /g086/A1
      0    UO       /g084/A0
      0    UO       /g084/A1
      1    UO       /g052/Y
      1    EQ       /g053/A0
      1    UO       /g052/A0
      1    UO       /g052/A1
      1    UO       /g085/Y
      1    EQ       /g086/A0
      0    UO       /g085/A0
      0    UO       /g085/A1
      1    UO       /g056/Y
      1    EQ       /g059/A1
      1    UO       /g056/A0
      1    UO       /g056/A1
      1    UO       /g088/Y
      1    EQ       /g089/A0
      0    UO       /g088/A0
      0    UO       /g088/A1
      1    UO       /g089/Y
      1    EQ       /g090/A0
      1    UO       /g089/A1
      1    UO       /g057/Y
      0    EQ       /g057/A
      1    EQ       /g058/A0
      0    UO       /g055/Y
      1    UO       /g055/Y
      0    UO       /g055/A0
      1    UO       /g055/A0
      0    UO       /g055/A1
      1    UO       /g055/A1
      0    UO       /g008/Y
      1    EQ       /g008/A0
      1    EQ       /g008/A1
      1    UO       /g008/Y
      0    UO       /g008/A0
      0    UO       /g008/A1
      0    UO       /g190/Y
      0    EQ       /g192/A1
      1    UC       /g216/Y
      1    EQ       /g216/A0
      1    EQ       /g216/A1
      1    EQ       /g215/Y
      1    EQ       /g215/A0
      1    EQ       /g215/A1
      1    EQ       /g214/Y
      1    EQ       /g214/A0
      1    EQ       /g214/A1
      1    EQ       /g213/Y
      1    EQ       /g213/A0
      1    EQ       /g213/A1
      1    EQ       /g212/Y
      1    EQ       /g212/A0
      1    EQ       /g212/A1
      1    EQ       /g211/Y
      1    EQ       /g211/A0
      1    EQ       /g211/A1
      1    EQ       /g210/Y
      1    EQ       /g210/A0
      1    EQ       /g210/A1
      1    EQ       /g209/Y
      1    EQ       /g209/A0
      1    EQ       /g209/A1
      1    EQ       /g208/Y
      1    EQ       /g208/A0
      1    EQ       /g208/A1
      1    EQ       /g207/Y
      1    EQ       /g207/A0
      1    EQ       /g207/A1
      1    EQ       /g206/Y
      1    EQ       /g206/A0
      1    EQ       /g206/A1
      1    EQ       /g205/Y
      1    EQ       /g205/A0
      1    EQ       /g205/A1
      1    EQ       /g204/Y
      1    EQ       /g204/A0
      1    EQ       /g204/A1
      1    EQ       /g203/Y
      1    EQ       /g203/A0
      1    EQ       /g203/A1
      1    EQ       /g202/Y
      1    EQ       /g202/A0
      1    EQ       /g202/A1
      1    EQ       /g201/Y
      1    EQ       /g201/A0
      1    EQ       /g201/A1
      1    EQ       /g200/Y
      1    EQ       /g200/A0
      1    EQ       /g200/A1
      1    EQ       /g199/Y
      1    EQ       /g199/A0
      1    EQ       /g199/A1
      1    EQ       /g198/Y
      1    EQ       /g198/A0
      1    EQ       /g198/A1
      1    EQ       /g197/Y
      1    EQ       /g197/A0
      1    EQ       /g197/A1
      1    EQ       /g193/Y
      1    EQ       /g193/A0
      1    EQ       /g193/A1
      1    EQ       /g196/Y
      0    EQ       /g196/A0
      0    EQ       /g196/A1
      1    EQ       /g192/Y
      1    EQ       /g192/A0
      1    EQ       /g192/A1
      1    EQ       /g189/Y
      1    EQ       /g189/A0
      1    EQ       /g189/A1
      0    EQ       /g195/Y
      1    EQ       /g195/A0
      1    EQ       /g195/A1
      1    EQ       /g191/Y
      0    EQ       /g191/A0
      0    EQ       /g191/A1
      1    EQ       /g190/Y
      0    EQ       /g190/A0
      0    EQ       /g190/A1
      1    EQ       /g188/Y
      0    EQ       /g188/A0
      0    EQ       /g188/A1
      1    EQ       /g187/Y
      0    EQ       /g187/A0
      0    EQ       /g187/A1
      1    EQ       /g194/Y
      0    EQ       /g194/A
      1    EQ       /g217/A0
      1    UO       /g190/A0
      1    UO       /g190/A1
      0    UC       /g183/Y
      0    EQ       /g183/A0
      0    EQ       /g183/A1
      0    EQ       /g182/Y
      0    EQ       /g182/A0
      0    EQ       /g182/A1
      0    EQ       /g181/Y
      0    EQ       /g181/A0
      0    EQ       /g181/A1
      0    EQ       /g180/Y
      0    EQ       /g180/A0
      0    EQ       /g180/A1
      0    EQ       /g179/Y
      0    EQ       /g179/A0
      0    EQ       /g179/A1
      0    EQ       /g178/Y
      0    EQ       /g178/A0
      0    EQ       /g178/A1
      0    EQ       /g177/Y
      0    EQ       /g177/A0
      0    EQ       /g177/A1
      0    EQ       /g176/Y
      0    EQ       /g176/A0
      0    EQ       /g176/A1
      0    EQ       /g175/Y
      0    EQ       /g175/A0
      0    EQ       /g175/A1
      0    EQ       /g174/Y
      0    EQ       /g174/A0
      0    EQ       /g174/A1
      0    EQ       /g173/Y
      0    EQ       /g173/A0
      0    EQ       /g173/A1
      0    EQ       /g172/Y
      0    EQ       /g172/A0
      0    EQ       /g172/A1
      0    EQ       /g171/Y
      0    EQ       /g171/A0
      0    EQ       /g171/A1
      0    EQ       /g170/Y
      0    EQ       /g170/A0
      0    EQ       /g170/A1
      0    EQ       /g169/Y
      0    EQ       /g169/A0
      0    EQ       /g169/A1
      0    EQ       /g168/Y
      0    EQ       /g168/A0
      0    EQ       /g168/A1
      0    EQ       /g167/Y
      0    EQ       /g167/A0
      0    EQ       /g167/A1
      0    EQ       /g166/Y
      0    EQ       /g166/A0
      0    EQ       /g166/A1
      0    EQ       /g165/Y
      0    EQ       /g165/A0
      0    EQ       /g165/A1
      0    EQ       /g164/Y
      0    EQ       /g164/A0
      0    EQ       /g164/A1
      0    EQ       /g160/Y
      0    EQ       /g160/A0
      0    EQ       /g160/A1
      0    EQ       /g163/Y
      0    EQ       /g163/A0
      0    EQ       /g163/A1
      0    EQ       /g159/Y
      0    EQ       /g159/A0
      0    EQ       /g159/A1
      0    EQ       /g156/Y
      1    EQ       /g156/A0
      1    EQ       /g156/A1
      0    EQ       /g162/Y
      1    EQ       /g162/A0
      1    EQ       /g162/A1
      0    EQ       /g158/Y
      1    EQ       /g158/A0
      1    EQ       /g158/A1
      0    EQ       /g157/Y
      1    EQ       /g157/A0
      1    EQ       /g157/A1
      0    EQ       /g184/A0
      1    UO       /g156/Y
      1    EQ       /g160/A1
      0    UO       /g156/A0
      0    UO       /g156/A1
      0    UO       /g191/Y
      0    EQ       /g192/A0
      1    UO       /g191/A0
      1    UO       /g191/A1
      1    UO       /g157/Y
      1    EQ       /g159/A1
      0    UO       /g157/A0
      0    UO       /g157/A1
      0    UO       /g187/Y
      0    EQ       /g189/A1
      1    UO       /g187/A0
      1    UO       /g187/A1
      1    UO       /g158/Y
      1    EQ       /g159/A0
      0    UO       /g158/A0
      0    UO       /g158/A1
      0    UO       /g188/Y
      0    EQ       /g189/A0
      1    UO       /g188/A0
      1    UO       /g188/A1
      1    UO       /g162/Y
      1    EQ       /g163/A0
      0    UO       /g162/A0
      0    UO       /g162/A1
      0    UO       /g194/Y
      1    EQ       /g194/A
      0    EQ       /g195/A1
      1    UO       /g195/Y
      1    EQ       /g196/A0
      0    UO       /g195/A0
      1    UO       /g163/Y
      1    EQ       /g164/A0
      1    UO       /g163/A1
      0    UO       /g161/Y
      1    UO       /g161/Y
      0    UO       /g161/A0
      1    UO       /g161/A0
      0    UO       /g161/A1
      1    UO       /g161/A1
      0    UO       /g118/Y
      1    UO       /g118/Y
      1    EQ       /g118/A0
      1    EQ       /g118/A1
      0    UO       /g118/A0
      0    UO       /g118/A1
      0    UO       /g155/Y
      1    UO       /g155/Y
      0    UO       /g155/A1
      1    UO       /g155/A1
      0    UO       /g155/A0
      1    UO       /g155/A0
      0    UO       /g119/Y
      0    EQ       /g119/A1
      0    EQ       /g119/A0
      1    UO       /g119/Y
      1    UO       /g119/A1
      1    UO       /g119/A0
      0    UO       /g154/Y
      1    UO       /g154/Y
      0    UO       /g154/A1
      1    UO       /g154/A1
      0    UO       /g154/A0
      1    UO       /g154/A0
      0    UO       /g120/Y
      1    EQ       /g120/A1
      1    EQ       /g120/A0
      1    UO       /g120/Y
      0    UO       /g120/A1
      0    UO       /g120/A0
      0    UO       /g116/Y
      1    EQ       /g116/A
      0    EQ       /g125/A1
      0    UO       /g125/Y
      1    EQ       /g125/A1
      1    EQ       /g125/A0
      1    EQ       /g116/Y
      0    EQ       /g116/A
      0    UO       /g115/Y
      1    EQ       /g115/A
      0    EQ       /g127/A1
      0    UO       /g127/Y
      1    EQ       /g127/A1
      1    EQ       /g127/A0
      1    EQ       /g115/Y
      0    EQ       /g115/A
      0    UO       /g113/Y
      1    EQ       /g113/A
      0    EQ       /g131/A1
      0    UO       /g131/Y
      1    EQ       /g131/A1
      1    EQ       /g131/A0
      1    EQ       /g113/Y
      0    EQ       /g113/A
      0    UO       /g112/Y
      1    EQ       /g112/A
      0    EQ       /g135/A1
      0    UO       /g135/Y
      1    EQ       /g135/A1
      1    EQ       /g135/A0
      1    EQ       /g112/Y
      0    EQ       /g112/A
      1    UO       /g137/Y
      0    EQ       /g137/A0
      0    EQ       /g137/A1
      0    EQ       /g136/Y
      0    EQ       /g136/A0
      0    EQ       /g136/A1
      1    UO       /g136/Y
      1    EQ       /g137/A0
      1    UO       /g136/A0
      1    UO       /g136/A1
      0    UO       /g196/Y
      0    EQ       /g197/A0
      1    UO       /g196/A1
      1    UO       /g053/Y
      1    EQ       /g054/A0
      1    UO       /g086/Y
      1    EQ       /g087/A0
      1    UO       /g090/Y
      1    EQ       /g091/A0
      1    UO       /g090/A1
      1    UO       /g058/Y
      1    EQ       /g059/A0
      1    UO       /g058/A1
      0    UO       /g049/Y
      1    UO       /g049/Y
      0    UO       /g049/A1
      1    UO       /g049/A1
      0    UO       /g049/A0
      1    UO       /g049/A0
      0    UO       /g009/Y
      1    EQ       /g009/A1
      1    EQ       /g009/A0
      1    UO       /g009/Y
      0    UO       /g009/A1
      0    UO       /g009/A0
      0    UO       /g192/Y
      0    EQ       /g193/A0
      1    UO       /g159/Y
      1    EQ       /g160/A0
      0    UO       /g189/Y
      0    EQ       /g193/A1
      1    UO       /g164/Y
      1    EQ       /g165/A0
      1    UO       /g164/A1
      0    UO       /g197/Y
      0    EQ       /g198/A0
      0    UO       /g197/A1
      0    UO       /g153/Y
      1    UO       /g153/Y
      0    UO       /g153/A1
      1    UO       /g153/A1
      0    UO       /g153/A0
      1    UO       /g153/A0
      0    UO       /g121/Y
      1    UO       /g121/Y
      0    EQ       /g121/A1
      0    EQ       /g121/A0
      1    UO       /g121/A1
      1    UO       /g121/A0
      1    UO       /g054/Y
      1    EQ       /g061/A1
      1    UO       /g087/Y
      1    EQ       /g091/A1
      0    UO       /g091/Y
      0    EQ       /g092/A0
      0    UO       /g059/Y
      0    EQ       /g060/A0
      1    UO       /g092/Y
      1    EQ       /g093/A0
      0    UO       /g092/A1
      0    UO       /g048/Y
      1    UO       /g048/Y
      0    UO       /g048/A1
      1    UO       /g048/A1
      0    UO       /g048/A0
      1    UO       /g048/A0
      0    UO       /g010/Y
      1    EQ       /g010/A1
      1    EQ       /g010/A0
      1    UO       /g010/Y
      0    UO       /g010/A1
      0    UO       /g010/A0
      0    UO       /g193/Y
      0    EQ       /g198/A1
      1    UO       /g160/Y
      1    EQ       /g165/A1
      1    UO       /g165/Y
      1    EQ       /g166/A0
      0    UO       /g198/Y
      0    EQ       /g199/A0
      0    UO       /g152/Y
      1    UO       /g152/Y
      0    UO       /g152/A1
      1    UO       /g152/A1
      0    UO       /g152/A0
      1    UO       /g152/A0
      0    UO       /g122/Y
      0    EQ       /g122/A1
      0    EQ       /g122/A0
      1    UO       /g122/Y
      1    UO       /g122/A1
      1    UO       /g122/A0
      1    UO       /g060/Y
      1    EQ       /g061/A0
      0    UO       /g060/A1
      1    UO       /g093/Y
      1    EQ       /g094/A0
      1    UO       /g093/A1
      0    UO       /g046/Y
      1    UO       /g046/Y
      0    UO       /g046/A1
      1    UO       /g046/A1
      0    UO       /g046/A0
      1    UO       /g046/A0
      0    UO       /g011/Y
      0    EQ       /g011/A1
      0    EQ       /g011/A0
      1    UO       /g011/Y
      1    UO       /g011/A1
      1    UO       /g011/A0
      1    UO       /g166/Y
      1    EQ       /g167/A0
      1    UO       /g166/A1
      0    UO       /g199/Y
      0    EQ       /g200/A0
      0    UO       /g199/A1
      0    UO       /g151/Y
      1    UO       /g151/Y
      0    UO       /g151/A1
      1    UO       /g151/A1
      0    UO       /g151/A0
      1    UO       /g151/A0
      0    UO       /g123/Y
      0    EQ       /g123/A1
      0    EQ       /g123/A0
      1    UO       /g123/Y
      1    UO       /g123/A1
      1    UO       /g123/A0
      1    UO       /g061/Y
      1    EQ       /g062/A0
      0    UO       /g094/Y
      0    EQ       /g095/A0
      1    UO       /g094/A1
      1    UO       /g047/Y
      0    EQ       /g047/A
      1    EQ       /g064/A1
      0    UO       /g045/Y
      1    UO       /g045/Y
      0    UO       /g045/A1
      1    UO       /g045/A1
      0    UO       /g045/A0
      1    UO       /g045/A0
      0    UO       /g012/Y
      1    EQ       /g012/A1
      1    EQ       /g012/A0
      1    UO       /g012/Y
      0    UO       /g012/A1
      0    UO       /g012/A0
      1    UO       /g167/Y
      1    EQ       /g168/A0
      1    UO       /g167/A1
      0    UO       /g200/Y
      0    EQ       /g201/A0
      0    UO       /g200/A1
      0    UO       /g150/Y
      1    UO       /g150/Y
      0    UO       /g150/A1
      1    UO       /g150/A1
      0    UO       /g150/A0
      1    UO       /g150/A0
      0    UO       /g124/Y
      1    EQ       /g124/A1
      1    EQ       /g124/A0
      1    UO       /g124/Y
      0    UO       /g124/A1
      0    UO       /g124/A0
      0    UO       /g062/Y
      0    EQ       /g063/A0
      1    UO       /g062/A1
      1    UO       /g095/Y
      1    EQ       /g096/A0
      0    UO       /g095/A1
      0    UO       /g044/Y
      1    UO       /g044/Y
      0    UO       /g044/A1
      1    UO       /g044/A1
      0    UO       /g044/A0
      1    UO       /g044/A0
      0    UO       /g013/Y
      0    EQ       /g013/A1
      0    EQ       /g013/A0
      1    UO       /g013/Y
      1    UO       /g013/A1
      1    UO       /g013/A0
      1    UO       /g168/Y
      1    EQ       /g169/A0
      1    UO       /g168/A1
      0    UO       /g201/Y
      0    EQ       /g202/A0
      0    UO       /g201/A1
      0    UO       /g149/Y
      1    UO       /g149/Y
      0    UO       /g149/A1
      1    UO       /g149/A1
      0    UO       /g149/A0
      1    UO       /g149/A0
      1    UO       /g125/Y
      0    UO       /g125/A0
      1    UO       /g063/Y
      1    EQ       /g064/A0
      0    UO       /g063/A1
      1    UO       /g096/Y
      1    EQ       /g097/A0
      1    UO       /g096/A1
      0    UO       /g042/Y
      1    UO       /g042/Y
      0    UO       /g042/A1
      1    UO       /g042/A1
      0    UO       /g042/A0
      1    UO       /g042/A0
      0    UO       /g014/Y
      1    EQ       /g014/A1
      1    EQ       /g014/A0
      1    UO       /g014/Y
      0    UO       /g014/A1
      0    UO       /g014/A0
      1    UO       /g169/Y
      1    EQ       /g170/A0
      1    UO       /g169/A1
      0    UO       /g202/Y
      0    EQ       /g203/A0
      0    UO       /g202/A1
      0    UO       /g148/Y
      1    UO       /g148/Y
      0    UO       /g148/A1
      1    UO       /g148/A1
      0    UO       /g148/A0
      1    UO       /g148/A0
      0    UO       /g126/Y
      1    EQ       /g126/A1
      1    EQ       /g126/A0
      1    UO       /g126/Y
      0    UO       /g126/A1
      0    UO       /g126/A0
      1    UO       /g064/Y
      1    EQ       /g065/A0
      0    UO       /g097/Y
      0    EQ       /g098/A0
      1    UO       /g097/A1
      1    UO       /g043/Y
      0    EQ       /g043/A
      1    EQ       /g067/A1
      0    UO       /g041/Y
      1    UO       /g041/Y
      0    UO       /g041/A1
      1    UO       /g041/A1
      0    UO       /g041/A0
      1    UO       /g041/A0
      0    UO       /g015/Y
      1    EQ       /g015/A1
      1    EQ       /g015/A0
      1    UO       /g015/Y
      0    UO       /g015/A1
      0    UO       /g015/A0
      1    UO       /g170/Y
      1    EQ       /g171/A0
      1    UO       /g170/A1
      0    UO       /g203/Y
      0    EQ       /g204/A0
      0    UO       /g203/A1
      0    UO       /g147/Y
      1    UO       /g147/Y
      0    UO       /g147/A1
      1    UO       /g147/A1
      0    UO       /g147/A0
      1    UO       /g147/A0
      1    UO       /g127/Y
      0    UO       /g127/A0
      0    UO       /g065/Y
      0    EQ       /g066/A0
      1    UO       /g065/A1
      1    UO       /g098/Y
      1    EQ       /g099/A0
      0    UO       /g098/A1
      0    UO       /g040/Y
      1    UO       /g040/Y
      0    UO       /g040/A1
      1    UO       /g040/A1
      0    UO       /g040/A0
      1    UO       /g040/A0
      0    UO       /g016/Y
      1    EQ       /g016/A1
      1    EQ       /g016/A0
      1    UO       /g016/Y
      0    UO       /g016/A1
      0    UO       /g016/A0
      1    UO       /g171/Y
      1    EQ       /g172/A0
      1    UO       /g171/A1
      0    UO       /g204/Y
      0    EQ       /g205/A0
      0    UO       /g204/A1
      0    UO       /g146/Y
      1    UO       /g146/Y
      0    UO       /g146/A1
      1    UO       /g146/A1
      0    UO       /g146/A0
      1    UO       /g146/A0
      0    UO       /g128/Y
      0    EQ       /g128/A1
      0    EQ       /g128/A0
      1    UO       /g128/Y
      1    UO       /g128/A1
      1    UO       /g128/A0
      1    UO       /g066/Y
      1    EQ       /g067/A0
      0    UO       /g066/A1
      0    UO       /g099/Y
      0    EQ       /g100/A0
      1    UO       /g099/A1
      0    UO       /g039/Y
      1    UO       /g039/Y
      0    UO       /g039/A1
      1    UO       /g039/A1
      0    UO       /g039/A0
      1    UO       /g039/A0
      0    UO       /g017/Y
      1    EQ       /g017/A1
      1    EQ       /g017/A0
      1    UO       /g017/Y
      0    UO       /g017/A1
      0    UO       /g017/A0
      1    UO       /g172/Y
      1    EQ       /g173/A0
      1    UO       /g172/A1
      0    UO       /g205/Y
      0    EQ       /g206/A0
      0    UO       /g205/A1
      0    UO       /g145/Y
      1    UO       /g145/Y
      0    UO       /g145/A1
      1    UO       /g145/A1
      0    UO       /g145/A0
      1    UO       /g145/A0
      0    UO       /g129/Y
      1    EQ       /g129/A1
      1    EQ       /g129/A0
      1    UO       /g129/Y
      0    UO       /g129/A1
      0    UO       /g129/A0
      1    UO       /g067/Y
      1    EQ       /g068/A0
      1    DS       /g100/Y
//                              num_detections = 1
      1    EQ       /g101/A0
//                              num_detections = 1
      0    UO       /g100/A1
      0    UO       /g038/Y
      1    UO       /g038/Y
      0    UO       /g038/A1
      1    UO       /g038/A1
      0    UO       /g038/A0
      1    UO       /g038/A0
      0    UO       /g018/Y
      0    EQ       /g018/A1
      0    EQ       /g018/A0
      1    UO       /g018/Y
      1    UO       /g018/A1
      1    UO       /g018/A0
      1    UO       /g173/Y
      1    EQ       /g174/A0
      1    UO       /g173/A1
      0    UO       /g206/Y
      0    EQ       /g207/A0
      0    UO       /g206/A1
      0    UO       /g144/Y
      1    UO       /g144/Y
      0    UO       /g144/A1
      1    UO       /g144/A1
      0    UO       /g144/A0
      1    UO       /g144/A0
      0    UO       /g130/Y
      0    EQ       /g130/A1
      0    EQ       /g130/A0
      1    UO       /g130/Y
      1    UO       /g130/A1
      1    UO       /g130/A0
      0    UO       /g068/Y
      0    EQ       /g069/A0
      1    UO       /g068/A1
      1    DS       /g101/Y
//                              num_detections = 1
      1    EQ       /g102/A0
//                              num_detections = 1
      1    UO       /g101/A1
      0    UO       /g036/Y
      1    UO       /g036/Y
      0    UO       /g036/A1
      1    UO       /g036/A1
      0    UO       /g036/A0
      1    UO       /g036/A0
      0    UO       /g019/Y
      1    EQ       /g019/A1
      1    EQ       /g019/A0
      1    DS       /g019/Y
//			       num_detections = 1
      0    DS       /g019/A1
//			       num_detections = 1
      0    UO       /g019/A0
      1    UO       /g174/Y
      1    EQ       /g175/A0
      1    UO       /g174/A1
      0    UO       /g207/Y
      0    EQ       /g208/A0
      0    UO       /g207/A1
      0    UO       /g143/Y
      1    UO       /g143/Y
      0    UO       /g143/A1
      1    UO       /g143/A1
      0    UO       /g143/A0
      1    UO       /g143/A0
      1    UO       /g131/Y
      0    UO       /g131/A0
      1    UO       /g069/Y
      1    EQ       /g070/A0
      0    UO       /g069/A1
      1    DS       /g102/Y
//                              num_detections = 2
      1    EQ       /g103/A0
//                              num_detections = 2
      1    UO       /g102/A1
      1    UO       /g037/Y
      0    EQ       /g037/A
      1    EQ       /g072/A1
      0    UO       /g035/Y
      1    UO       /g035/Y
      0    UO       /g035/A1
      1    UO       /g035/A1
      0    UO       /g035/A0
      1    UO       /g035/A0
      0    UO       /g020/Y
      0    EQ       /g020/A1
      0    EQ       /g020/A0
      1    DS       /g020/Y
//			       num_detections = 2
      1    DS       /g020/A1
//			       num_detections = 1
      1    DS       /g020/A0
//			       num_detections = 1
      1    UO       /g175/Y
      1    EQ       /g176/A0
      1    UO       /g175/A1
      0    UO       /g208/Y
      0    EQ       /g209/A0
      0    UO       /g208/A1
      0    UO       /g142/Y
      1    UO       /g142/Y
      0    UO       /g142/A1
      1    UO       /g142/A1
      0    UO       /g142/A0
      1    UO       /g142/A0
      0    UO       /g132/Y
      0    EQ       /g132/A1
      0    EQ       /g132/A0
      1    UO       /g132/Y
      1    UO       /g132/A1
      1    UO       /g132/A0
      0    UO       /g070/Y
      0    EQ       /g071/A0
      1    UO       /g070/A1
      0    DS       /g103/Y
//                              num_detections = 2
      0    EQ       /g104/A0
//                              num_detections = 2
      1    UO       /g103/A1
      0    UO       /g034/Y
      1    UO       /g034/Y
      0    UO       /g034/A1
      1    UO       /g034/A1
      0    UO       /g034/A0
      1    UO       /g034/A0
      0    DS       /g021/Y
//                              num_detections = 2
      1    EQ       /g021/A1
//                              num_detections = 2
      1    EQ       /g021/A0
//                              num_detections = 2
      1    DS       /g021/Y
//			       num_detections = 5
      0    DS       /g021/A1
//			       num_detections = 2
      0    UO       /g021/A0
      1    UO       /g176/Y
      1    EQ       /g177/A0
      1    UO       /g176/A1
      0    UO       /g209/Y
      0    EQ       /g210/A0
      0    UO       /g209/A1
      0    UO       /g141/Y
      1    UO       /g141/Y
      0    UO       /g141/A1
      1    UO       /g141/A1
      0    UO       /g141/A0
      1    UO       /g141/A0
      0    UO       /g133/Y
      0    EQ       /g133/A1
      0    EQ       /g133/A0
      1    UO       /g133/Y
      1    UO       /g133/A1
      1    UO       /g133/A0
      1    UO       /g071/Y
      1    EQ       /g072/A0
      0    UO       /g071/A1
      1    DS       /g104/Y
//                              num_detections = 3
      1    EQ       /g105/A0
//                              num_detections = 3
      0    UO       /g104/A1
      0    UO       /g033/Y
      1    UO       /g033/Y
      0    UO       /g033/A1
      1    UO       /g033/A1
      0    UO       /g033/A0
      1    UO       /g033/A0
      0    DS       /g022/Y
//                              num_detections = 2
      0    EQ       /g022/A1
//                              num_detections = 2
      0    EQ       /g022/A0
//                              num_detections = 2
      1    DS       /g022/Y
//			       num_detections = 7
      1    UO       /g022/A1
      1    DS       /g022/A0
//			       num_detections = 5
      1    UO       /g177/Y
      1    EQ       /g178/A0
      1    UO       /g177/A1
      0    UO       /g210/Y
      0    EQ       /g211/A0
      0    UO       /g210/A1
      0    UO       /g140/Y
      1    UO       /g140/Y
      0    UO       /g140/A1
      1    UO       /g140/A1
      0    UO       /g140/A0
      1    UO       /g140/A0
      0    UO       /g134/Y
      1    EQ       /g134/A1
      1    EQ       /g134/A0
      1    UO       /g134/Y
      0    UO       /g134/A1
      0    UO       /g134/A0
      0    DS       /g072/Y
//                              num_detections = 1
      0    EQ       /g073/A0
//                              num_detections = 1
      1    DS       /g105/Y
//                              num_detections = 5
      1    EQ       /g106/A0
//                              num_detections = 5
      1    UO       /g105/A1
      0    UO       /g031/Y
      1    UO       /g031/Y
      0    UO       /g031/A1
      1    UO       /g031/A1
      0    UO       /g031/A0
      1    UO       /g031/A0
      0    DS       /g023/Y
//                              num_detections = 2
      0    EQ       /g023/A1
//                              num_detections = 2
      0    EQ       /g023/A0
//                              num_detections = 2
      1    DS       /g023/Y
//			       num_detections = 14
      1    DS       /g023/A1
//			       num_detections = 2
      1    DS       /g023/A0
//			       num_detections = 7
      1    UO       /g178/Y
      1    EQ       /g179/A0
      1    UO       /g178/A1
      0    UO       /g211/Y
      0    EQ       /g212/A0
      0    UO       /g211/A1
      0    UO       /g139/Y
      1    UO       /g139/Y
      0    UO       /g139/A1
      1    UO       /g139/A1
      0    UO       /g139/A0
      1    UO       /g139/A0
      1    UO       /g135/Y
      0    UO       /g135/A0
      1    DS       /g073/Y
//                              num_detections = 2
      1    EQ       /g074/A0
//                              num_detections = 2
      0    UO       /g073/A1
      1    DS       /g106/Y
//                              num_detections = 17
      1    EQ       /g107/A0
//                              num_detections = 17
      1    UO       /g106/A1
      1    UO       /g032/Y
      0    EQ       /g032/A
      1    EQ       /g076/A1
      0    UO       /g030/Y
      1    UO       /g030/Y
      0    UO       /g030/A1
      1    UO       /g030/A1
      0    UO       /g030/A0
      1    UO       /g030/A0
      0    DS       /g024/Y
//                              num_detections = 14
      1    EQ       /g024/A1
//                              num_detections = 14
      1    EQ       /g024/A0
//                              num_detections = 14
      1    DS       /g024/Y
//			       num_detections = 18
      0    DS       /g024/A1
//			       num_detections = 15
      0    DS       /g024/A0
//			       num_detections = 2
      1    UO       /g179/Y
      1    EQ       /g180/A0
      1    UO       /g179/A1
      0    UO       /g212/Y
      0    EQ       /g213/A0
      0    UO       /g212/A1
      0    UO       /g138/Y
      1    UO       /g138/Y
      0    UO       /g138/A1
      1    UO       /g138/A1
      0    UO       /g138/A0
      1    UO       /g138/A0
      0    UO       /g137/Y
      1    UO       /g137/A1
      0    DS       /g074/Y
//                              num_detections = 5
      0    EQ       /g075/A0
//                              num_detections = 5
      1    UO       /g074/A1
      0    DS       /g107/Y
//                              num_detections = 18
      0    EQ       /g108/A0
//                              num_detections = 18
      1    UO       /g107/A1
      0    UO       /g029/Y
      1    UO       /g029/Y
      0    UO       /g029/A1
      1    UO       /g029/A1
      0    UO       /g029/A0
      1    UO       /g029/A0
      0    DS       /g025/Y
//                              num_detections = 18
      1    EQ       /g025/A1
//                              num_detections = 18
      1    EQ       /g025/A0
//                              num_detections = 18
      1    DS       /g025/Y
//			       num_detections = 42
      0    DS       /g025/A1
//			       num_detections = 19
      0    DS       /g025/A0
//			       num_detections = 14
      1    UO       /g180/Y
      1    EQ       /g181/A0
      1    UO       /g180/A1
      0    UO       /g213/Y
      0    EQ       /g214/A0
      0    UO       /g213/A1
      0    UO       /g225/Y
      1    EQ       /g225/A0
      1    EQ       /g225/A1
      1    EQ       /g224/Y
      0    EQ       /g226/A0
      0    UO       /g224/A1
      1    UC       /g221/Y
      1    EQ       /g221/A0
      1    EQ       /g221/A1
      1    EQ       /g220/Y
      0    EQ       /g220/A0
      0    EQ       /g220/A1
      1    EQ       /g218/Y
      0    EQ       /g219/Y
      1    EQ       /g222/A0
      1    UO       /g219/Y
      0    EQ       /g219/A1
      0    EQ       /g219/A0
      1    EQ       /g220/A0
      1    UO       /g219/A1
      1    UO       /g219/A0
      0    UO       /g218/Y
      1    EQ       /g218/A1
      1    EQ       /g218/A0
      1    EQ       /g217/Y
      0    EQ       /g217/A0
      0    EQ       /g217/A1
      0    EQ       /g216/Y
      0    EQ       /g186/Y
      0    EQ       /g221/A1
      0    UO       /g186/A1
      1    DS       /g075/Y
//                              num_detections = 9
      1    EQ       /g076/A0
//                              num_detections = 9
      0    UO       /g075/A1
      1    DS       /g108/Y
//                              num_detections = 18
      1    EQ       /g109/A0
//                              num_detections = 18
      0    UO       /g108/A1
      0    UO       /g028/Y
      1    UO       /g028/Y
      0    UO       /g028/A1
      1    UO       /g028/A1
      0    UO       /g028/A0
      1    UO       /g028/A0
      0    DS       /g026/Y
//                              num_detections = 18
      0    EQ       /g026/A1
//                              num_detections = 18
      0    EQ       /g026/A0
//                              num_detections = 18
      1    DS       /g026/Y
//			       num_detections = 103
      1    DS       /g026/A1
//			       num_detections = 15
      1    DS       /g026/A0
//			       num_detections = 42
      1    UO       /g181/Y
      1    EQ       /g182/A0
      1    UO       /g181/A1
      0    UO       /g214/Y
      0    EQ       /g215/A0
      0    UO       /g214/A1
      0    DS       /g076/Y
//                              num_detections = 15
      0    EQ       /g077/A0
//                              num_detections = 15
      1    DS       /g110/Y
//                              num_detections = 18
      1    EQ       /g110/A0
//                              num_detections = 18
      1    EQ       /g110/A1
//                              num_detections = 18
      1    EQ       /g109/Y
//                              num_detections = 18
      1    UO       /g109/A1
      0    DS       /g081/Y
//			       num_detections = 237
      1    DS       /g081/Y
//                              num_detections = 18
      0    EQ       /g081/A1
//                              num_detections = 18
      0    EQ       /g081/A0
//                              num_detections = 18
      1    DS       /g081/A1
//			       num_detections = 23
      1    DS       /g081/A0
//			       num_detections = 103
      1    UO       /g027/Y
      1    EQ       /g080/A1
      0    UO       /g027/A1
      1    UO       /g027/A1
      0    UO       /g027/A0
      1    UO       /g027/A0
      1    UO       /g182/Y
      1    EQ       /g183/A0
      1    UO       /g182/A1
      0    UO       /g215/Y
      0    EQ       /g216/A0
      0    UO       /g215/A1
      1    DS       /g077/Y
//                              num_detections = 33
      1    EQ       /g078/A0
//                              num_detections = 33
      0    UO       /g077/A1
      0    DS       /g110/Y
//			       num_detections = 237
      0    DS       /g110/A1
//			       num_detections = 237
      0    UO       /g184/Y
      1    EQ       /g184/A0
      1    EQ       /g184/A1
      1    EQ       /g183/Y
      1    UO       /g183/A1
      0    UO       /g216/A1
      0    DS       /g078/Y
//                              num_detections = 57
      0    EQ       /g079/A0
//                              num_detections = 57
      1    UO       /g078/A1
      1    UO       /g184/Y
      0    UO       /g184/A1
      0    UO       /g217/Y
      0    EQ       /g218/A0
      1    DS       /g079/Y
//                              num_detections = 126
      1    EQ       /g080/A0
//                              num_detections = 126
      0    UO       /g079/A1
      0    UC       "/\outport[2] "
      0    EQ       /g226/Y
      1    EQ       /g226/A0
      1    EQ       /g226/A1
      1    EQ       /g225/Y
      0    UO       /g225/A1
      0    UO       /g218/A1
      1    DS       /g082/Y
//                              num_detections = 237
      0    EQ       /g082/A1
//                              num_detections = 237
      0    EQ       /g082/A0
//                              num_detections = 237
      0    EQ       /g080/Y
//                              num_detections = 237
      0    UO       /g082/Y
      1    UO       /g082/A0
      0    DS       /g220/Y
//                              num_detections = 15
      0    EQ       /g221/A0
//                              num_detections = 15
      1    DS       /g220/A1
//			       num_detections = 15
      0    DS       /g111/Y
//			       num_detections >= 255
      1    UC       /g111/Y
      0    EQ       /g111/A0
      0    EQ       /g111/A1
      1    DS       /g111/A0
//			       num_detections = 18
      1    DS       /g111/A1
//			       num_detections = 237
      0    DS       "/\outport[1] "
//                              num_detections = 237
      0    EQ       /g222/Y
//                              num_detections = 237
      0    EQ       /g222/A1
//                              num_detections = 237
      0    EQ       /g222/A0
//                              num_detections = 237
      0    EQ       /g221/Y
//                              num_detections = 237
      1    DS       "/\outport[2] "
//                              num_detections >= 255
      1    EQ       /g226/Y
//                              num_detections >= 255
      0    DS       /g226/A1
//			       num_detections = 15
      1    DS       "/\outport[1] "
//                              num_detections = 18
      1    EQ       /g222/Y
//                              num_detections = 18
      1    DS       /g222/A1
//			       num_detections = 18
      0    DS       "/\outport[0] "
//			       num_detections >= 255
      1    UC       "/\outport[0] "
