                      Statistics Report                      
                       Stuck-at Faults                       
-------------------------------------------------------------
Fault Classes                           #faults              
                                        (total)              
------------------------  -----------------------------------
  FU (full)                              20954               
  ----------------------  -----------------------------------
  UC (uncontrolled)                    1947          ( 9.29%)
  UO (unobserved)                      2569          (12.26%)
  DS (det_simulation)                 16408          (78.30%)
  UU (unused)                            22          ( 0.10%)
  TI (tied)                               8          ( 0.04%)
-------------------------------------------------------------
Coverage                                                     
  ----------------------                                     
  test_coverage                                       78.42% 
  fault_coverage                                      78.30% 
  atpg_effectiveness                                  78.45% 
-------------------------------------------------------------
#test_patterns                                             0 
#simulated_patterns                                      255 
CPU_time (secs)                                       1031.2 
-------------------------------------------------------------
Multiple Detection Statistics                                
-------------------------------------------------------------
  Detections                  DS Faults         Test Coverage
     (N)                  (Detections == N) (Detections >= N)
------------------------  ----------------- -----------------
      1                      1125 (  5.37%)   16408 ( 78.42%)
      2                       613 (  2.93%)   15283 ( 73.04%)
      3                       331 (  1.58%)   14670 ( 70.11%)
      4                       255 (  1.22%)   14339 ( 68.53%)
      5                       175 (  0.84%)   14084 ( 67.31%)
      6                       121 (  0.58%)   13909 ( 66.47%)
      7                       133 (  0.63%)   13788 ( 65.90%)
      8                       149 (  0.71%)   13655 ( 65.26%)
      9                       117 (  0.56%)   13506 ( 64.55%)
     10                        98 (  0.47%)   13389 ( 63.99%)
     11                        88 (  0.42%)   13291 ( 63.52%)
     12                       140 (  0.67%)   13203 ( 63.10%)
     13                        99 (  0.47%)   13063 ( 62.43%)
     14                       131 (  0.63%)   12964 ( 61.96%)
     15                       102 (  0.49%)   12833 ( 61.33%)
     16                       103 (  0.49%)   12731 ( 60.84%)
     17                        85 (  0.41%)   12628 ( 60.35%)
     18                        73 (  0.35%)   12543 ( 59.95%)
     19                        78 (  0.37%)   12470 ( 59.60%)
     20                        62 (  0.30%)   12392 ( 59.22%)
     21                        69 (  0.33%)   12330 ( 58.93%)
     22                        81 (  0.39%)   12261 ( 58.60%)
     23                       109 (  0.52%)   12180 ( 58.21%)
     24                       112 (  0.53%)   12071 ( 57.69%)
     25                       101 (  0.48%)   11959 ( 57.15%)
     26                        91 (  0.43%)   11858 ( 56.67%)
     27                        86 (  0.41%)   11767 ( 56.24%)
     28                       116 (  0.55%)   11681 ( 55.83%)
     29                       133 (  0.63%)   11565 ( 55.27%)
     30                       109 (  0.52%)   11432 ( 54.64%)
     31                       146 (  0.70%)   11323 ( 54.11%)
     32                       120 (  0.57%)   11177 ( 53.42%)
     33                        93 (  0.44%)   11057 ( 52.84%)
     34                        99 (  0.47%)   10964 ( 52.40%)
     35                       112 (  0.53%)   10865 ( 51.93%)
     36                       118 (  0.56%)   10753 ( 51.39%)
     37                        46 (  0.22%)   10635 ( 50.83%)
     38                        23 (  0.11%)   10589 ( 50.61%)
     39                        76 (  0.36%)   10566 ( 50.50%)
     40                        39 (  0.19%)   10490 ( 50.13%)
     41                        70 (  0.33%)   10451 ( 49.95%)
     42                        39 (  0.19%)   10381 ( 49.61%)
     43                        50 (  0.24%)   10342 ( 49.43%)
     44                        44 (  0.21%)   10292 ( 49.19%)
     45                        32 (  0.15%)   10248 ( 48.98%)
     46                        45 (  0.21%)   10216 ( 48.82%)
     47                        42 (  0.20%)   10171 ( 48.61%)
     48                        64 (  0.31%)   10129 ( 48.41%)
     49                        49 (  0.23%)   10065 ( 48.10%)
     50                        80 (  0.38%)   10016 ( 47.87%)
     51                        80 (  0.38%)    9936 ( 47.49%)
     52                        49 (  0.23%)    9856 ( 47.10%)
     53                        55 (  0.26%)    9807 ( 46.87%)
     54                        36 (  0.17%)    9752 ( 46.61%)
     55                       121 (  0.58%)    9716 ( 46.43%)
     56                       122 (  0.58%)    9595 ( 45.86%)
     57                        74 (  0.35%)    9473 ( 45.27%)
     58                       134 (  0.64%)    9399 ( 44.92%)
     59                       108 (  0.52%)    9265 ( 44.28%)
     60                       100 (  0.48%)    9157 ( 43.76%)
     61                       145 (  0.69%)    9057 ( 43.29%)
     62                       158 (  0.75%)    8912 ( 42.59%)
     63                       205 (  0.98%)    8754 ( 41.84%)
     64                       129 (  0.62%)    8549 ( 40.86%)
     65                       107 (  0.51%)    8420 ( 40.24%)
     66                       199 (  0.95%)    8313 ( 39.73%)
     67                       125 (  0.60%)    8114 ( 38.78%)
     68                       115 (  0.55%)    7989 ( 38.18%)
     69                       133 (  0.63%)    7874 ( 37.63%)
     70                        78 (  0.37%)    7741 ( 37.00%)
     71                        77 (  0.37%)    7663 ( 36.62%)
     72                        64 (  0.31%)    7586 ( 36.26%)
     73                        32 (  0.15%)    7522 ( 35.95%)
     74                        30 (  0.14%)    7490 ( 35.80%)
     75                        44 (  0.21%)    7460 ( 35.65%)
     76                        44 (  0.21%)    7416 ( 35.44%)
     77                        30 (  0.14%)    7372 ( 35.23%)
     78                        44 (  0.21%)    7342 ( 35.09%)
     79                        37 (  0.18%)    7298 ( 34.88%)
     80                        40 (  0.19%)    7261 ( 34.70%)
     81                        31 (  0.15%)    7221 ( 34.51%)
     82                        82 (  0.39%)    7190 ( 34.36%)
     83                        34 (  0.16%)    7108 ( 33.97%)
     84                        26 (  0.12%)    7074 ( 33.81%)
     85                        17 (  0.08%)    7048 ( 33.68%)
     86                        22 (  0.10%)    7031 ( 33.60%)
     87                        21 (  0.10%)    7009 ( 33.50%)
     88                        33 (  0.16%)    6988 ( 33.40%)
     89                        43 (  0.21%)    6955 ( 33.24%)
     90                        77 (  0.37%)    6912 ( 33.03%)
     91                        67 (  0.32%)    6835 ( 32.67%)
     92                        67 (  0.32%)    6768 ( 32.35%)
     93                       105 (  0.50%)    6701 ( 32.03%)
     94                        82 (  0.39%)    6596 ( 31.52%)
     95                        67 (  0.32%)    6514 ( 31.13%)
     96                        76 (  0.36%)    6447 ( 30.81%)
     97                       101 (  0.48%)    6371 ( 30.45%)
     98                        89 (  0.42%)    6270 ( 29.97%)
     99                        43 (  0.21%)    6181 ( 29.54%)
    100                        53 (  0.25%)    6138 ( 29.33%)
    101                        68 (  0.32%)    6085 ( 29.08%)
    102                        70 (  0.33%)    6017 ( 28.76%)
    103                        94 (  0.45%)    5947 ( 28.42%)
    104                        45 (  0.21%)    5853 ( 27.97%)
    105                        66 (  0.31%)    5808 ( 27.76%)
    106                        57 (  0.27%)    5742 ( 27.44%)
    107                        97 (  0.46%)    5685 ( 27.17%)
    108                        61 (  0.29%)    5588 ( 26.71%)
    109                        87 (  0.42%)    5527 ( 26.41%)
    110                        82 (  0.39%)    5440 ( 26.00%)
    111                        49 (  0.23%)    5358 ( 25.61%)
    112                        89 (  0.42%)    5309 ( 25.37%)
    113                        84 (  0.40%)    5220 ( 24.95%)
    114                        99 (  0.47%)    5136 ( 24.55%)
    115                        87 (  0.42%)    5037 ( 24.07%)
    116                       164 (  0.78%)    4950 ( 23.66%)
    117                       121 (  0.58%)    4786 ( 22.87%)
    118                       120 (  0.57%)    4665 ( 22.29%)
    119                       128 (  0.61%)    4545 ( 21.72%)
    120                       165 (  0.79%)    4417 ( 21.11%)
    121                       216 (  1.03%)    4252 ( 20.32%)
    122                       209 (  1.00%)    4036 ( 19.29%)
    123                       131 (  0.63%)    3827 ( 18.29%)
    124                       164 (  0.78%)    3696 ( 17.66%)
    125                       143 (  0.68%)    3532 ( 16.88%)
    126                       145 (  0.69%)    3389 ( 16.20%)
    127                       214 (  1.02%)    3244 ( 15.50%)
    128                       189 (  0.90%)    3030 ( 14.48%)
    129                       181 (  0.86%)    2841 ( 13.58%)
    130                       152 (  0.73%)    2660 ( 12.71%)
    131                       131 (  0.63%)    2508 ( 11.99%)
    132                       150 (  0.72%)    2377 ( 11.36%)
    133                       214 (  1.02%)    2227 ( 10.64%)
    134                       167 (  0.80%)    2013 (  9.62%)
    135                       108 (  0.52%)    1846 (  8.82%)
    136                       113 (  0.54%)    1738 (  8.31%)
    137                       103 (  0.49%)    1625 (  7.77%)
    138                        94 (  0.45%)    1522 (  7.27%)
    139                        76 (  0.36%)    1428 (  6.82%)
    140                        66 (  0.31%)    1352 (  6.46%)
    141                        57 (  0.27%)    1286 (  6.15%)
    142                        42 (  0.20%)    1229 (  5.87%)
    143                        54 (  0.26%)    1187 (  5.67%)
    144                        34 (  0.16%)    1133 (  5.41%)
    145                        42 (  0.20%)    1099 (  5.25%)
    146                        37 (  0.18%)    1057 (  5.05%)
    147                        16 (  0.08%)    1020 (  4.87%)
    148                        22 (  0.10%)    1004 (  4.80%)
    149                        28 (  0.13%)     982 (  4.69%)
    150                        12 (  0.06%)     954 (  4.56%)
    151                         6 (  0.03%)     942 (  4.50%)
    152                        33 (  0.16%)     936 (  4.47%)
    153                        16 (  0.08%)     903 (  4.32%)
    154                         2 (  0.01%)     887 (  4.24%)
    155                        10 (  0.05%)     885 (  4.23%)
    156                         6 (  0.03%)     875 (  4.18%)
    157                        13 (  0.06%)     869 (  4.15%)
    158                        22 (  0.10%)     856 (  4.09%)
    159                        31 (  0.15%)     834 (  3.99%)
    160                         8 (  0.04%)     803 (  3.84%)
    161                        11 (  0.05%)     795 (  3.80%)
    162                         8 (  0.04%)     784 (  3.75%)
    163                         5 (  0.02%)     776 (  3.71%)
    164                         4 (  0.02%)     771 (  3.68%)
    165                         8 (  0.04%)     767 (  3.67%)
    166                        12 (  0.06%)     759 (  3.63%)
    167                         3 (  0.01%)     747 (  3.57%)
    168                         6 (  0.03%)     744 (  3.56%)
    169                         6 (  0.03%)     738 (  3.53%)
    170                         2 (  0.01%)     732 (  3.50%)
    171                        10 (  0.05%)     730 (  3.49%)
    172                         3 (  0.01%)     720 (  3.44%)
    173                        15 (  0.07%)     717 (  3.43%)
    174                        11 (  0.05%)     702 (  3.35%)
    175                        17 (  0.08%)     691 (  3.30%)
    176                         4 (  0.02%)     674 (  3.22%)
    177                         6 (  0.03%)     670 (  3.20%)
    178                         4 (  0.02%)     664 (  3.17%)
    179                         7 (  0.03%)     660 (  3.15%)
    180                        11 (  0.05%)     653 (  3.12%)
    181                        18 (  0.09%)     642 (  3.07%)
    182                         8 (  0.04%)     624 (  2.98%)
    183                        17 (  0.08%)     616 (  2.94%)
    184                        24 (  0.11%)     599 (  2.86%)
    185                        19 (  0.09%)     575 (  2.75%)
    186                        29 (  0.14%)     556 (  2.66%)
    187                        18 (  0.09%)     527 (  2.52%)
    188                        28 (  0.13%)     509 (  2.43%)
    189                        15 (  0.07%)     481 (  2.30%)
    190                        18 (  0.09%)     466 (  2.23%)
    191                        32 (  0.15%)     448 (  2.14%)
    192                        24 (  0.11%)     416 (  1.99%)
    193                        30 (  0.14%)     392 (  1.87%)
    194                        31 (  0.15%)     362 (  1.73%)
    195                        15 (  0.07%)     331 (  1.58%)
    196                         6 (  0.03%)     316 (  1.51%)
    197                        17 (  0.08%)     310 (  1.48%)
    198                         8 (  0.04%)     293 (  1.40%)
    199                        14 (  0.07%)     285 (  1.36%)
    200                        13 (  0.06%)     271 (  1.30%)
    201                         4 (  0.02%)     258 (  1.23%)
    202                         1 (  0.00%)     254 (  1.21%)
    203                         2 (  0.01%)     253 (  1.21%)
    204                         4 (  0.02%)     251 (  1.20%)
    205                        11 (  0.05%)     247 (  1.18%)
    206                         7 (  0.03%)     236 (  1.13%)
    207                         4 (  0.02%)     229 (  1.09%)
    208                         4 (  0.02%)     225 (  1.08%)
    209                         3 (  0.01%)     221 (  1.06%)
    210                         5 (  0.02%)     218 (  1.04%)
    211                         2 (  0.01%)     213 (  1.02%)
    212                         2 (  0.01%)     211 (  1.01%)
    213                         2 (  0.01%)     209 (  1.00%)
    214                         0 (  0.00%)     207 (  0.99%)
    215                         2 (  0.01%)     207 (  0.99%)
    216                         5 (  0.02%)     205 (  0.98%)
    217                         0 (  0.00%)     200 (  0.96%)
    218                         2 (  0.01%)     200 (  0.96%)
    219                         9 (  0.04%)     198 (  0.95%)
    220                         6 (  0.03%)     189 (  0.90%)
    221                         6 (  0.03%)     183 (  0.87%)
    222                         5 (  0.02%)     177 (  0.85%)
    223                         4 (  0.02%)     172 (  0.82%)
    224                         8 (  0.04%)     168 (  0.80%)
    225                         0 (  0.00%)     160 (  0.76%)
    226                        11 (  0.05%)     160 (  0.76%)
    227                         8 (  0.04%)     149 (  0.71%)
    228                         0 (  0.00%)     141 (  0.67%)
    229                         9 (  0.04%)     141 (  0.67%)
    230                         3 (  0.01%)     132 (  0.63%)
    231                         2 (  0.01%)     129 (  0.62%)
    232                         8 (  0.04%)     127 (  0.61%)
    233                         2 (  0.01%)     119 (  0.57%)
    234                         2 (  0.01%)     117 (  0.56%)
    235                         6 (  0.03%)     115 (  0.55%)
    236                         5 (  0.02%)     109 (  0.52%)
    237                         3 (  0.01%)     104 (  0.50%)
    238                         4 (  0.02%)     101 (  0.48%)
    239                         2 (  0.01%)      97 (  0.46%)
    240                         7 (  0.03%)      95 (  0.45%)
    241                        25 (  0.12%)      88 (  0.42%)
    242                         1 (  0.00%)      63 (  0.30%)
    243                         2 (  0.01%)      62 (  0.30%)
    244                         0 (  0.00%)      60 (  0.29%)
    245                         3 (  0.01%)      60 (  0.29%)
    246                         0 (  0.00%)      57 (  0.27%)
    247                         0 (  0.00%)      57 (  0.27%)
    248                         0 (  0.00%)      57 (  0.27%)
    249                         1 (  0.00%)      57 (  0.27%)
    250                         0 (  0.00%)      56 (  0.27%)
    251                         4 (  0.02%)      56 (  0.27%)
    252                         7 (  0.03%)      52 (  0.25%)
    253                        10 (  0.05%)      45 (  0.22%)
    254                         9 (  0.04%)      35 (  0.17%)
    255+                       26 (  0.12%)      26 (  0.12%)
-------------------------------------------------------------
bridge_coverage_estimate                              74.68% 
-------------------------------------------------------------

