digraph G {
0 [CC0=2, CC1=2, CO=21, LogicLevel=2, net_identifier=n52, sa0Testability=0.0363667, sa1Testability=0.0364755];
1 [CC0=1, CC1=1, CO=8, LogicLevel=1, net_identifier=G30, sa0Testability=0.00736961, sa1Testability=0.00719118];
2 [CC0=2, CC1=2, CO=14, LogicLevel=2, net_identifier=n53, sa0Testability=0.00244216, sa1Testability=0.00246961];
3 [CC0=1, CC1=1, CO=13, LogicLevel=1, net_identifier=G15, sa0Testability=0.0312304, sa1Testability=0.0312304];
4 [CC0=2, CC1=2, CO=14, LogicLevel=2, net_identifier=n54, sa0Testability=0.0312304, sa1Testability=0.0313382];
5 [CC0=1, CC1=1, CO=11, LogicLevel=1, net_identifier=G14, sa0Testability=0.0313382, sa1Testability=0.0313382];
6 [CC0=2, CC1=2, CO=14, LogicLevel=2, net_identifier=n55, sa0Testability=0.00760686, sa1Testability=0.00791961];
7 [CC0=1, CC1=1, CO=2, LogicLevel=1, net_identifier=G10, sa0Testability=0.0312304, sa1Testability=0.0312304];
8 [CC0=2, CC1=4, CO=12, LogicLevel=3, net_identifier=n56, sa0Testability=0.0312304, sa1Testability=0.0932127];
9 [CC0=1, CC1=1, CO=11, LogicLevel=1, net_identifier=G11, sa0Testability=0.0310588, sa1Testability=0.0932127];
10 [CC0=7, CC1=3, CO=9, LogicLevel=4, net_identifier=n57, sa0Testability=0.0168255, sa1Testability=0.0312304];
11 [CC0=10, CC1=3, CO=20, LogicLevel=5, net_identifier=n58, sa0Testability=0.0363667, sa1Testability=0.0412814];
12 [CC0=3, CC1=6, CO=17, LogicLevel=6, net_identifier=n59, sa0Testability=0.00719118, sa1Testability=0.00830294];
13 [CC0=2, CC1=2, CO=15, LogicLevel=2, net_identifier=n60, sa0Testability=0.250611, sa1Testability=0.24964];
14 [CC0=1, CC1=1, CO=15, LogicLevel=1, net_identifier=G18, sa0Testability=0.0162843, sa1Testability=0.0160657];
15 [CC0=2, CC1=2, CO=22, LogicLevel=2, net_identifier=n61, sa0Testability=0.0165431, sa1Testability=0.0166539];
16 [CC0=1, CC1=1, CO=17, LogicLevel=1, net_identifier=G17, sa0Testability=0.0165029, sa1Testability=0];
17 [CC0=2, CC1=4, CO=20, LogicLevel=3, net_identifier=n62, sa0Testability=0.0123441, sa1Testability=0.0123441];
18 [CC0=1, CC1=1, CO=13, LogicLevel=1, net_identifier=G16, sa0Testability=0.0165431, sa1Testability=0.0165255];
19 [CC0=3, CC1=7, CO=19, LogicLevel=4, net_identifier=n63, sa0Testability=0.00830294, sa1Testability=0.0219088];
20 [CC0=2, CC1=2, CO=19, LogicLevel=2, net_identifier=n64, sa0Testability=0.0315275, sa1Testability=0.0153167];
21 [CC0=1, CC1=1, CO=14, LogicLevel=1, net_identifier=G12, sa0Testability=0.140757, sa1Testability=0.00106275];
22 [CC0=2, CC1=4, CO=23, LogicLevel=3, net_identifier=n65, sa0Testability=0.00105784, sa1Testability=0.00408235];
23 [CC0=1, CC1=1, CO=14, LogicLevel=1, net_identifier=G21, sa0Testability=0.0020902, sa1Testability=0.00206863];
24 [CC0=2, CC1=2, CO=6, LogicLevel=2, net_identifier=n66, sa0Testability=0.249517, sa1Testability=0.250734];
25 [CC0=1, CC1=1, CO=2, LogicLevel=1, net_identifier=G0, sa0Testability=0.501139, sa1Testability=0.501139];
26 [CC0=2, CC1=4, CO=16, LogicLevel=3, net_identifier=n67, sa0Testability=0.00313627, sa1Testability=0.0093];
27 [CC0=1, CC1=1, CO=19, LogicLevel=1, net_identifier=G19, sa0Testability=0.206838, sa1Testability=0.104805];
28 [CC0=2, CC1=6, CO=21, LogicLevel=4, net_identifier=n68, sa0Testability=0.0020902, sa1Testability=0.0499167];
29 [CC0=1, CC1=1, CO=16, LogicLevel=1, net_identifier=G20, sa0Testability=0.234223, sa1Testability=0.124211];
30 [CC0=3, CC1=11, CO=16, LogicLevel=5, net_identifier=n69, sa0Testability=0.399513, sa1Testability=0.0499167];
31 [CC0=19, CC1=4, CO=8, LogicLevel=6, net_identifier=n70, sa0Testability=0.0020902, sa1Testability=0.75035];
32 [CC0=5, CC1=23, CO=4, LogicLevel=7, net_identifier=n71, sa0Testability=0.0020902, sa1Testability=0.75035];
33 [CC0=2, CC1=4, CO=18, LogicLevel=3, net_identifier=n72, sa0Testability=0.0148216, sa1Testability=0.21869];
34 [CC0=3, CC1=9, CO=13, LogicLevel=4, net_identifier=n73, sa0Testability=0.000457843, sa1Testability=0.00830294];
35 [CC0=2, CC1=5, CO=25, LogicLevel=5, net_identifier=n74, sa0Testability=0.00274314, sa1Testability=0.00410392];
36 [CC0=5, CC1=3, CO=19, LogicLevel=4, net_identifier=n75, sa0Testability=0.0124912, sa1Testability=0.00410392];
37 [CC0=2, CC1=2, CO=22, LogicLevel=2, net_identifier=n76, sa0Testability=0.0163108, sa1Testability=0.0160657];
38 [CC0=4, CC1=2, CO=20, LogicLevel=3, net_identifier=n77, sa0Testability=0.0124667, sa1Testability=0.00410392];
39 [CC0=10, CC1=3, CO=17, LogicLevel=5, net_identifier=n78, sa0Testability=0.0313588, sa1Testability=0.00410392];
40 [CC0=3, CC1=2, CO=25, LogicLevel=2, net_identifier=n79, sa0Testability=0.130954, sa1Testability=0.00201373];
41 [CC0=14, CC1=3, CO=14, LogicLevel=6, net_identifier=n80, sa0Testability=0.130954, sa1Testability=0.00201373];
42 [CC0=17, CC1=4, CO=11, LogicLevel=7, net_identifier=n81, sa0Testability=0.24756, sa1Testability=0.00201373];
43 [CC0=2, CC1=4, CO=11, LogicLevel=3, net_identifier=n82, sa0Testability=0.24756, sa1Testability=0.75035];
44 [CC0=3, CC1=9, CO=6, LogicLevel=8, net_identifier=n83, sa0Testability=0.24965, sa1Testability=0.75035];
45 [CC0=9, CC1=10, CO=0, LogicLevel=9, net_identifier=G62, sa0Testability=0.24965, sa1Testability=0.75035];
46 [CC0=3, CC1=10, CO=14, LogicLevel=5, net_identifier=n85, sa0Testability=0.0082402, sa1Testability=0.124211];
47 [CC0=2, CC1=2, CO=15, LogicLevel=2, net_identifier=n86, sa0Testability=0.129565, sa1Testability=0.126385];
48 [CC0=1, CC1=1, CO=15, LogicLevel=1, net_identifier=G13, sa0Testability=0.0311618, sa1Testability=0.124671];
49 [CC0=2, CC1=4, CO=14, LogicLevel=3, net_identifier=n87, sa0Testability=0.0780255, sa1Testability=0.0780255];
50 [CC0=2, CC1=4, CO=26, LogicLevel=3, net_identifier=n88, sa0Testability=0.000978431, sa1Testability=0.00728824];
51 [CC0=2, CC1=6, CO=24, LogicLevel=4, net_identifier=n89, sa0Testability=0.000978431, sa1Testability=0.0259569];
52 [CC0=3, CC1=11, CO=19, LogicLevel=5, net_identifier=n90, sa0Testability=0.400774, sa1Testability=0.0259569];
53 [CC0=22, CC1=4, CO=8, LogicLevel=6, net_identifier=n91, sa0Testability=0.000978431, sa1Testability=0.751266];
54 [CC0=5, CC1=26, CO=4, LogicLevel=7, net_identifier=n92, sa0Testability=0.000978431, sa1Testability=0.751266];
55 [CC0=8, CC1=4, CO=18, LogicLevel=5, net_identifier=n93, sa0Testability=0.0148078, sa1Testability=0.00830294];
56 [CC0=2, CC1=2, CO=16, LogicLevel=2, net_identifier=n94, sa0Testability=0.00106863, sa1Testability=0.00103529];
57 [CC0=2, CC1=4, CO=30, LogicLevel=3, net_identifier=n95, sa0Testability=0.00106863, sa1Testability=0.00209804];
58 [CC0=3, CC1=2, CO=23, LogicLevel=2, net_identifier=n96, sa0Testability=0.0165461, sa1Testability=0.00830294];
59 [CC0=6, CC1=3, CO=26, LogicLevel=4, net_identifier=n97, sa0Testability=0.0145794, sa1Testability=0.00209804];
60 [CC0=9, CC1=4, CO=23, LogicLevel=5, net_identifier=n98, sa0Testability=0.130805, sa1Testability=0.00209804];
61 [CC0=18, CC1=5, CO=14, LogicLevel=6, net_identifier=n99, sa0Testability=0.130805, sa1Testability=0.00209804];
62 [CC0=21, CC1=6, CO=11, LogicLevel=7, net_identifier=n100, sa0Testability=0.247756, sa1Testability=0.00209804];
63 [CC0=2, CC1=4, CO=13, LogicLevel=3, net_identifier=n101, sa0Testability=0.247756, sa1Testability=0.751266];
64 [CC0=3, CC1=11, CO=6, LogicLevel=8, net_identifier=n102, sa0Testability=0.248734, sa1Testability=0.751266];
65 [CC0=9, CC1=12, CO=0, LogicLevel=9, net_identifier=G69, sa0Testability=0.248734, sa1Testability=0.751266];
66 [CC0=2, CC1=4, CO=14, LogicLevel=3, net_identifier=n104, sa0Testability=0.015752, sa1Testability=0.0469843];
67 [CC0=4, CC1=2, CO=21, LogicLevel=3, net_identifier=n105, sa0Testability=0.0545245, sa1Testability=0.0313882];
68 [CC0=3, CC1=7, CO=20, LogicLevel=4, net_identifier=n106, sa0Testability=0.00313627, sa1Testability=0.0508745];
69 [CC0=3, CC1=12, CO=15, LogicLevel=5, net_identifier=n107, sa0Testability=0.400962, sa1Testability=0.0508745];
70 [CC0=20, CC1=4, CO=7, LogicLevel=6, net_identifier=n108, sa0Testability=0.400962, sa1Testability=0.752];
71 [CC0=5, CC1=23, CO=4, LogicLevel=7, net_identifier=n109, sa0Testability=0.00313627, sa1Testability=0.752];
72 [CC0=2, CC1=2, CO=25, LogicLevel=2, net_identifier=n110, sa0Testability=0.00416765, sa1Testability=0.00410392];
73 [CC0=13, CC1=3, CO=14, LogicLevel=6, net_identifier=n111, sa0Testability=0.128459, sa1Testability=0.00410392];
74 [CC0=16, CC1=4, CO=11, LogicLevel=7, net_identifier=n112, sa0Testability=0.244864, sa1Testability=0.00410392];
75 [CC0=2, CC1=4, CO=11, LogicLevel=3, net_identifier=n113, sa0Testability=0.244864, sa1Testability=0.752];
76 [CC0=3, CC1=9, CO=6, LogicLevel=8, net_identifier=n114, sa0Testability=0.248, sa1Testability=0.752];
77 [CC0=9, CC1=10, CO=0, LogicLevel=9, net_identifier=G127, sa0Testability=0.248, sa1Testability=0.752];
78 [CC0=2, CC1=3, CO=0, LogicLevel=2, net_identifier=G60, sa0Testability=0.249558, sa1Testability=0.750442];
79 [CC0=4, CC1=2, CO=12, LogicLevel=3, net_identifier=n117, sa0Testability=0.0936353, sa1Testability=0.0312304];
80 [CC0=7, CC1=3, CO=9, LogicLevel=4, net_identifier=n118, sa0Testability=0.218377, sa1Testability=0.0312304];
81 [CC0=2, CC1=3, CO=10, LogicLevel=2, net_identifier=n119, sa0Testability=0.0931706, sa1Testability=0.18762];
82 [CC0=3, CC1=2, CO=10, LogicLevel=2, net_identifier=n120, sa0Testability=0.46971, sa1Testability=0.124875];
83 [CC0=5, CC1=3, CO=7, LogicLevel=3, net_identifier=n121, sa0Testability=0.46971, sa1Testability=0.65677];
84 [CC0=4, CC1=8, CO=4, LogicLevel=4, net_identifier=n122, sa0Testability=0.218377, sa1Testability=0.781623];
85 [CC0=5, CC1=12, CO=0, LogicLevel=5, net_identifier=G61, sa0Testability=0.218377, sa1Testability=0.781623];
86 [CC0=2, CC1=5, CO=9, LogicLevel=3, net_identifier=n124, sa0Testability=0.062048, sa1Testability=0.186933];
87 [CC0=3, CC1=2, CO=9, LogicLevel=2, net_identifier=n125, sa0Testability=0.249801, sa1Testability=0.0622529];
88 [CC0=3, CC1=2, CO=9, LogicLevel=2, net_identifier=n126, sa0Testability=0.0233235, sa1Testability=0.00791961];
89 [CC0=3, CC1=5, CO=6, LogicLevel=3, net_identifier=n127, sa0Testability=0.625441, sa1Testability=0.375533];
90 [CC0=8, CC1=4, CO=3, LogicLevel=4, net_identifier=n128, sa0Testability=0.625441, sa1Testability=0.750199];
91 [CC0=5, CC1=11, CO=0, LogicLevel=5, net_identifier=G79, sa0Testability=0.249801, sa1Testability=0.750199];
92 [CC0=7, CC1=2, CO=10, LogicLevel=4, net_identifier=n130, sa0Testability=0.217732, sa1Testability=0.031249];
93 [CC0=4, CC1=2, CO=10, LogicLevel=4, net_identifier=n131, sa0Testability=0.217732, sa1Testability=0.187335];
94 [CC0=3, CC1=6, CO=6, LogicLevel=5, net_identifier=n132, sa0Testability=0.217732, sa1Testability=0.719515];
95 [CC0=4, CC1=9, CO=3, LogicLevel=6, net_identifier=n133, sa0Testability=0.217732, sa1Testability=0.782268];
96 [CC0=5, CC1=12, CO=0, LogicLevel=7, net_identifier=G84, sa0Testability=0.217732, sa1Testability=0.782268];
97 [CC0=3, CC1=2, CO=13, LogicLevel=2, net_identifier=n135, sa0Testability=0.249099, sa1Testability=0.116898];
98 [CC0=7, CC1=3, CO=9, LogicLevel=5, net_identifier=n136, sa0Testability=0.249099, sa1Testability=0.116898];
99 [CC0=2, CC1=3, CO=11, LogicLevel=2, net_identifier=n137, sa0Testability=0.124967, sa1Testability=0.485478];
100 [CC0=2, CC1=3, CO=11, LogicLevel=2, net_identifier=n138, sa0Testability=0.249099, sa1Testability=0.485478];
101 [CC0=5, CC1=4, CO=8, LogicLevel=3, net_identifier=n139, sa0Testability=0.249099, sa1Testability=0.485478];
102 [CC0=3, CC1=2, CO=16, LogicLevel=2, net_identifier=n140, sa0Testability=0.0312814, sa1Testability=0.00499118];
103 [CC0=6, CC1=3, CO=13, LogicLevel=3, net_identifier=n141, sa0Testability=0.0542294, sa1Testability=0.00791961];
104 [CC0=10, CC1=3, CO=9, LogicLevel=4, net_identifier=n142, sa0Testability=0.249099, sa1Testability=0.516754];
105 [CC0=6, CC1=8, CO=4, LogicLevel=5, net_identifier=n143, sa0Testability=0.249099, sa1Testability=0.750901];
106 [CC0=7, CC1=12, CO=0, LogicLevel=6, net_identifier=G89, sa0Testability=0.249099, sa1Testability=0.750901];
107 [CC0=11, CC1=3, CO=23, LogicLevel=5, net_identifier=n145, sa0Testability=0.0912892, sa1Testability=0.00195196];
108 [CC0=2, CC1=3, CO=33, LogicLevel=2, net_identifier=n146, sa0Testability=0.00188824, sa1Testability=0.00499118];
109 [CC0=2, CC1=4, CO=25, LogicLevel=3, net_identifier=n147, sa0Testability=0.0165186, sa1Testability=0.0330186];
110 [CC0=5, CC1=4, CO=30, LogicLevel=4, net_identifier=n148, sa0Testability=0.00583725, sa1Testability=0.00499118];
111 [CC0=17, CC1=4, CO=18, LogicLevel=6, net_identifier=n149, sa0Testability=0.232883, sa1Testability=0.00499118];
112 [CC0=3, CC1=2, CO=23, LogicLevel=2, net_identifier=n150, sa0Testability=0.21934, sa1Testability=0.0580961];
113 [CC0=7, CC1=3, CO=19, LogicLevel=5, net_identifier=n151, sa0Testability=0.232883, sa1Testability=0.0580961];
114 [CC0=3, CC1=2, CO=22, LogicLevel=2, net_identifier=n152, sa0Testability=0.0912892, sa1Testability=0.0292];
115 [CC0=6, CC1=3, CO=19, LogicLevel=3, net_identifier=n153, sa0Testability=0.232883, sa1Testability=0.043848];
116 [CC0=8, CC1=3, CO=19, LogicLevel=4, net_identifier=n154, sa0Testability=0.232883, sa1Testability=0.0146598];
117 [CC0=3, CC1=2, CO=20, LogicLevel=2, net_identifier=n155, sa0Testability=0.232883, sa1Testability=0.367102];
118 [CC0=3, CC1=5, CO=17, LogicLevel=3, net_identifier=n156, sa0Testability=0.232883, sa1Testability=0.396533];
119 [CC0=4, CC1=9, CO=13, LogicLevel=5, net_identifier=n157, sa0Testability=0.232883, sa1Testability=0.513852];
120 [CC0=5, CC1=13, CO=9, LogicLevel=6, net_identifier=n158, sa0Testability=0.232883, sa1Testability=0.747491];
121 [CC0=6, CC1=17, CO=5, LogicLevel=7, net_identifier=n159, sa0Testability=0.232883, sa1Testability=0.767117];
122 [CC0=7, CC1=22, CO=0, LogicLevel=8, net_identifier=G96, sa0Testability=0.232883, sa1Testability=0.767117];
123 [CC0=3, CC1=2, CO=17, LogicLevel=2, net_identifier=n161, sa0Testability=0.133031, sa1Testability=0.0329784];
124 [CC0=6, CC1=3, CO=14, LogicLevel=3, net_identifier=n162, sa0Testability=0.249803, sa1Testability=0.0329784];
125 [CC0=10, CC1=4, CO=10, LogicLevel=7, net_identifier=n163, sa0Testability=0.249803, sa1Testability=0.0329784];
126 [CC0=2, CC1=4, CO=14, LogicLevel=3, net_identifier=n164, sa0Testability=0.0499186, sa1Testability=0.516743];
127 [CC0=2, CC1=6, CO=12, LogicLevel=4, net_identifier=n165, sa0Testability=0.0334157, sa1Testability=0.450325];
128 [CC0=2, CC1=4, CO=12, LogicLevel=3, net_identifier=n166, sa0Testability=0.249803, sa1Testability=0.450325];
129 [CC0=5, CC1=5, CO=9, LogicLevel=5, net_identifier=n167, sa0Testability=0.249803, sa1Testability=0.450325];
130 [CC0=3, CC1=2, CO=15, LogicLevel=2, net_identifier=n168, sa0Testability=0.249803, sa1Testability=0.0289539];
131 [CC0=7, CC1=3, CO=11, LogicLevel=5, net_identifier=n169, sa0Testability=0.249803, sa1Testability=0.683843];
132 [CC0=6, CC1=9, CO=5, LogicLevel=6, net_identifier=n170, sa0Testability=0.249803, sa1Testability=0.750197];
133 [CC0=7, CC1=14, CO=0, LogicLevel=8, net_identifier=G101, sa0Testability=0.249803, sa1Testability=0.750197];
134 [CC0=2, CC1=8, CO=16, LogicLevel=5, net_identifier=n172, sa0Testability=0.232548, sa1Testability=0.433123];
135 [CC0=5, CC1=5, CO=13, LogicLevel=6, net_identifier=n173, sa0Testability=0.232548, sa1Testability=0.433123];
136 [CC0=3, CC1=2, CO=19, LogicLevel=2, net_identifier=n174, sa0Testability=0.232548, sa1Testability=0.0147422];
137 [CC0=7, CC1=3, CO=15, LogicLevel=5, net_identifier=n175, sa0Testability=0.232548, sa1Testability=0.66778];
138 [CC0=6, CC1=9, CO=9, LogicLevel=7, net_identifier=n176, sa0Testability=0.232548, sa1Testability=0.66778];
139 [CC0=2, CC1=4, CO=25, LogicLevel=3, net_identifier=n177, sa0Testability=0.0166539, sa1Testability=0.0330186];
140 [CC0=2, CC1=4, CO=25, LogicLevel=3, net_identifier=n178, sa0Testability=0.0330216, sa1Testability=0.0330186];
141 [CC0=5, CC1=5, CO=22, LogicLevel=4, net_identifier=n179, sa0Testability=0.0496755, sa1Testability=0.0330186];
142 [CC0=8, CC1=5, CO=19, LogicLevel=5, net_identifier=n180, sa0Testability=0.0466843, sa1Testability=0.0292];
143 [CC0=12, CC1=3, CO=15, LogicLevel=6, net_identifier=n181, sa0Testability=0.232548, sa1Testability=0.0292];
144 [CC0=20, CC1=4, CO=14, LogicLevel=6, net_identifier=n182, sa0Testability=0.232548, sa1Testability=0.0330186];
145 [CC0=13, CC1=8, CO=10, LogicLevel=7, net_identifier=n183, sa0Testability=0.232548, sa1Testability=0.767452];
146 [CC0=7, CC1=18, CO=0, LogicLevel=8, net_identifier=G106, sa0Testability=0.232548, sa1Testability=0.767452];
147 [CC0=12, CC1=3, CO=14, LogicLevel=6, net_identifier=n185, sa0Testability=0.133075, sa1Testability=0.00830294];
148 [CC0=16, CC1=4, CO=10, LogicLevel=7, net_identifier=n186, sa0Testability=0.249654, sa1Testability=0.00830294];
149 [CC0=3, CC1=2, CO=15, LogicLevel=2, net_identifier=n187, sa0Testability=0.249654, sa1Testability=0.0072598];
150 [CC0=7, CC1=3, CO=11, LogicLevel=5, net_identifier=n188, sa0Testability=0.249654, sa1Testability=0.0072598];
151 [CC0=5, CC1=2, CO=12, LogicLevel=6, net_identifier=n189, sa0Testability=0.249654, sa1Testability=0.499886];
152 [CC0=3, CC1=5, CO=9, LogicLevel=7, net_identifier=n190, sa0Testability=0.249654, sa1Testability=0.733782];
153 [CC0=4, CC1=9, CO=5, LogicLevel=8, net_identifier=n191, sa0Testability=0.249654, sa1Testability=0.750346];
154 [CC0=5, CC1=14, CO=0, LogicLevel=9, net_identifier=G115, sa0Testability=0.249654, sa1Testability=0.750346];
155 [CC0=5, CC1=3, CO=13, LogicLevel=4, net_identifier=n193, sa0Testability=0.0469853, sa1Testability=0.109124];
156 [CC0=2, CC1=7, CO=11, LogicLevel=5, net_identifier=n194, sa0Testability=0.491049, sa1Testability=0.109124];
157 [CC0=1, CC1=1, CO=8, LogicLevel=1, net_identifier=G29, sa0Testability=0.0154627, sa1Testability=0.015752];
158 [CC0=12, CC1=3, CO=6, LogicLevel=6, net_identifier=n195, sa0Testability=0.355523, sa1Testability=0.015752];
159 [CC0=2, CC1=3, CO=16, LogicLevel=2, net_identifier=n196, sa0Testability=0.0156333, sa1Testability=0.047102];
160 [CC0=2, CC1=6, CO=13, LogicLevel=4, net_identifier=n197, sa0Testability=0.0156333, sa1Testability=0.101109];
161 [CC0=3, CC1=10, CO=9, LogicLevel=5, net_identifier=n198, sa0Testability=0.491049, sa1Testability=0.458845];
162 [CC0=5, CC1=2, CO=7, LogicLevel=6, net_identifier=n199, sa0Testability=0.355523, sa1Testability=0.429113];
163 [CC0=1, CC1=1, CO=11, LogicLevel=1, net_identifier=G22, sa0Testability=0.459837, sa1Testability=0.458845];
164 [CC0=6, CC1=6, CO=3, LogicLevel=7, net_identifier=n200, sa0Testability=0.249517, sa1Testability=0.249196];
165 [CC0=3, CC1=9, CO=0, LogicLevel=8, net_identifier=G137, sa0Testability=0.249517, sa1Testability=0.750483];
166 [CC0=6, CC1=6, CO=9, LogicLevel=7, net_identifier=n202, sa0Testability=0.149038, sa1Testability=0.219027];
167 [CC0=3, CC1=2, CO=13, LogicLevel=2, net_identifier=n203, sa0Testability=0.218966, sa1Testability=0.062151];
168 [CC0=3, CC1=2, CO=13, LogicLevel=2, net_identifier=n204, sa0Testability=0.124802, sa1Testability=0.0625402];
169 [CC0=4, CC1=2, CO=13, LogicLevel=3, net_identifier=n205, sa0Testability=0.218966, sa1Testability=0.156684];
170 [CC0=1, CC1=1, CO=1, LogicLevel=1, net_identifier=G23, sa0Testability=0.0937245, sa1Testability=0.0937686];
171 [CC0=4, CC1=5, CO=10, LogicLevel=4, net_identifier=n206, sa0Testability=0.218966, sa1Testability=0.280783];
172 [CC0=4, CC1=8, CO=7, LogicLevel=5, net_identifier=n207, sa0Testability=0.218966, sa1Testability=0.781034];
173 [CC0=5, CC1=15, CO=0, LogicLevel=8, net_identifier=G167, sa0Testability=0.218966, sa1Testability=0.781034];
174 [CC0=2, CC1=3, CO=20, LogicLevel=2, net_identifier=n209, sa0Testability=0.0468618, sa1Testability=0.0468618];
175 [CC0=4, CC1=3, CO=19, LogicLevel=3, net_identifier=n210, sa0Testability=0.0621814, sa1Testability=0.0314529];
176 [CC0=6, CC1=2, CO=21, LogicLevel=4, net_identifier=n211, sa0Testability=0.217975, sa1Testability=0.0314529];
177 [CC0=1, CC1=1, CO=1, LogicLevel=1, net_identifier=G24, sa0Testability=0.0622824, sa1Testability=0.0314529];
178 [CC0=2, CC1=4, CO=21, LogicLevel=3, net_identifier=n212, sa0Testability=0.217975, sa1Testability=0.125556];
179 [CC0=5, CC1=5, CO=18, LogicLevel=4, net_identifier=n213, sa0Testability=0.217975, sa1Testability=0.188258];
180 [CC0=6, CC1=8, CO=15, LogicLevel=5, net_identifier=n214, sa0Testability=0.217975, sa1Testability=0.188258];
181 [CC0=4, CC1=3, CO=21, LogicLevel=3, net_identifier=n215, sa0Testability=0.29598, sa1Testability=0.0313882];
182 [CC0=9, CC1=3, CO=16, LogicLevel=4, net_identifier=n216, sa0Testability=0.249306, sa1Testability=0.0313882];
183 [CC0=4, CC1=2, CO=23, LogicLevel=3, net_identifier=n217, sa0Testability=0.0932049, sa1Testability=0.0312284];
184 [CC0=7, CC1=3, CO=20, LogicLevel=4, net_identifier=n218, sa0Testability=0.217975, sa1Testability=0.0626167];
185 [CC0=8, CC1=7, CO=16, LogicLevel=5, net_identifier=n219, sa0Testability=0.217975, sa1Testability=0.281775];
186 [CC0=7, CC1=16, CO=7, LogicLevel=6, net_identifier=n220, sa0Testability=0.217975, sa1Testability=0.782025];
187 [CC0=7, CC1=23, CO=0, LogicLevel=8, net_identifier=G173, sa0Testability=0.217975, sa1Testability=0.782025];
188 [CC0=6, CC1=2, CO=17, LogicLevel=4, net_identifier=n222, sa0Testability=0.249306, sa1Testability=0.0312333];
189 [CC0=1, CC1=1, CO=1, LogicLevel=1, net_identifier=G25, sa0Testability=0.0625137, sa1Testability=0.0312333];
190 [CC0=2, CC1=4, CO=17, LogicLevel=3, net_identifier=n223, sa0Testability=0.249306, sa1Testability=0.156584];
191 [CC0=5, CC1=5, CO=14, LogicLevel=4, net_identifier=n224, sa0Testability=0.249306, sa1Testability=0.187973];
192 [CC0=6, CC1=9, CO=10, LogicLevel=5, net_identifier=n225, sa0Testability=0.249306, sa1Testability=0.250443];
193 [CC0=7, CC1=12, CO=7, LogicLevel=6, net_identifier=n226, sa0Testability=0.249306, sa1Testability=0.750694];
194 [CC0=7, CC1=19, CO=0, LogicLevel=8, net_identifier=G179, sa0Testability=0.249306, sa1Testability=0.750694];
195 [CC0=9, CC1=3, CO=8, LogicLevel=8, net_identifier=n228, sa0Testability=0.50071, sa1Testability=0.24964];
196 [CC0=2, CC1=5, CO=20, LogicLevel=3, net_identifier=n229, sa0Testability=0.0313882, sa1Testability=0.186789];
197 [CC0=2, CC1=5, CO=20, LogicLevel=3, net_identifier=n230, sa0Testability=0.203125, sa1Testability=0.186789];
198 [CC0=1, CC1=1, CO=1, LogicLevel=1, net_identifier=G26, sa0Testability=0.0312451, sa1Testability=0.0311627];
199 [CC0=4, CC1=2, CO=18, LogicLevel=4, net_identifier=n231, sa0Testability=0.250099, sa1Testability=0.186789];
200 [CC0=7, CC1=3, CO=15, LogicLevel=5, net_identifier=n232, sa0Testability=0.50071, sa1Testability=0.186789];
201 [CC0=14, CC1=4, CO=8, LogicLevel=8, net_identifier=n233, sa0Testability=0.50071, sa1Testability=0.186789];
202 [CC0=3, CC1=2, CO=18, LogicLevel=2, net_identifier=n234, sa0Testability=0.250099, sa1Testability=0.0628608];
203 [CC0=5, CC1=2, CO=16, LogicLevel=3, net_identifier=n235, sa0Testability=0.50071, sa1Testability=0.0628608];
204 [CC0=12, CC1=3, CO=9, LogicLevel=8, net_identifier=n236, sa0Testability=0.50071, sa1Testability=0.24965];
205 [CC0=13, CC1=8, CO=4, LogicLevel=9, net_identifier=n237, sa0Testability=0.50071, sa1Testability=0.49929];
206 [CC0=10, CC1=12, CO=0, LogicLevel=10, net_identifier=G183, sa0Testability=0.50071, sa1Testability=0.49929];
207 [CC0=7, CC1=3, CO=19, LogicLevel=4, net_identifier=n239, sa0Testability=0.124974, sa1Testability=0.0315275];
208 [CC0=4, CC1=2, CO=20, LogicLevel=3, net_identifier=n240, sa0Testability=0.124974, sa1Testability=0.0311451];
209 [CC0=1, CC1=1, CO=1, LogicLevel=1, net_identifier=G27, sa0Testability=0.0625245, sa1Testability=0.0311451];
210 [CC0=4, CC1=2, CO=20, LogicLevel=3, net_identifier=n241, sa0Testability=0.124974, sa1Testability=0.187601];
211 [CC0=2, CC1=4, CO=18, LogicLevel=4, net_identifier=n242, sa0Testability=0.124974, sa1Testability=0.312242];
212 [CC0=3, CC1=7, CO=15, LogicLevel=5, net_identifier=n243, sa0Testability=0.124974, sa1Testability=0.374775];
213 [CC0=4, CC1=11, CO=11, LogicLevel=6, net_identifier=n244, sa0Testability=0.375584, sa1Testability=0.374775];
214 [CC0=11, CC1=7, CO=4, LogicLevel=8, net_identifier=n245, sa0Testability=0.375584, sa1Testability=0.624416];
215 [CC0=10, CC1=11, CO=0, LogicLevel=9, net_identifier=G188, sa0Testability=0.375584, sa1Testability=0.624416];
216 [CC0=4, CC1=6, CO=13, LogicLevel=5, net_identifier=n247, sa0Testability=0.124802, sa1Testability=0.140566];
217 [CC0=4, CC1=2, CO=17, LogicLevel=3, net_identifier=n248, sa0Testability=0.124802, sa1Testability=0.0939196];
218 [CC0=1, CC1=1, CO=1, LogicLevel=1, net_identifier=G28, sa0Testability=0.0935735, sa1Testability=0.0939196];
219 [CC0=3, CC1=2, CO=17, LogicLevel=2, net_identifier=n249, sa0Testability=0.124802, sa1Testability=0.124842];
220 [CC0=4, CC1=5, CO=14, LogicLevel=4, net_identifier=n250, sa0Testability=0.124802, sa1Testability=0.374947];
221 [CC0=5, CC1=12, CO=7, LogicLevel=6, net_identifier=n251, sa0Testability=0.124802, sa1Testability=0.875198];
222 [CC0=6, CC1=19, CO=0, LogicLevel=8, net_identifier=G194, sa0Testability=0.124802, sa1Testability=0.875198];
223 [CC0=3, CC1=2, CO=6, LogicLevel=2, net_identifier=n253, sa0Testability=0.249788, sa1Testability=0.12451];
224 [CC0=1, CC1=1, CO=8, LogicLevel=1, net_identifier=G2, sa0Testability=0.12451, sa1Testability=0.124853];
225 [CC0=3, CC1=2, CO=6, LogicLevel=2, net_identifier=n254, sa0Testability=0.249788, sa1Testability=0.500477];
226 [CC0=3, CC1=5, CO=3, LogicLevel=3, net_identifier=n255, sa0Testability=0.249788, sa1Testability=0.750212];
227 [CC0=4, CC1=8, CO=0, LogicLevel=4, net_identifier=G200, sa0Testability=0.249788, sa1Testability=0.750212];
228 [CC0=3, CC1=2, CO=6, LogicLevel=2, net_identifier=n257, sa0Testability=0.24957, sa1Testability=0.125009];
229 [CC0=1, CC1=1, CO=8, LogicLevel=1, net_identifier=G1, sa0Testability=0.125009, sa1Testability=0.124754];
230 [CC0=3, CC1=2, CO=6, LogicLevel=2, net_identifier=n258, sa0Testability=0.24957, sa1Testability=0.500271];
231 [CC0=3, CC1=5, CO=3, LogicLevel=3, net_identifier=n259, sa0Testability=0.24957, sa1Testability=0.75043];
232 [CC0=4, CC1=8, CO=0, LogicLevel=4, net_identifier=G206, sa0Testability=0.24957, sa1Testability=0.75043];
233 [CC0=2, CC1=2, CO=0, LogicLevel=2, net_identifier=G147, sa0Testability=0.500022, sa1Testability=0.499978];
234 [CC0=2, CC1=2, CO=0, LogicLevel=2, net_identifier=G148, sa0Testability=0.499178, sa1Testability=0.500822];
235 [CC0=2, CC1=2, CO=0, LogicLevel=2, net_identifier=G198, sa0Testability=0.500198, sa1Testability=0.499802];
236 [CC0=2, CC1=2, CO=0, LogicLevel=2, net_identifier=G199, sa0Testability=0.500109, sa1Testability=0.499891];
237 [CC0=2, CC1=2, CO=0, LogicLevel=2, net_identifier=G213, sa0Testability=0.499677, sa1Testability=0.500323];
238 [CC0=2, CC1=2, CO=0, LogicLevel=2, net_identifier=G214, sa0Testability=0.499586, sa1Testability=0.500414];
0->12  [gate_identifier=g007, gate_type=and02];
1->0  [gate_identifier=g000, gate_type=inv01];
1->35  [gate_identifier=g022, gate_type=nor02];
1->97  [gate_identifier=g083, gate_type=or02];
1->100  [gate_identifier=g086, gate_type=nor02];
1->112  [gate_identifier=g098, gate_type=or02];
1->114  [gate_identifier=g100, gate_type=nand02];
1->130  [gate_identifier=g116, gate_type=or02];
1->136  [gate_identifier=g122, gate_type=or02];
1->149  [gate_identifier=g135, gate_type=or02];
1->228  [gate_identifier=g205, gate_type=nand02];
1->230  [gate_identifier=g206, gate_type=or02];
2->11  [gate_identifier=g006, gate_type=or02];
2->80  [gate_identifier=g066, gate_type=or02];
3->2  [gate_identifier=g001, gate_type=inv01];
3->33  [gate_identifier=g020, gate_type=and02];
3->92  [gate_identifier=g078, gate_type=nand02];
3->93  [gate_identifier=g079, gate_type=or02];
3->102  [gate_identifier=g088, gate_type=nand02];
4->10  [gate_identifier=g005, gate_type=nand02];
4->33  [gate_identifier=g020, gate_type=and02];
5->4  [gate_identifier=g002, gate_type=inv01];
5->79  [gate_identifier=g065, gate_type=or02];
5->86  [gate_identifier=g072, gate_type=and02];
5->87  [gate_identifier=g073, gate_type=or02];
5->88  [gate_identifier=g074, gate_type=or02];
6->8  [gate_identifier=g004, gate_type=nor02];
6->79  [gate_identifier=g065, gate_type=or02];
6->103  [gate_identifier=g089, gate_type=or02];
7->6  [gate_identifier=g003, gate_type=inv01];
7->78  [gate_identifier=g064, gate_type=nor02];
7->81  [gate_identifier=g067, gate_type=and02];
7->82  [gate_identifier=g068, gate_type=or02];
7->87  [gate_identifier=g073, gate_type=or02];
8->10  [gate_identifier=g005, gate_type=nand02];
8->34  [gate_identifier=g021, gate_type=and02];
9->8  [gate_identifier=g004, gate_type=nor02];
9->81  [gate_identifier=g067, gate_type=and02];
9->82  [gate_identifier=g068, gate_type=or02];
9->88  [gate_identifier=g074, gate_type=or02];
10->11  [gate_identifier=g006, gate_type=or02];
10->94  [gate_identifier=g080, gate_type=and02];
10->107  [gate_identifier=g093, gate_type=or02];
11->12  [gate_identifier=g007, gate_type=and02];
12->32  [gate_identifier=g019, gate_type=nor02];
12->54  [gate_identifier=g040, gate_type=nor02];
12->125  [gate_identifier=g111, gate_type=or02];
12->148  [gate_identifier=g134, gate_type=or02];
13->19  [gate_identifier=g011, gate_type=and02];
13->124  [gate_identifier=g110, gate_type=or02];
13->139  [gate_identifier=g125, gate_type=and02];
13->195  [gate_identifier=g176, gate_type=or02];
14->13  [gate_identifier=g008, gate_type=inv01];
14->38  [gate_identifier=g025, gate_type=or02];
14->109  [gate_identifier=g095, gate_type=and02];
14->128  [gate_identifier=g114, gate_type=and02];
14->130  [gate_identifier=g116, gate_type=or02];
14->134  [gate_identifier=g120, gate_type=and02];
15->17  [gate_identifier=g010, gate_type=and02];
15->109  [gate_identifier=g095, gate_type=and02];
15->115  [gate_identifier=g101, gate_type=or02];
16->15  [gate_identifier=g009, gate_type=inv01];
16->108  [gate_identifier=g094, gate_type=nor02];
16->112  [gate_identifier=g098, gate_type=or02];
16->117  [gate_identifier=g103, gate_type=or02];
16->123  [gate_identifier=g109, gate_type=nand02];
16->127  [gate_identifier=g113, gate_type=and02];
16->139  [gate_identifier=g125, gate_type=and02];
16->140  [gate_identifier=g126, gate_type=and02];
17->19  [gate_identifier=g011, gate_type=and02];
17->36  [gate_identifier=g023, gate_type=inv01];
18->17  [gate_identifier=g010, gate_type=and02];
18->97  [gate_identifier=g083, gate_type=or02];
18->99  [gate_identifier=g085, gate_type=nor02];
18->102  [gate_identifier=g088, gate_type=nand02];
18->114  [gate_identifier=g100, gate_type=nand02];
18->117  [gate_identifier=g103, gate_type=or02];
18->123  [gate_identifier=g109, gate_type=nand02];
18->126  [gate_identifier=g112, gate_type=and02];
19->31  [gate_identifier=g018, gate_type=nand02];
19->55  [gate_identifier=g041, gate_type=inv01];
19->70  [gate_identifier=g056, gate_type=nand02];
20->22  [gate_identifier=g013, gate_type=and02];
20->178  [gate_identifier=g160, gate_type=nor02];
20->190  [gate_identifier=g171, gate_type=nor02];
20->207  [gate_identifier=g187, gate_type=nand02];
20->210  [gate_identifier=g189, gate_type=or02];
21->20  [gate_identifier=g012, gate_type=inv01];
21->43  [gate_identifier=g030, gate_type=and02];
21->49  [gate_identifier=g035, gate_type=and02];
21->57  [gate_identifier=g043, gate_type=and02];
21->67  [gate_identifier=g053, gate_type=or02];
21->167  [gate_identifier=g151, gate_type=or02];
21->168  [gate_identifier=g152, gate_type=or02];
21->199  [gate_identifier=g179, gate_type=or02];
21->202  [gate_identifier=g182, gate_type=nand02];
22->30  [gate_identifier=g017, gate_type=and02];
22->59  [gate_identifier=g045, gate_type=or02];
23->22  [gate_identifier=g013, gate_type=and02];
23->40  [gate_identifier=g027, gate_type=nand02];
23->51  [gate_identifier=g037, gate_type=and02];
23->56  [gate_identifier=g042, gate_type=inv01];
23->75  [gate_identifier=g061, gate_type=and02];
23->159  [gate_identifier=g144, gate_type=nor02];
23->168  [gate_identifier=g152, gate_type=or02];
23->174  [gate_identifier=g157, gate_type=and02];
24->26  [gate_identifier=g015, gate_type=and02];
24->43  [gate_identifier=g030, gate_type=and02];
24->50  [gate_identifier=g036, gate_type=and02];
24->63  [gate_identifier=g049, gate_type=and02];
24->75  [gate_identifier=g061, gate_type=and02];
24->83  [gate_identifier=g069, gate_type=nand02];
24->89  [gate_identifier=g075, gate_type=and02];
24->94  [gate_identifier=g080, gate_type=and02];
24->118  [gate_identifier=g104, gate_type=and02];
24->126  [gate_identifier=g112, gate_type=and02];
24->128  [gate_identifier=g114, gate_type=and02];
24->152  [gate_identifier=g138, gate_type=and02];
24->165  [gate_identifier=g149, gate_type=and02];
24->226  [gate_identifier=g203, gate_type=and02];
24->231  [gate_identifier=g207, gate_type=and02];
25->24  [gate_identifier=g014, gate_type=inv01];
25->78  [gate_identifier=g064, gate_type=nor02];
25->99  [gate_identifier=g085, gate_type=nor02];
25->100  [gate_identifier=g086, gate_type=nor02];
26->28  [gate_identifier=g016, gate_type=and02];
26->68  [gate_identifier=g054, gate_type=and02];
26->135  [gate_identifier=g121, gate_type=or02];
27->26  [gate_identifier=g015, gate_type=and02];
27->37  [gate_identifier=g024, gate_type=inv01];
27->58  [gate_identifier=g044, gate_type=nand02];
27->108  [gate_identifier=g094, gate_type=nor02];
27->136  [gate_identifier=g122, gate_type=or02];
28->30  [gate_identifier=g017, gate_type=and02];
29->28  [gate_identifier=g016, gate_type=and02];
29->40  [gate_identifier=g027, gate_type=nand02];
29->50  [gate_identifier=g036, gate_type=and02];
29->58  [gate_identifier=g044, gate_type=nand02];
29->66  [gate_identifier=g052, gate_type=and02];
29->72  [gate_identifier=g058, gate_type=inv01];
29->149  [gate_identifier=g135, gate_type=or02];
29->151  [gate_identifier=g137, gate_type=or02];
29->159  [gate_identifier=g144, gate_type=nor02];
29->219  [gate_identifier=g197, gate_type=or02];
30->31  [gate_identifier=g018, gate_type=nand02];
31->32  [gate_identifier=g019, gate_type=nor02];
32->45  [gate_identifier=g032, gate_type=or02];
33->34  [gate_identifier=g021, gate_type=and02];
34->35  [gate_identifier=g022, gate_type=nor02];
34->98  [gate_identifier=g084, gate_type=or02];
34->113  [gate_identifier=g099, gate_type=or02];
34->131  [gate_identifier=g117, gate_type=or02];
34->137  [gate_identifier=g123, gate_type=or02];
34->150  [gate_identifier=g136, gate_type=or02];
35->42  [gate_identifier=g029, gate_type=or02];
35->62  [gate_identifier=g048, gate_type=or02];
35->71  [gate_identifier=g057, gate_type=nor02];
35->74  [gate_identifier=g060, gate_type=or02];
36->39  [gate_identifier=g026, gate_type=or02];
36->46  [gate_identifier=g033, gate_type=nor02];
37->38  [gate_identifier=g025, gate_type=or02];
37->140  [gate_identifier=g126, gate_type=and02];
38->39  [gate_identifier=g026, gate_type=or02];
38->46  [gate_identifier=g033, gate_type=nor02];
38->116  [gate_identifier=g102, gate_type=or02];
39->41  [gate_identifier=g028, gate_type=or02];
39->73  [gate_identifier=g059, gate_type=or02];
40->41  [gate_identifier=g028, gate_type=or02];
41->42  [gate_identifier=g029, gate_type=or02];
42->44  [gate_identifier=g031, gate_type=and02];
43->44  [gate_identifier=g031, gate_type=and02];
44->45  [gate_identifier=g032, gate_type=or02];
46->53  [gate_identifier=g039, gate_type=nand02];
46->151  [gate_identifier=g137, gate_type=or02];
47->49  [gate_identifier=g035, gate_type=and02];
47->67  [gate_identifier=g053, gate_type=or02];
47->169  [gate_identifier=g153, gate_type=or02];
47->217  [gate_identifier=g196, gate_type=or02];
48->47  [gate_identifier=g034, gate_type=inv01];
48->63  [gate_identifier=g049, gate_type=and02];
48->167  [gate_identifier=g151, gate_type=or02];
48->174  [gate_identifier=g157, gate_type=and02];
48->183  [gate_identifier=g165, gate_type=or02];
48->196  [gate_identifier=g177, gate_type=and02];
48->202  [gate_identifier=g182, gate_type=nand02];
48->211  [gate_identifier=g190, gate_type=and02];
48->219  [gate_identifier=g197, gate_type=or02];
49->52  [gate_identifier=g038, gate_type=and02];
49->155  [gate_identifier=g141, gate_type=inv01];
49->160  [gate_identifier=g145, gate_type=and02];
49->179  [gate_identifier=g161, gate_type=nor02];
49->191  [gate_identifier=g172, gate_type=nor02];
50->51  [gate_identifier=g037, gate_type=and02];
51->52  [gate_identifier=g038, gate_type=and02];
52->53  [gate_identifier=g039, gate_type=nand02];
53->54  [gate_identifier=g040, gate_type=nor02];
54->65  [gate_identifier=g051, gate_type=or02];
55->61  [gate_identifier=g047, gate_type=or02];
55->147  [gate_identifier=g133, gate_type=or02];
56->57  [gate_identifier=g043, gate_type=and02];
56->66  [gate_identifier=g052, gate_type=and02];
56->184  [gate_identifier=g166, gate_type=or02];
56->208  [gate_identifier=g188, gate_type=or02];
57->60  [gate_identifier=g046, gate_type=or02];
58->59  [gate_identifier=g045, gate_type=or02];
58->147  [gate_identifier=g133, gate_type=or02];
59->60  [gate_identifier=g046, gate_type=or02];
60->61  [gate_identifier=g047, gate_type=or02];
61->62  [gate_identifier=g048, gate_type=or02];
62->64  [gate_identifier=g050, gate_type=and02];
63->64  [gate_identifier=g050, gate_type=and02];
64->65  [gate_identifier=g051, gate_type=or02];
66->69  [gate_identifier=g055, gate_type=and02];
66->158  [gate_identifier=g143, gate_type=nand02];
66->207  [gate_identifier=g187, gate_type=nand02];
67->68  [gate_identifier=g054, gate_type=and02];
67->182  [gate_identifier=g164, gate_type=or02];
68->69  [gate_identifier=g055, gate_type=and02];
69->70  [gate_identifier=g056, gate_type=nand02];
70->71  [gate_identifier=g057, gate_type=nor02];
71->77  [gate_identifier=g063, gate_type=or02];
72->73  [gate_identifier=g059, gate_type=or02];
72->183  [gate_identifier=g165, gate_type=or02];
73->74  [gate_identifier=g060, gate_type=or02];
74->76  [gate_identifier=g062, gate_type=and02];
75->76  [gate_identifier=g062, gate_type=and02];
76->77  [gate_identifier=g063, gate_type=or02];
79->80  [gate_identifier=g066, gate_type=or02];
80->85  [gate_identifier=g071, gate_type=and02];
81->84  [gate_identifier=g070, gate_type=nor02];
81->86  [gate_identifier=g072, gate_type=and02];
82->83  [gate_identifier=g069, gate_type=nand02];
83->84  [gate_identifier=g070, gate_type=nor02];
84->85  [gate_identifier=g071, gate_type=and02];
86->91  [gate_identifier=g077, gate_type=nor02];
86->92  [gate_identifier=g078, gate_type=nand02];
86->93  [gate_identifier=g079, gate_type=or02];
87->90  [gate_identifier=g076, gate_type=nand02];
88->89  [gate_identifier=g075, gate_type=and02];
88->103  [gate_identifier=g089, gate_type=or02];
89->90  [gate_identifier=g076, gate_type=nand02];
90->91  [gate_identifier=g077, gate_type=nor02];
92->96  [gate_identifier=g082, gate_type=and02];
93->95  [gate_identifier=g081, gate_type=and02];
94->95  [gate_identifier=g081, gate_type=and02];
95->96  [gate_identifier=g082, gate_type=and02];
97->98  [gate_identifier=g084, gate_type=or02];
98->106  [gate_identifier=g092, gate_type=and02];
99->101  [gate_identifier=g087, gate_type=or02];
100->101  [gate_identifier=g087, gate_type=or02];
101->105  [gate_identifier=g091, gate_type=and02];
102->104  [gate_identifier=g090, gate_type=or02];
102->107  [gate_identifier=g093, gate_type=or02];
103->104  [gate_identifier=g090, gate_type=or02];
104->105  [gate_identifier=g091, gate_type=and02];
105->106  [gate_identifier=g092, gate_type=and02];
107->111  [gate_identifier=g097, gate_type=or02];
107->144  [gate_identifier=g130, gate_type=or02];
108->110  [gate_identifier=g096, gate_type=or02];
109->110  [gate_identifier=g096, gate_type=or02];
109->141  [gate_identifier=g127, gate_type=or02];
110->111  [gate_identifier=g097, gate_type=or02];
111->122  [gate_identifier=g108, gate_type=and02];
112->113  [gate_identifier=g099, gate_type=or02];
113->121  [gate_identifier=g107, gate_type=and02];
114->115  [gate_identifier=g101, gate_type=or02];
114->116  [gate_identifier=g102, gate_type=or02];
114->143  [gate_identifier=g129, gate_type=or02];
115->120  [gate_identifier=g106, gate_type=and02];
116->119  [gate_identifier=g105, gate_type=and02];
117->118  [gate_identifier=g104, gate_type=and02];
118->119  [gate_identifier=g105, gate_type=and02];
119->120  [gate_identifier=g106, gate_type=and02];
120->121  [gate_identifier=g107, gate_type=and02];
121->122  [gate_identifier=g108, gate_type=and02];
123->124  [gate_identifier=g110, gate_type=or02];
124->125  [gate_identifier=g111, gate_type=or02];
125->133  [gate_identifier=g119, gate_type=and02];
126->127  [gate_identifier=g113, gate_type=and02];
127->129  [gate_identifier=g115, gate_type=or02];
127->134  [gate_identifier=g120, gate_type=and02];
128->129  [gate_identifier=g115, gate_type=or02];
129->132  [gate_identifier=g118, gate_type=and02];
130->131  [gate_identifier=g117, gate_type=or02];
131->132  [gate_identifier=g118, gate_type=and02];
132->133  [gate_identifier=g119, gate_type=and02];
134->135  [gate_identifier=g121, gate_type=or02];
135->138  [gate_identifier=g124, gate_type=and02];
136->137  [gate_identifier=g123, gate_type=or02];
137->138  [gate_identifier=g124, gate_type=and02];
138->146  [gate_identifier=g132, gate_type=and02];
139->142  [gate_identifier=g128, gate_type=or02];
140->141  [gate_identifier=g127, gate_type=or02];
141->142  [gate_identifier=g128, gate_type=or02];
142->143  [gate_identifier=g129, gate_type=or02];
142->144  [gate_identifier=g130, gate_type=or02];
143->145  [gate_identifier=g131, gate_type=and02];
144->145  [gate_identifier=g131, gate_type=and02];
145->146  [gate_identifier=g132, gate_type=and02];
147->148  [gate_identifier=g134, gate_type=or02];
148->154  [gate_identifier=g140, gate_type=and02];
149->150  [gate_identifier=g136, gate_type=or02];
150->153  [gate_identifier=g139, gate_type=and02];
151->152  [gate_identifier=g138, gate_type=and02];
152->153  [gate_identifier=g139, gate_type=and02];
153->154  [gate_identifier=g140, gate_type=and02];
155->156  [gate_identifier=g142, gate_type=nor02];
155->216  [gate_identifier=g195, gate_type=and02];
156->158  [gate_identifier=g143, gate_type=nand02];
157->156  [gate_identifier=g142, gate_type=nor02];
157->160  [gate_identifier=g145, gate_type=and02];
157->223  [gate_identifier=g201, gate_type=nand02];
157->225  [gate_identifier=g202, gate_type=or02];
158->164  [gate_identifier=g148, gate_type=and02];
158->166  [gate_identifier=g150, gate_type=nand02];
159->161  [gate_identifier=g146, gate_type=and02];
159->181  [gate_identifier=g163, gate_type=inv01];
159->196  [gate_identifier=g177, gate_type=and02];
160->161  [gate_identifier=g146, gate_type=and02];
161->162  [gate_identifier=g147, gate_type=or02];
162->164  [gate_identifier=g148, gate_type=and02];
162->166  [gate_identifier=g150, gate_type=nand02];
163->162  [gate_identifier=g147, gate_type=or02];
164->165  [gate_identifier=g149, gate_type=and02];
164->201  [gate_identifier=g181, gate_type=or02];
164->204  [gate_identifier=g184, gate_type=or02];
164->214  [gate_identifier=g193, gate_type=or02];
166->173  [gate_identifier=g156, gate_type=and02];
166->187  [gate_identifier=g169, gate_type=and02];
166->194  [gate_identifier=g175, gate_type=and02];
166->195  [gate_identifier=g176, gate_type=or02];
166->222  [gate_identifier=g200, gate_type=and02];
167->172  [gate_identifier=g155, gate_type=and02];
168->171  [gate_identifier=g154, gate_type=and02];
168->216  [gate_identifier=g195, gate_type=and02];
169->171  [gate_identifier=g154, gate_type=and02];
170->169  [gate_identifier=g153, gate_type=or02];
170->233  [gate_identifier=g209, gate_type=buf02];
171->172  [gate_identifier=g155, gate_type=and02];
172->173  [gate_identifier=g156, gate_type=and02];
174->175  [gate_identifier=g158, gate_type=inv01];
174->197  [gate_identifier=g178, gate_type=and02];
175->176  [gate_identifier=g159, gate_type=or02];
175->188  [gate_identifier=g170, gate_type=or02];
176->180  [gate_identifier=g162, gate_type=and02];
177->176  [gate_identifier=g159, gate_type=or02];
177->178  [gate_identifier=g160, gate_type=nor02];
177->234  [gate_identifier=g210, gate_type=buf02];
178->179  [gate_identifier=g161, gate_type=nor02];
179->180  [gate_identifier=g162, gate_type=and02];
180->186  [gate_identifier=g168, gate_type=and02];
181->182  [gate_identifier=g164, gate_type=or02];
182->185  [gate_identifier=g167, gate_type=and02];
182->192  [gate_identifier=g173, gate_type=and02];
183->184  [gate_identifier=g166, gate_type=or02];
184->185  [gate_identifier=g167, gate_type=and02];
185->186  [gate_identifier=g168, gate_type=and02];
186->187  [gate_identifier=g169, gate_type=and02];
188->193  [gate_identifier=g174, gate_type=and02];
189->188  [gate_identifier=g170, gate_type=or02];
189->190  [gate_identifier=g171, gate_type=nor02];
189->235  [gate_identifier=g211, gate_type=buf02];
190->191  [gate_identifier=g172, gate_type=nor02];
191->192  [gate_identifier=g173, gate_type=and02];
192->193  [gate_identifier=g174, gate_type=and02];
193->194  [gate_identifier=g175, gate_type=and02];
195->206  [gate_identifier=g186, gate_type=and02];
195->215  [gate_identifier=g194, gate_type=and02];
196->200  [gate_identifier=g180, gate_type=or02];
197->199  [gate_identifier=g179, gate_type=or02];
198->197  [gate_identifier=g178, gate_type=and02];
198->203  [gate_identifier=g183, gate_type=or02];
198->236  [gate_identifier=g212, gate_type=buf02];
199->200  [gate_identifier=g180, gate_type=or02];
200->201  [gate_identifier=g181, gate_type=or02];
201->205  [gate_identifier=g185, gate_type=and02];
202->203  [gate_identifier=g183, gate_type=or02];
203->204  [gate_identifier=g184, gate_type=or02];
204->205  [gate_identifier=g185, gate_type=and02];
205->206  [gate_identifier=g186, gate_type=and02];
207->213  [gate_identifier=g192, gate_type=and02];
208->212  [gate_identifier=g191, gate_type=and02];
209->208  [gate_identifier=g188, gate_type=or02];
209->210  [gate_identifier=g189, gate_type=or02];
209->237  [gate_identifier=g213, gate_type=buf02];
210->211  [gate_identifier=g190, gate_type=and02];
211->212  [gate_identifier=g191, gate_type=and02];
212->213  [gate_identifier=g192, gate_type=and02];
213->214  [gate_identifier=g193, gate_type=or02];
214->215  [gate_identifier=g194, gate_type=and02];
216->221  [gate_identifier=g199, gate_type=and02];
217->220  [gate_identifier=g198, gate_type=and02];
218->217  [gate_identifier=g196, gate_type=or02];
218->238  [gate_identifier=g214, gate_type=buf02];
219->220  [gate_identifier=g198, gate_type=and02];
220->221  [gate_identifier=g199, gate_type=and02];
221->222  [gate_identifier=g200, gate_type=and02];
223->227  [gate_identifier=g204, gate_type=and02];
224->223  [gate_identifier=g201, gate_type=nand02];
224->225  [gate_identifier=g202, gate_type=or02];
225->226  [gate_identifier=g203, gate_type=and02];
226->227  [gate_identifier=g204, gate_type=and02];
228->232  [gate_identifier=g208, gate_type=and02];
229->228  [gate_identifier=g205, gate_type=nand02];
229->230  [gate_identifier=g206, gate_type=or02];
230->231  [gate_identifier=g207, gate_type=and02];
231->232  [gate_identifier=g208, gate_type=and02];
}
