
    type    code    pin_pathname
    ----   ------   ------------------------------------
      0    DS       /Gid0
//			       num_detections = 129
      1    DS       /Gid0
//			       num_detections = 126
      0    DS       /Gid1
//			       num_detections = 130
      1    DS       /Gid1
//			       num_detections = 125
      0    DS       /Gid2
//			       num_detections = 137
      1    DS       /Gid2
//			       num_detections = 118
      0    DS       /Gid3
//			       num_detections = 125
      1    DS       /Gid3
//			       num_detections = 130
      0    DS       /Gid4
//			       num_detections = 129
      1    DS       /Gid4
//			       num_detections = 126
      0    DS       /Gid5
//			       num_detections = 128
      1    DS       /Gid5
//			       num_detections = 126
      0    DS       /Gid6
//			       num_detections = 135
      1    DS       /Gid6
//			       num_detections = 120
      0    DS       /Gid7
//			       num_detections = 130
      1    DS       /Gid7
//			       num_detections = 125
      0    DS       /Gid8
//			       num_detections = 118
      1    DS       /Gid8
//			       num_detections = 137
      0    DS       /Gid9
//			       num_detections = 117
      1    DS       /Gid9
//			       num_detections = 138
      0    DS       /Gid10
//			       num_detections = 121
      1    DS       /Gid10
//			       num_detections = 133
      0    DS       /Gid11
//			       num_detections = 124
      1    DS       /Gid11
//			       num_detections = 131
      0    DS       /Gid12
//			       num_detections = 134
      1    DS       /Gid12
//			       num_detections = 121
      0    DS       /Gid13
//			       num_detections = 118
      1    DS       /Gid13
//			       num_detections = 136
      0    DS       /Gid14
//			       num_detections = 122
      1    DS       /Gid14
//			       num_detections = 131
      0    DS       /Gid15
//			       num_detections = 128
      1    DS       /Gid15
//			       num_detections = 125
      0    DS       /Gid16
//			       num_detections = 123
      1    DS       /Gid16
//			       num_detections = 131
      0    DS       /Gid17
//			       num_detections = 134
      1    DS       /Gid17
//			       num_detections = 120
      0    DS       /Gid18
//			       num_detections = 127
      1    DS       /Gid18
//			       num_detections = 127
      0    DS       /Gid19
//			       num_detections = 132
      1    DS       /Gid19
//			       num_detections = 123
      0    DS       /Gid20
//			       num_detections = 138
      1    DS       /Gid20
//			       num_detections = 116
      0    DS       /Gid21
//			       num_detections = 133
      1    DS       /Gid21
//			       num_detections = 120
      0    DS       /Gid22
//			       num_detections = 135
      1    DS       /Gid22
//			       num_detections = 117
      0    DS       /Gid23
//			       num_detections = 133
      1    DS       /Gid23
//			       num_detections = 122
      0    DS       /Gid24
//			       num_detections = 125
      1    DS       /Gid24
//			       num_detections = 129
      0    DS       /Gid25
//			       num_detections = 135
      1    DS       /Gid25
//			       num_detections = 115
      0    DS       /Gid26
//			       num_detections = 128
      1    DS       /Gid26
//			       num_detections = 125
      0    DS       /Gid27
//			       num_detections = 135
      1    DS       /Gid27
//			       num_detections = 120
      0    DS       /Gid28
//			       num_detections = 131
      1    DS       /Gid28
//			       num_detections = 123
      0    DS       /Gid29
//			       num_detections = 123
      1    DS       /Gid29
//			       num_detections = 131
      0    DS       /Gid30
//			       num_detections = 128
      1    DS       /Gid30
//			       num_detections = 125
      0    DS       /Gid31
//			       num_detections = 117
      1    DS       /Gid31
//			       num_detections = 138
      0    DS       /g003/Y
//                              num_detections = 20
      0    EQ       /g003/A1
//                              num_detections = 20
      0    EQ       /g003/A0
//                              num_detections = 20
      0    EQ       /Gic0
//                              num_detections = 20
      0    EQ       /g011/A1
//                              num_detections = 20
      1    DS       /Gic0
//                              num_detections = 14
      1    EQ       /g003/A1
//                              num_detections = 14
      0    DS       /g017/Y
//                              num_detections = 18
      0    EQ       /g017/A1
//                              num_detections = 18
      0    EQ       /g017/A0
//                              num_detections = 18
      0    EQ       /Gic1
//                              num_detections = 18
      0    EQ       /g025/A1
//                              num_detections = 18
      1    DS       /Gic1
//                              num_detections = 16
      1    EQ       /g017/A1
//                              num_detections = 16
      0    DS       /g038/Y
//                              num_detections = 13
      0    EQ       /g038/A1
//                              num_detections = 13
      0    EQ       /g038/A0
//                              num_detections = 13
      0    EQ       /Gic2
//                              num_detections = 13
      0    EQ       /g040/A1
//                              num_detections = 13
      1    DS       /Gic2
//                              num_detections = 15
      1    EQ       /g038/A1
//                              num_detections = 15
      0    DS       /g031/Y
//                              num_detections = 17
      0    EQ       /g031/A1
//                              num_detections = 17
      0    EQ       /g031/A0
//                              num_detections = 17
      0    EQ       /Gic3
//                              num_detections = 17
      0    EQ       /g033/A1
//                              num_detections = 17
      1    DS       /Gic3
//                              num_detections = 13
      1    EQ       /g031/A1
//                              num_detections = 13
      0    DS       /g095/Y
//                              num_detections = 17
      0    EQ       /g095/A1
//                              num_detections = 17
      0    EQ       /g095/A0
//                              num_detections = 17
      0    EQ       /Gic4
//                              num_detections = 17
      0    EQ       /g097/A1
//                              num_detections = 17
      1    DS       /Gic4
//                              num_detections = 17
      1    EQ       /g095/A1
//                              num_detections = 17
      0    DS       /g088/Y
//                              num_detections = 11
      0    EQ       /g088/A1
//                              num_detections = 11
      0    EQ       /g088/A0
//                              num_detections = 11
      0    EQ       /Gic5
//                              num_detections = 11
      0    EQ       /g090/A1
//                              num_detections = 11
      1    DS       /Gic5
//                              num_detections = 25
      1    EQ       /g088/A1
//                              num_detections = 25
      0    DS       /g060/Y
//                              num_detections = 14
      0    EQ       /g060/A1
//                              num_detections = 14
      0    EQ       /g060/A0
//                              num_detections = 14
      0    EQ       /Gic6
//                              num_detections = 14
      0    EQ       /g068/A1
//                              num_detections = 14
      1    DS       /Gic6
//                              num_detections = 14
      1    EQ       /g060/A1
//                              num_detections = 14
      0    DS       /g073/Y
//                              num_detections = 10
      0    EQ       /g073/A1
//                              num_detections = 10
      0    EQ       /g073/A0
//                              num_detections = 10
      0    EQ       /Gic7
//                              num_detections = 10
      0    EQ       /g081/A1
//                              num_detections = 10
      1    DS       /Gic7
//                              num_detections = 20
      1    EQ       /g073/A1
//                              num_detections = 20
      0    DS       /Gr
//			       num_detections = 33
      1    DS       /Gr
//			       num_detections = 24
      0    DS       /g064/Y
//                              num_detections = 30
      0    EQ       /g066/A1
//                              num_detections = 30
      1    DS       /g064/Y
//                              num_detections = 27
      1    EQ       /g066/A1
//                              num_detections = 27
      0    DS       /g064/A0
//			       num_detections = 30
      1    DS       /g064/A0
//			       num_detections = 27
      0    DS       /g064/A1
//			       num_detections = 28
      1    DS       /g064/A1
//			       num_detections = 29
      0    DS       /g000/Y
//                              num_detections = 22
      0    EQ       /g002/A1
//                              num_detections = 22
      1    DS       /g000/Y
//                              num_detections = 34
      1    EQ       /g002/A1
//                              num_detections = 34
      0    DS       /g000/A0
//			       num_detections = 32
      1    DS       /g000/A0
//			       num_detections = 24
      0    DS       /g000/A1
//			       num_detections = 26
      1    DS       /g000/A1
//			       num_detections = 30
      0    DS       /g014/Y
//                              num_detections = 29
      0    EQ       /g016/A1
//                              num_detections = 29
      1    DS       /g014/Y
//                              num_detections = 28
      1    EQ       /g016/A1
//                              num_detections = 28
      0    DS       /g014/A0
//			       num_detections = 23
      1    DS       /g014/A0
//			       num_detections = 34
      0    DS       /g014/A1
//			       num_detections = 32
      1    DS       /g014/A1
//			       num_detections = 25
      0    DS       /g065/Y
//                              num_detections = 28
      0    EQ       /g066/A0
//                              num_detections = 28
      1    DS       /g065/Y
//                              num_detections = 29
      1    EQ       /g066/A0
//                              num_detections = 29
      0    DS       /g065/A0
//			       num_detections = 32
      1    DS       /g065/A0
//			       num_detections = 25
      0    DS       /g065/A1
//			       num_detections = 29
      1    DS       /g065/A1
//			       num_detections = 28
      0    DS       /g035/Y
//                              num_detections = 35
      0    EQ       /g037/A1
//                              num_detections = 35
      1    DS       /g035/Y
//                              num_detections = 20
      1    EQ       /g037/A1
//                              num_detections = 20
      0    DS       /g035/A0
//			       num_detections = 30
      1    DS       /g035/A0
//			       num_detections = 25
      0    DS       /g035/A1
//			       num_detections = 29
      1    DS       /g035/A1
//			       num_detections = 26
      0    DS       /g028/Y
//                              num_detections = 27
      0    EQ       /g030/A1
//                              num_detections = 27
      1    DS       /g028/Y
//                              num_detections = 31
      1    EQ       /g030/A1
//                              num_detections = 31
      0    DS       /g028/A0
//			       num_detections = 33
      1    DS       /g028/A0
//			       num_detections = 25
      0    DS       /g028/A1
//			       num_detections = 30
      1    DS       /g028/A1
//			       num_detections = 28
      0    DS       /g077/Y
//                              num_detections = 33
      0    EQ       /g079/A1
//                              num_detections = 33
      1    DS       /g077/Y
//                              num_detections = 25
      1    EQ       /g079/A1
//                              num_detections = 25
      0    DS       /g077/A0
//			       num_detections = 24
      1    DS       /g077/A0
//			       num_detections = 34
      0    DS       /g077/A1
//			       num_detections = 31
      1    DS       /g077/A1
//			       num_detections = 27
      0    DS       /g078/Y
//                              num_detections = 24
      0    EQ       /g079/A0
//                              num_detections = 24
      1    DS       /g078/Y
//                              num_detections = 34
      1    EQ       /g079/A0
//                              num_detections = 34
      0    DS       /g078/A0
//			       num_detections = 31
      1    DS       /g078/A0
//			       num_detections = 27
      0    DS       /g078/A1
//			       num_detections = 33
      1    DS       /g078/A1
//			       num_detections = 25
      0    DS       /g061/Y
//                              num_detections = 30
      0    EQ       /g063/A1
//                              num_detections = 30
      1    DS       /g061/Y
//                              num_detections = 27
      1    EQ       /g063/A1
//                              num_detections = 27
      0    DS       /g061/A0
//			       num_detections = 26
      1    DS       /g061/A0
//			       num_detections = 31
      0    DS       /g061/A1
//			       num_detections = 23
      1    DS       /g061/A1
//			       num_detections = 34
      0    DS       /g001/Y
//                              num_detections = 31
      0    EQ       /g002/A0
//                              num_detections = 31
      1    DS       /g001/Y
//                              num_detections = 25
      1    EQ       /g002/A0
//                              num_detections = 25
      0    DS       /g001/A0
//			       num_detections = 26
      1    DS       /g001/A0
//			       num_detections = 30
      0    DS       /g001/A1
//			       num_detections = 21
      1    DS       /g001/A1
//			       num_detections = 35
      0    DS       /g015/Y
//                              num_detections = 37
      0    EQ       /g016/A0
//                              num_detections = 37
      1    DS       /g015/Y
//                              num_detections = 20
      1    EQ       /g016/A0
//                              num_detections = 20
      0    DS       /g015/A0
//			       num_detections = 34
      1    DS       /g015/A0
//			       num_detections = 23
      0    DS       /g015/A1
//			       num_detections = 30
      1    DS       /g015/A1
//			       num_detections = 27
      0    DS       /g062/Y
//                              num_detections = 23
      0    EQ       /g063/A0
//                              num_detections = 23
      1    DS       /g062/Y
//                              num_detections = 34
      1    EQ       /g063/A0
//                              num_detections = 34
      0    DS       /g062/A0
//			       num_detections = 30
      1    DS       /g062/A0
//			       num_detections = 27
      0    DS       /g062/A1
//			       num_detections = 26
      1    DS       /g062/A1
//			       num_detections = 31
      0    DS       /g036/Y
//                              num_detections = 30
      0    EQ       /g037/A0
//                              num_detections = 30
      1    DS       /g036/Y
//                              num_detections = 25
      1    EQ       /g037/A0
//                              num_detections = 25
      0    DS       /g036/A0
//			       num_detections = 21
      1    DS       /g036/A0
//			       num_detections = 34
      0    DS       /g036/A1
//			       num_detections = 20
      1    DS       /g036/A1
//			       num_detections = 35
      0    DS       /g029/Y
//                              num_detections = 27
      0    EQ       /g030/A0
//                              num_detections = 27
      1    DS       /g029/Y
//                              num_detections = 31
      1    EQ       /g030/A0
//                              num_detections = 31
      0    DS       /g029/A0
//			       num_detections = 26
      1    DS       /g029/A0
//			       num_detections = 32
      0    DS       /g029/A1
//			       num_detections = 29
      1    DS       /g029/A1
//			       num_detections = 29
      0    DS       /g074/Y
//                              num_detections = 33
      0    EQ       /g076/A1
//                              num_detections = 33
      1    DS       /g074/Y
//                              num_detections = 25
      1    EQ       /g076/A1
//                              num_detections = 25
      0    DS       /g074/A0
//			       num_detections = 29
      1    DS       /g074/A0
//			       num_detections = 29
      0    DS       /g074/A1
//			       num_detections = 26
      1    DS       /g074/A1
//			       num_detections = 32
      0    DS       /g075/Y
//                              num_detections = 32
      0    EQ       /g076/A0
//                              num_detections = 32
      1    DS       /g075/Y
//                              num_detections = 26
      1    EQ       /g076/A0
//                              num_detections = 26
      0    DS       /g075/A0
//			       num_detections = 25
      1    DS       /g075/A0
//			       num_detections = 33
      0    DS       /g075/A1
//			       num_detections = 21
      1    DS       /g075/A1
//			       num_detections = 37
      0    DS       /g092/Y
//                              num_detections = 23
      0    EQ       /g094/A1
//                              num_detections = 23
      1    DS       /g092/Y
//                              num_detections = 37
      1    EQ       /g094/A1
//                              num_detections = 37
      0    DS       /g092/A0
//			       num_detections = 30
      1    DS       /g092/A0
//			       num_detections = 30
      0    DS       /g092/A1
//			       num_detections = 19
      1    DS       /g092/A1
//			       num_detections = 41
      0    DS       /g004/Y
//                              num_detections = 21
      0    EQ       /g006/A1
//                              num_detections = 21
      1    DS       /g004/Y
//                              num_detections = 41
      1    EQ       /g006/A1
//                              num_detections = 41
      0    DS       /g004/A0
//			       num_detections = 33
      1    DS       /g004/A0
//			       num_detections = 29
      0    DS       /g004/A1
//			       num_detections = 30
      1    DS       /g004/A1
//			       num_detections = 32
      0    DS       /g085/Y
//                              num_detections = 25
      0    EQ       /g087/A1
//                              num_detections = 25
      1    DS       /g085/Y
//                              num_detections = 40
      1    EQ       /g087/A1
//                              num_detections = 40
      0    DS       /g085/A0
//			       num_detections = 39
      1    DS       /g085/A0
//			       num_detections = 26
      0    DS       /g085/A1
//			       num_detections = 44
      1    DS       /g085/A1
//			       num_detections = 21
      0    DS       /g057/Y
//                              num_detections = 25
      0    EQ       /g059/A1
//                              num_detections = 25
      1    DS       /g057/Y
//                              num_detections = 31
      1    EQ       /g059/A1
//                              num_detections = 31
      0    DS       /g057/A0
//			       num_detections = 31
      1    DS       /g057/A0
//			       num_detections = 25
      0    DS       /g057/A1
//			       num_detections = 20
      1    DS       /g057/A1
//			       num_detections = 36
      0    DS       /g005/Y
//                              num_detections = 33
      0    EQ       /g006/A0
//                              num_detections = 33
      1    DS       /g005/Y
//                              num_detections = 29
      1    EQ       /g006/A0
//                              num_detections = 29
      0    DS       /g005/A0
//			       num_detections = 38
      1    DS       /g005/A0
//			       num_detections = 24
      0    DS       /g005/A1
//			       num_detections = 31
      1    DS       /g005/A1
//			       num_detections = 31
      0    DS       /g070/Y
//                              num_detections = 23
      0    EQ       /g072/A1
//                              num_detections = 23
      1    DS       /g070/Y
//                              num_detections = 36
      1    EQ       /g072/A1
//                              num_detections = 36
      0    DS       /g070/A0
//			       num_detections = 32
      1    DS       /g070/A0
//			       num_detections = 27
      0    DS       /g070/A1
//			       num_detections = 33
      1    DS       /g070/A1
//			       num_detections = 26
      0    DS       /g007/Y
//                              num_detections = 29
      0    EQ       /g009/A1
//                              num_detections = 29
      1    DS       /g007/Y
//                              num_detections = 34
      1    EQ       /g009/A1
//                              num_detections = 34
      0    DS       /g007/A0
//			       num_detections = 31
      1    DS       /g007/A0
//			       num_detections = 32
      0    DS       /g007/A1
//			       num_detections = 36
      1    DS       /g007/A1
//			       num_detections = 27
      0    DS       /g008/Y
//                              num_detections = 27
      0    EQ       /g009/A0
//                              num_detections = 27
      1    DS       /g008/Y
//                              num_detections = 36
      1    EQ       /g009/A0
//                              num_detections = 36
      0    DS       /g008/A0
//			       num_detections = 27
      1    DS       /g008/A0
//			       num_detections = 36
      0    DS       /g008/A1
//			       num_detections = 37
      1    DS       /g008/A1
//			       num_detections = 26
      0    DS       /g093/Y
//                              num_detections = 32
      0    EQ       /g094/A0
//                              num_detections = 32
      1    DS       /g093/Y
//                              num_detections = 28
      1    EQ       /g094/A0
//                              num_detections = 28
      0    DS       /g093/A0
//			       num_detections = 32
      1    DS       /g093/A0
//			       num_detections = 28
      0    DS       /g093/A1
//			       num_detections = 28
      1    DS       /g093/A1
//			       num_detections = 32
      0    DS       /g021/Y
//                              num_detections = 33
      0    EQ       /g023/A1
//                              num_detections = 33
      1    DS       /g021/Y
//                              num_detections = 29
      1    EQ       /g023/A1
//                              num_detections = 29
      0    DS       /g021/A0
//			       num_detections = 34
      1    DS       /g021/A0
//			       num_detections = 28
      0    DS       /g021/A1
//			       num_detections = 31
      1    DS       /g021/A1
//			       num_detections = 31
      0    DS       /g086/Y
//                              num_detections = 37
      0    EQ       /g087/A0
//                              num_detections = 37
      1    DS       /g086/Y
//                              num_detections = 28
      1    EQ       /g087/A0
//                              num_detections = 28
      0    DS       /g086/A0
//			       num_detections = 34
      1    DS       /g086/A0
//			       num_detections = 31
      0    DS       /g086/A1
//			       num_detections = 42
      1    DS       /g086/A1
//			       num_detections = 23
      0    DS       /g058/Y
//                              num_detections = 37
      0    EQ       /g059/A0
//                              num_detections = 37
      1    DS       /g058/Y
//                              num_detections = 19
      1    EQ       /g059/A0
//                              num_detections = 19
      0    DS       /g058/A0
//			       num_detections = 30
      1    DS       /g058/A0
//			       num_detections = 26
      0    DS       /g058/A1
//			       num_detections = 31
      1    DS       /g058/A1
//			       num_detections = 25
      0    DS       /g022/Y
//                              num_detections = 29
      0    EQ       /g023/A0
//                              num_detections = 29
      1    DS       /g022/Y
//                              num_detections = 33
      1    EQ       /g023/A0
//                              num_detections = 33
      0    DS       /g022/A0
//			       num_detections = 36
      1    DS       /g022/A0
//			       num_detections = 26
      0    DS       /g022/A1
//			       num_detections = 35
      1    DS       /g022/A1
//			       num_detections = 27
      0    DS       /g071/Y
//                              num_detections = 37
      0    EQ       /g072/A0
//                              num_detections = 37
      1    DS       /g071/Y
//                              num_detections = 22
      1    EQ       /g072/A0
//                              num_detections = 22
      0    DS       /g071/A0
//			       num_detections = 26
      1    DS       /g071/A0
//			       num_detections = 33
      0    DS       /g071/A1
//			       num_detections = 34
      1    DS       /g071/A1
//			       num_detections = 25
      0    DS       /g018/Y
//                              num_detections = 32
      0    EQ       /g020/A1
//                              num_detections = 32
      1    DS       /g018/Y
//                              num_detections = 31
      1    EQ       /g020/A1
//                              num_detections = 31
      0    DS       /g018/A0
//			       num_detections = 32
      1    DS       /g018/A0
//			       num_detections = 31
      0    DS       /g018/A1
//			       num_detections = 32
      1    DS       /g018/A1
//			       num_detections = 31
      0    DS       /g019/Y
//                              num_detections = 37
      0    EQ       /g020/A0
//                              num_detections = 37
      1    DS       /g019/Y
//                              num_detections = 26
      1    EQ       /g020/A0
//                              num_detections = 26
      0    DS       /g019/A0
//			       num_detections = 28
      1    DS       /g019/A0
//			       num_detections = 35
      0    DS       /g019/A1
//			       num_detections = 34
      1    DS       /g019/A1
//			       num_detections = 29
      1    DS       /g003/Y
//                              num_detections = 36
      1    EQ       /g011/A1
//                              num_detections = 36
      1    DS       /g003/A0
//			       num_detections = 8
      1    DS       /g017/Y
//                              num_detections = 39
      1    EQ       /g025/A1
//                              num_detections = 39
      1    DS       /g017/A0
//			       num_detections = 15
      1    DS       /g038/Y
//                              num_detections = 42
      1    EQ       /g040/A1
//                              num_detections = 42
      1    DS       /g038/A0
//			       num_detections = 19
      1    DS       /g031/Y
//                              num_detections = 41
      1    EQ       /g033/A1
//                              num_detections = 41
      1    DS       /g031/A0
//			       num_detections = 17
      1    DS       /g095/Y
//                              num_detections = 43
      1    EQ       /g097/A1
//                              num_detections = 43
      1    DS       /g095/A0
//			       num_detections = 11
      1    DS       /g088/Y
//                              num_detections = 54
      1    EQ       /g090/A1
//                              num_detections = 54
      1    DS       /g088/A0
//			       num_detections = 22
      1    DS       /g060/Y
//                              num_detections = 42
      1    EQ       /g068/A1
//                              num_detections = 42
      1    DS       /g060/A0
//			       num_detections = 12
      1    DS       /g073/Y
//                              num_detections = 49
      1    EQ       /g081/A1
//                              num_detections = 49
      1    DS       /g073/A0
//			       num_detections = 15
      0    DS       /g066/Y
//			       num_detections = 27
      1    DS       /g066/Y
//			       num_detections = 30
      0    DS       /g002/Y
//			       num_detections = 27
      1    DS       /g002/Y
//			       num_detections = 29
      0    DS       /g016/Y
//			       num_detections = 27
      1    DS       /g016/Y
//			       num_detections = 30
      0    DS       /g037/Y
//			       num_detections = 30
      1    DS       /g037/Y
//			       num_detections = 25
      0    DS       /g030/Y
//			       num_detections = 24
      1    DS       /g030/Y
//			       num_detections = 34
      0    DS       /g079/Y
//			       num_detections = 23
      1    DS       /g079/Y
//			       num_detections = 35
      0    DS       /g063/Y
//			       num_detections = 31
      1    DS       /g063/Y
//			       num_detections = 26
      0    DS       /g076/Y
//			       num_detections = 27
      1    DS       /g076/Y
//			       num_detections = 31
      0    DS       /g094/Y
//			       num_detections = 27
      1    DS       /g094/Y
//			       num_detections = 33
      0    DS       /g006/Y
//			       num_detections = 34
      1    DS       /g006/Y
//			       num_detections = 28
      0    DS       /g087/Y
//			       num_detections = 33
      1    DS       /g087/Y
//			       num_detections = 32
      0    DS       /g059/Y
//			       num_detections = 34
      1    DS       /g059/Y
//			       num_detections = 22
      0    DS       /g072/Y
//			       num_detections = 31
      1    DS       /g072/Y
//			       num_detections = 28
      0    DS       /g009/Y
//			       num_detections = 27
      1    DS       /g009/Y
//			       num_detections = 36
      0    DS       /g023/Y
//			       num_detections = 28
      1    DS       /g023/Y
//			       num_detections = 34
      0    DS       /g020/Y
//			       num_detections = 29
      1    DS       /g020/Y
//			       num_detections = 34
      0    DS       /g096/Y
//                              num_detections = 35
      0    EQ       /g097/A0
//                              num_detections = 35
      1    DS       /g096/Y
//                              num_detections = 25
      1    EQ       /g097/A0
//                              num_detections = 25
      0    DS       /g096/A0
//			       num_detections = 21
      1    DS       /g096/A0
//			       num_detections = 39
      0    DS       /g096/A1
//			       num_detections = 34
      1    DS       /g096/A1
//			       num_detections = 26
      0    DS       /g067/Y
//                              num_detections = 29
      0    EQ       /g068/A0
//                              num_detections = 29
      1    DS       /g067/Y
//                              num_detections = 27
      1    EQ       /g068/A0
//                              num_detections = 27
      0    DS       /g067/A0
//			       num_detections = 30
      1    DS       /g067/A0
//			       num_detections = 26
      0    DS       /g067/A1
//			       num_detections = 31
      1    DS       /g067/A1
//			       num_detections = 25
      0    DS       /g080/Y
//                              num_detections = 31
      0    EQ       /g081/A0
//                              num_detections = 31
      1    DS       /g080/Y
//                              num_detections = 28
      1    EQ       /g081/A0
//                              num_detections = 28
      0    DS       /g080/A0
//			       num_detections = 27
      1    DS       /g080/A0
//			       num_detections = 32
      0    DS       /g080/A1
//			       num_detections = 35
      1    DS       /g080/A1
//			       num_detections = 24
      0    DS       /g089/Y
//                              num_detections = 39
      0    EQ       /g090/A0
//                              num_detections = 39
      1    DS       /g089/Y
//                              num_detections = 26
      1    EQ       /g090/A0
//                              num_detections = 26
      0    DS       /g089/A0
//			       num_detections = 38
      1    DS       /g089/A0
//			       num_detections = 27
      0    DS       /g089/A1
//			       num_detections = 41
      1    DS       /g089/A1
//			       num_detections = 24
      0    DS       /g039/Y
//                              num_detections = 30
      0    EQ       /g040/A0
//                              num_detections = 30
      1    DS       /g039/Y
//                              num_detections = 25
      1    EQ       /g040/A0
//                              num_detections = 25
      0    DS       /g039/A0
//			       num_detections = 27
      1    DS       /g039/A0
//			       num_detections = 28
      0    DS       /g039/A1
//			       num_detections = 31
      1    DS       /g039/A1
//			       num_detections = 24
      0    DS       /g010/Y
//                              num_detections = 31
      0    EQ       /g011/A0
//                              num_detections = 31
      1    DS       /g010/Y
//                              num_detections = 25
      1    EQ       /g011/A0
//                              num_detections = 25
      0    DS       /g010/A0
//			       num_detections = 25
      1    DS       /g010/A0
//			       num_detections = 31
      0    DS       /g010/A1
//			       num_detections = 30
      1    DS       /g010/A1
//			       num_detections = 26
      0    DS       /g032/Y
//                              num_detections = 32
      0    EQ       /g033/A0
//                              num_detections = 32
      1    DS       /g032/Y
//                              num_detections = 26
      1    EQ       /g033/A0
//                              num_detections = 26
      0    DS       /g032/A0
//			       num_detections = 28
      1    DS       /g032/A0
//			       num_detections = 30
      0    DS       /g032/A1
//			       num_detections = 30
      1    DS       /g032/A1
//			       num_detections = 28
      0    DS       /g024/Y
//                              num_detections = 24
      0    EQ       /g025/A0
//                              num_detections = 24
      1    DS       /g024/Y
//                              num_detections = 33
      1    EQ       /g025/A0
//                              num_detections = 33
      0    DS       /g024/A0
//			       num_detections = 27
      1    DS       /g024/A0
//			       num_detections = 30
      0    DS       /g024/A1
//			       num_detections = 30
      1    DS       /g024/A1
//			       num_detections = 27
      0    DS       /g097/Y
//			       num_detections = 36
      1    DS       /g097/Y
//			       num_detections = 24
      0    DS       /g068/Y
//			       num_detections = 29
      1    DS       /g068/Y
//			       num_detections = 27
      0    DS       /g081/Y
//			       num_detections = 31
      1    DS       /g081/Y
//			       num_detections = 28
      0    DS       /g090/Y
//			       num_detections = 32
      1    DS       /g090/Y
//			       num_detections = 33
      0    DS       /g040/Y
//			       num_detections = 27
      1    DS       /g040/Y
//			       num_detections = 28
      0    DS       /g011/Y
//			       num_detections = 29
      1    DS       /g011/Y
//			       num_detections = 27
      0    DS       /g033/Y
//			       num_detections = 31
      1    DS       /g033/Y
//			       num_detections = 27
      0    DS       /g025/Y
//			       num_detections = 26
      1    DS       /g025/Y
//			       num_detections = 31
      0    DS       /g123/Y
//			       num_detections = 23
      1    DS       /g123/Y
//			       num_detections = 14
      0    DS       /g123/A1
//			       num_detections = 17
      1    DS       /g123/A1
//			       num_detections = 20
      0    DS       /g123/A0
//			       num_detections = 22
      1    DS       /g123/A0
//			       num_detections = 15
      0    DS       /g098/Y
//			       num_detections = 5
      1    DS       /g098/Y
//			       num_detections = 35
      0    DS       /g098/A1
//			       num_detections = 16
      1    DS       /g098/A1
//			       num_detections = 24
      0    DS       /g098/A0
//			       num_detections = 25
      1    DS       /g098/A0
//			       num_detections = 15
      0    DS       /g109/Y
//			       num_detections = 19
      1    DS       /g109/Y
//			       num_detections = 20
      0    DS       /g109/A1
//			       num_detections = 25
      1    DS       /g109/A1
//			       num_detections = 14
      0    DS       /g109/A0
//			       num_detections = 20
      1    DS       /g109/A0
//			       num_detections = 19
      0    DS       /g069/Y
//			       num_detections = 9
      1    DS       /g069/Y
//			       num_detections = 21
      0    DS       /g069/A1
//			       num_detections = 15
      1    DS       /g069/A1
//			       num_detections = 15
      0    DS       /g069/A0
//			       num_detections = 16
      1    DS       /g069/A0
//			       num_detections = 14
      0    DS       /g110/Y
//			       num_detections = 6
      1    DS       /g110/Y
//			       num_detections = 29
      0    DS       /g110/A1
//			       num_detections = 18
      1    DS       /g110/A1
//			       num_detections = 17
      0    DS       /g110/A0
//			       num_detections = 17
      1    DS       /g110/A0
//			       num_detections = 18
      0    DS       /g082/Y
//			       num_detections = 22
      1    DS       /g082/Y
//			       num_detections = 23
      0    DS       /g082/A1
//			       num_detections = 23
      1    DS       /g082/A1
//			       num_detections = 22
      0    DS       /g082/A0
//			       num_detections = 25
      1    DS       /g082/A0
//			       num_detections = 20
      0    DS       /g122/Y
//			       num_detections = 15
      1    DS       /g122/Y
//			       num_detections = 30
      0    DS       /g122/A1
//			       num_detections = 24
      1    DS       /g122/A1
//			       num_detections = 21
      0    DS       /g122/A0
//			       num_detections = 24
      1    DS       /g122/A0
//			       num_detections = 21
      0    DS       /g091/Y
//			       num_detections = 13
      1    DS       /g091/Y
//			       num_detections = 19
      0    DS       /g091/A1
//			       num_detections = 14
      1    DS       /g091/A1
//			       num_detections = 18
      0    DS       /g091/A0
//			       num_detections = 15
      1    DS       /g091/A0
//			       num_detections = 17
      0    DS       /g045/Y
//			       num_detections = 14
      1    DS       /g045/Y
//			       num_detections = 12
      0    DS       /g045/A1
//			       num_detections = 15
      1    DS       /g045/A1
//			       num_detections = 11
      0    DS       /g045/A0
//			       num_detections = 15
      1    DS       /g045/A0
//			       num_detections = 11
      0    DS       /g041/Y
//			       num_detections = 14
      1    DS       /g041/Y
//			       num_detections = 19
      0    DS       /g041/A1
//			       num_detections = 17
      1    DS       /g041/A1
//			       num_detections = 16
      0    DS       /g041/A0
//			       num_detections = 14
      1    DS       /g041/A0
//			       num_detections = 19
      0    DS       /g013/Y
//			       num_detections = 19
      1    DS       /g013/Y
//			       num_detections = 15
      0    DS       /g013/A1
//			       num_detections = 20
      1    DS       /g013/A1
//			       num_detections = 14
      0    DS       /g013/A0
//			       num_detections = 15
      1    DS       /g013/A0
//			       num_detections = 19
      0    DS       /g012/Y
//			       num_detections = 9
      1    DS       /g012/Y
//			       num_detections = 20
      0    DS       /g012/A1
//			       num_detections = 12
      1    DS       /g012/A1
//			       num_detections = 17
      0    DS       /g012/A0
//			       num_detections = 16
      1    DS       /g012/A0
//			       num_detections = 13
      0    DS       /g044/Y
//			       num_detections = 12
      1    DS       /g044/Y
//			       num_detections = 20
      0    DS       /g044/A1
//			       num_detections = 15
      1    DS       /g044/A1
//			       num_detections = 17
      0    DS       /g044/A0
//			       num_detections = 17
      1    DS       /g044/A0
//			       num_detections = 15
      0    DS       /g034/Y
//			       num_detections = 16
      1    DS       /g034/Y
//			       num_detections = 15
      0    DS       /g034/A1
//			       num_detections = 11
      1    DS       /g034/A1
//			       num_detections = 20
      0    DS       /g034/A0
//			       num_detections = 17
      1    DS       /g034/A0
//			       num_detections = 14
      0    DS       /g050/Y
//			       num_detections = 14
      1    DS       /g050/Y
//			       num_detections = 18
      0    DS       /g050/A1
//			       num_detections = 14
      1    DS       /g050/A1
//			       num_detections = 18
      0    DS       /g050/A0
//			       num_detections = 14
      1    DS       /g050/A0
//			       num_detections = 18
      0    DS       /g026/Y
//			       num_detections = 14
      1    DS       /g026/Y
//			       num_detections = 16
      0    DS       /g026/A1
//			       num_detections = 17
      1    DS       /g026/A1
//			       num_detections = 13
      0    DS       /g026/A0
//			       num_detections = 13
      1    DS       /g026/A0
//			       num_detections = 17
      0    DS       /g143/Y
//                              num_detections = 8
      0    EQ       /g143/A0
//                              num_detections = 8
      0    EQ       /g143/A1
//                              num_detections = 8
      1    DS       /g143/Y
//			       num_detections = 18
      1    DS       /g143/A0
//			       num_detections = 3
      1    DS       /g143/A1
//			       num_detections = 8
      0    DS       /g124/Y
//                              num_detections = 15
      0    EQ       /g124/A0
//                              num_detections = 15
      0    EQ       /g124/A1
//                              num_detections = 15
      1    DS       /g124/Y
//			       num_detections = 27
      1    DS       /g124/A0
//			       num_detections = 11
      1    DS       /g124/A1
//			       num_detections = 15
      0    DS       /g099/Y
//                              num_detections = 5
      0    EQ       /g099/A0
//                              num_detections = 5
      0    EQ       /g099/A1
//                              num_detections = 5
      1    DS       /g099/Y
//			       num_detections = 32
      1    DS       /g099/A0
//			       num_detections = 15
      1    DS       /g099/A1
//			       num_detections = 11
      0    DS       /g147/Y
//                              num_detections = 13
      0    EQ       /g147/A0
//                              num_detections = 13
      0    EQ       /g147/A1
//                              num_detections = 13
      1    DS       /g147/Y
//			       num_detections = 19
      1    DS       /g147/A0
//			       num_detections = 7
      1    DS       /g147/A1
//			       num_detections = 4
      0    DS       /g111/Y
//                              num_detections = 6
      0    EQ       /g111/A0
//                              num_detections = 6
      0    EQ       /g111/A1
//                              num_detections = 6
      1    DS       /g111/Y
//			       num_detections = 22
      1    DS       /g111/A0
//			       num_detections = 5
      1    DS       /g111/A1
//			       num_detections = 16
      0    DS       /g083/Y
//                              num_detections = 9
      0    EQ       /g083/A0
//                              num_detections = 9
      0    EQ       /g083/A1
//                              num_detections = 9
      1    DS       /g083/Y
//			       num_detections = 27
      1    DS       /g083/A0
//			       num_detections = 16
      1    DS       /g083/A1
//			       num_detections = 5
      0    DS       /g049/Y
//                              num_detections = 2
      0    EQ       /g049/A0
//                              num_detections = 2
      0    EQ       /g049/A1
//                              num_detections = 2
      1    DS       /g049/Y
//			       num_detections = 19
      1    DS       /g049/A0
//			       num_detections = 4
      1    DS       /g049/A1
//			       num_detections = 7
      0    DS       /g046/Y
//                              num_detections = 12
      0    EQ       /g046/A0
//                              num_detections = 12
      0    EQ       /g046/A1
//                              num_detections = 12
      1    DS       /g046/Y
//			       num_detections = 30
      1    DS       /g046/A0
//			       num_detections = 8
      1    DS       /g046/A1
//			       num_detections = 11
      0    DS       /g042/Y
//                              num_detections = 14
      0    EQ       /g042/A0
//                              num_detections = 14
      0    EQ       /g042/A1
//                              num_detections = 14
      1    DS       /g042/Y
//			       num_detections = 29
      1    DS       /g042/A0
//			       num_detections = 11
      1    DS       /g042/A1
//			       num_detections = 8
      0    DS       /g051/Y
//                              num_detections = 14
      0    EQ       /g051/A0
//                              num_detections = 14
      0    EQ       /g051/A1
//                              num_detections = 14
      1    DS       /g051/Y
//			       num_detections = 28
      1    DS       /g051/A0
//			       num_detections = 9
      1    DS       /g051/A1
//			       num_detections = 10
      0    DS       /g027/Y
//                              num_detections = 5
      0    EQ       /g027/A0
//                              num_detections = 5
      0    EQ       /g027/A1
//                              num_detections = 5
      1    DS       /g027/Y
//			       num_detections = 18
      1    DS       /g027/A0
//			       num_detections = 6
      1    DS       /g027/A1
//			       num_detections = 5
      0    DS       /g053/Y
//                              num_detections = 9
      0    EQ       /g053/A0
//                              num_detections = 9
      0    EQ       /g053/A1
//                              num_detections = 9
      1    DS       /g053/Y
//			       num_detections = 31
      1    DS       /g053/A0
//			       num_detections = 10
      1    DS       /g053/A1
//			       num_detections = 9
      0    UO       /g145/Y
      0    EQ       /g145/A1
      0    EQ       /g145/A0
      0    EQ       /g146/A0
      1    DS       /g151/Y
//                              num_detections = 38
      1    EQ       /g151/A0
//                              num_detections = 38
      1    EQ       /g151/A1
//                              num_detections = 38
      1    EQ       /g150/Y
//                              num_detections = 38
      1    EQ       /g150/A0
//                              num_detections = 38
      1    EQ       /g150/A1
//                              num_detections = 38
      1    EQ       /g146/Y
//                              num_detections = 38
      1    EQ       /g146/A0
//                              num_detections = 38
      1    EQ       /g146/A1
//                              num_detections = 38
      1    EQ       /g149/Y
//                              num_detections = 38
      1    EQ       /g148/Y
//                              num_detections = 38
      1    EQ       /g145/Y
//                              num_detections = 38
      1    EQ       /g144/Y
//                              num_detections = 38
      1    DS       /g145/A1
//			       num_detections = 6
      1    DS       /g145/A0
//			       num_detections = 11
      0    DS       /g144/Y
//                              num_detections = 8
      0    EQ       /g144/A1
//                              num_detections = 8
      0    EQ       /g144/A0
//                              num_detections = 8
      0    EQ       /g146/A1
//                              num_detections = 8
      1    DS       /g144/A1
//			       num_detections = 6
      1    DS       /g144/A0
//			       num_detections = 7
      0    DS       /g148/Y
//                              num_detections = 9
      0    EQ       /g148/A1
//                              num_detections = 9
      0    EQ       /g148/A0
//                              num_detections = 9
      0    EQ       /g150/A1
//                              num_detections = 9
      1    DS       /g148/A1
//			       num_detections = 3
      1    DS       /g148/A0
//			       num_detections = 12
      0    DS       /g149/Y
//                              num_detections = 4
      0    EQ       /g149/A1
//                              num_detections = 4
      0    EQ       /g149/A0
//                              num_detections = 4
      0    EQ       /g150/A0
//                              num_detections = 4
      1    DS       /g149/A1
//			       num_detections = 3
      1    DS       /g149/A0
//			       num_detections = 7
      0    UO       /g054/Y
      0    EQ       /g054/A0
      0    EQ       /g054/A1
      0    EQ       /g055/A0
      1    DS       /g056/Y
//                              num_detections = 34
      1    EQ       /g056/A0
//                              num_detections = 34
      1    EQ       /g056/A1
//                              num_detections = 34
      1    EQ       /g055/Y
//                              num_detections = 34
      1    EQ       /g055/A0
//                              num_detections = 34
      1    EQ       /g055/A1
//                              num_detections = 34
      1    EQ       /g048/Y
//                              num_detections = 34
      1    EQ       /g048/A0
//                              num_detections = 34
      1    EQ       /g048/A1
//                              num_detections = 34
      1    EQ       /g054/Y
//                              num_detections = 34
      1    EQ       /g052/Y
//                              num_detections = 34
      1    EQ       /g047/Y
//                              num_detections = 34
      1    EQ       /g043/Y
//                              num_detections = 34
      1    DS       /g054/A0
//			       num_detections = 1
      1    DS       /g054/A1
//			       num_detections = 9
      0    DS       /g052/Y
//                              num_detections = 2
      0    EQ       /g052/A0
//                              num_detections = 2
      0    EQ       /g052/A1
//                              num_detections = 2
      0    EQ       /g055/A1
//                              num_detections = 2
      1    DS       /g052/A0
//			       num_detections = 1
      1    DS       /g052/A1
//			       num_detections = 10
      0    DS       /g047/Y
//                              num_detections = 2
      0    EQ       /g047/A0
//                              num_detections = 2
      0    EQ       /g047/A1
//                              num_detections = 2
      0    EQ       /g048/A0
//                              num_detections = 2
      1    DS       /g047/A0
//			       num_detections = 2
      1    DS       /g047/A1
//			       num_detections = 11
      0    DS       /g043/Y
//                              num_detections = 3
      0    EQ       /g043/A0
//                              num_detections = 3
      0    EQ       /g043/A1
//                              num_detections = 3
      0    EQ       /g048/A1
//                              num_detections = 3
      1    DS       /g043/A0
//			       num_detections = 2
      1    DS       /g043/A1
//			       num_detections = 7
      0    DS       /g146/Y
//                              num_detections = 8
      0    EQ       /g151/A1
//                              num_detections = 8
      0    DS       /g150/Y
//                              num_detections = 13
      0    EQ       /g151/A0
//                              num_detections = 13
      0    DS       /g055/Y
//                              num_detections = 2
      0    EQ       /g056/A0
//                              num_detections = 2
      0    DS       /g048/Y
//                              num_detections = 5
      0    EQ       /g056/A1
//                              num_detections = 5
      0    DS       /g151/Y
//			       num_detections = 21
      0    DS       /g056/Y
//			       num_detections = 7
      0    DS       /g162/Y
//                              num_detections = 10
      0    EQ       /g162/A1
//                              num_detections = 10
      0    EQ       /g162/A0
//                              num_detections = 10
      1    DS       /g162/Y
//			       num_detections = 105
      1    DS       /g162/A1
//			       num_detections = 28
      1    DS       /g162/A0
//			       num_detections = 15
      0    DS       /g152/Y
//                              num_detections = 11
      0    EQ       /g152/A1
//                              num_detections = 11
      0    EQ       /g152/A0
//                              num_detections = 11
      1    DS       /g152/Y
//			       num_detections = 104
      1    DS       /g152/A1
//			       num_detections = 27
      1    DS       /g152/A0
//			       num_detections = 23
      0    DS       /g112/Y
//                              num_detections = 6
      0    EQ       /g112/A0
//                              num_detections = 6
      0    EQ       /g112/A1
//                              num_detections = 6
      1    DS       /g112/Y
//			       num_detections = 106
      1    DS       /g112/A0
//			       num_detections = 16
      1    DS       /g112/A1
//			       num_detections = 17
      0    DS       /g084/Y
//                              num_detections = 1
      0    EQ       /g084/A0
//                              num_detections = 1
      0    EQ       /g084/A1
//                              num_detections = 1
      1    DS       /g084/Y
//			       num_detections = 111
      1    DS       /g084/A0
//			       num_detections = 21
      1    DS       /g084/A1
//			       num_detections = 17
      0    DS       /g181/Y
//                              num_detections = 4
      0    EQ       /g181/A0
//                              num_detections = 4
      0    EQ       /g181/A1
//                              num_detections = 4
      1    DS       /g181/Y
//			       num_detections = 237
      1    DS       /g181/A0
//			       num_detections = 55
      1    DS       /g181/A1
//			       num_detections = 18
      0    DS       /g163/Y
//                              num_detections = 6
      0    EQ       /g163/A0
//                              num_detections = 6
      0    EQ       /g163/A1
//                              num_detections = 6
      1    DS       /g163/Y
//			       num_detections = 235
      1    DS       /g163/A0
//			       num_detections = 50
      1    DS       /g163/A1
//			       num_detections = 16
      0    DS       /g172/Y
//                              num_detections = 8
      0    EQ       /g172/A0
//                              num_detections = 8
      0    EQ       /g172/A1
//                              num_detections = 8
      1    DS       /g172/Y
//			       num_detections = 233
      1    DS       /g172/A0
//			       num_detections = 51
      1    DS       /g172/A1
//			       num_detections = 9
      0    DS       /g153/Y
//                              num_detections = 3
      0    EQ       /g153/A0
//                              num_detections = 3
      0    EQ       /g153/A1
//                              num_detections = 3
      1    DS       /g153/Y
//			       num_detections = 238
      1    DS       /g153/A0
//			       num_detections = 53
      1    DS       /g153/A1
//			       num_detections = 14
      0    DS       /g134/Y
//                              num_detections = 5
      0    EQ       /g134/A0
//                              num_detections = 5
      0    EQ       /g134/A1
//                              num_detections = 5
      1    DS       /g134/Y
//			       num_detections = 228
      1    DS       /g134/A0
//			       num_detections = 12
      1    DS       /g134/A1
//			       num_detections = 64
      0    DS       /g113/Y
//                              num_detections = 1
      0    EQ       /g113/A0
//                              num_detections = 1
      0    EQ       /g113/A1
//                              num_detections = 1
      1    DS       /g113/Y
//			       num_detections = 232
      1    DS       /g113/A0
//			       num_detections = 42
      1    DS       /g113/A1
//			       num_detections = 16
      0    DS       /g125/Y
//                              num_detections = 1
      0    EQ       /g125/A0
//                              num_detections = 1
      0    EQ       /g125/A1
//                              num_detections = 1
      1    DS       /g125/Y
//			       num_detections = 232
      1    DS       /g125/A0
//			       num_detections = 12
      1    DS       /g125/A1
//			       num_detections = 68
      0    UC       /g100/Y
      0    EQ       /g100/A0
      0    EQ       /g100/A1
      1    DS       /g100/Y
//			       num_detections = 233
      1    DS       /g100/A0
//			       num_detections = 13
      1    DS       /g100/A1
//			       num_detections = 43
      0    UC       /g188/Y
      0    EQ       /g188/A0
      0    EQ       /g188/A1
      0    EQ       /g189/A0
      1    DS       /g188/Y
//                              num_detections >= 255
      1    EQ       /g189/A0
//                              num_detections >= 255
      1    DS       /g188/A0
//			       num_detections = 120
      1    DS       /g188/A1
//			       num_detections = 4
      0    DS       /g186/Y
//                              num_detections = 2
      0    EQ       /g186/A0
//                              num_detections = 2
      0    EQ       /g186/A1
//                              num_detections = 2
      0    EQ       /g187/A0
//                              num_detections = 2
      1    DS       /g186/Y
//                              num_detections = 253
      1    EQ       /g187/A0
//                              num_detections = 253
      1    DS       /g186/A0
//			       num_detections = 120
      1    DS       /g186/A1
//			       num_detections = 2
      0    DS       /g184/Y
//                              num_detections = 1
      0    EQ       /g184/A0
//                              num_detections = 1
      0    EQ       /g184/A1
//                              num_detections = 1
      0    EQ       /g185/A0
//                              num_detections = 1
      1    DS       /g184/Y
//                              num_detections = 254
      1    EQ       /g185/A0
//                              num_detections = 254
      1    DS       /g184/A0
//			       num_detections = 141
      1    DS       /g184/A1
//			       num_detections = 3
      0    DS       /g182/Y
//                              num_detections = 1
      0    EQ       /g182/A0
//                              num_detections = 1
      0    EQ       /g182/A1
//                              num_detections = 1
      0    EQ       /g183/A0
//                              num_detections = 1
      1    DS       /g182/Y
//                              num_detections = 254
      1    EQ       /g183/A0
//                              num_detections = 254
      1    DS       /g182/A0
//			       num_detections = 116
      1    DS       /g182/A1
//			       num_detections = 3
      0    UC       /g170/Y
      0    EQ       /g170/A0
      0    EQ       /g170/A1
      0    EQ       /g171/A0
      1    DS       /g170/Y
//                              num_detections >= 255
      1    EQ       /g171/A0
//                              num_detections >= 255
      1    DS       /g170/A0
//			       num_detections = 120
      1    DS       /g170/A1
//			       num_detections = 6
      0    DS       /g168/Y
//                              num_detections = 3
      0    EQ       /g168/A0
//                              num_detections = 3
      0    EQ       /g168/A1
//                              num_detections = 3
      0    EQ       /g169/A0
//                              num_detections = 3
      1    DS       /g168/Y
//                              num_detections = 252
      1    EQ       /g169/A0
//                              num_detections = 252
      1    DS       /g168/A0
//			       num_detections = 119
      1    DS       /g168/A1
//			       num_detections = 3
      0    DS       /g166/Y
//                              num_detections = 2
      0    EQ       /g166/A0
//                              num_detections = 2
      0    EQ       /g166/A1
//                              num_detections = 2
      0    EQ       /g167/A0
//                              num_detections = 2
      1    DS       /g166/Y
//                              num_detections = 253
      1    EQ       /g167/A0
//                              num_detections = 253
      1    DS       /g166/A0
//			       num_detections = 140
      1    DS       /g166/A1
//			       num_detections = 4
      0    DS       /g164/Y
//                              num_detections = 1
      0    EQ       /g164/A0
//                              num_detections = 1
      0    EQ       /g164/A1
//                              num_detections = 1
      0    EQ       /g165/A0
//                              num_detections = 1
      1    DS       /g164/Y
//                              num_detections = 254
      1    EQ       /g165/A0
//                              num_detections = 254
      1    DS       /g164/A0
//			       num_detections = 116
      1    DS       /g164/A1
//			       num_detections = 5
      0    UC       /g179/Y
      0    EQ       /g179/A0
      0    EQ       /g179/A1
      0    EQ       /g180/A0
      1    DS       /g179/Y
//                              num_detections >= 255
      1    EQ       /g180/A0
//                              num_detections >= 255
      1    DS       /g179/A0
//			       num_detections = 120
      1    DS       /g179/A1
//			       num_detections = 8
      0    DS       /g177/Y
//                              num_detections = 2
      0    EQ       /g177/A0
//                              num_detections = 2
      0    EQ       /g177/A1
//                              num_detections = 2
      0    EQ       /g178/A0
//                              num_detections = 2
      1    DS       /g177/Y
//                              num_detections = 253
      1    EQ       /g178/A0
//                              num_detections = 253
      1    DS       /g177/A0
//			       num_detections = 120
      1    DS       /g177/A1
//			       num_detections = 6
      0    DS       /g175/Y
//                              num_detections = 5
      0    EQ       /g175/A0
//                              num_detections = 5
      0    EQ       /g175/A1
//                              num_detections = 5
      0    EQ       /g176/A0
//                              num_detections = 5
      1    DS       /g175/Y
//                              num_detections = 250
      1    EQ       /g176/A0
//                              num_detections = 250
      1    DS       /g175/A0
//			       num_detections = 137
      1    DS       /g175/A1
//			       num_detections = 3
      0    DS       /g173/Y
//                              num_detections = 1
      0    EQ       /g173/A0
//                              num_detections = 1
      0    EQ       /g173/A1
//                              num_detections = 1
      0    EQ       /g174/A0
//                              num_detections = 1
      1    DS       /g173/Y
//                              num_detections = 254
      1    EQ       /g174/A0
//                              num_detections = 254
      1    DS       /g173/A0
//			       num_detections = 116
      1    DS       /g173/A1
//			       num_detections = 7
      0    UC       /g160/Y
      0    EQ       /g160/A0
      0    EQ       /g160/A1
      0    EQ       /g161/A0
      1    DS       /g160/Y
//                              num_detections >= 255
      1    EQ       /g161/A0
//                              num_detections >= 255
      1    DS       /g160/A0
//			       num_detections = 120
      1    DS       /g160/A1
//			       num_detections = 3
      0    DS       /g158/Y
//                              num_detections = 1
      0    EQ       /g158/A0
//                              num_detections = 1
      0    EQ       /g158/A1
//                              num_detections = 1
      0    EQ       /g159/A0
//                              num_detections = 1
      1    DS       /g158/Y
//                              num_detections = 254
      1    EQ       /g159/A0
//                              num_detections = 254
      1    DS       /g158/A0
//			       num_detections = 121
      1    DS       /g158/A1
//			       num_detections = 2
      0    DS       /g156/Y
//                              num_detections = 1
      0    EQ       /g156/A0
//                              num_detections = 1
      0    EQ       /g156/A1
//                              num_detections = 1
      0    EQ       /g157/A0
//                              num_detections = 1
      1    DS       /g156/Y
//                              num_detections = 254
      1    EQ       /g157/A0
//                              num_detections = 254
      1    DS       /g156/A0
//			       num_detections = 141
      1    DS       /g156/A1
//			       num_detections = 2
      0    DS       /g154/Y
//                              num_detections = 1
      0    EQ       /g154/A0
//                              num_detections = 1
      0    EQ       /g154/A1
//                              num_detections = 1
      0    EQ       /g155/A0
//                              num_detections = 1
      1    DS       /g154/Y
//                              num_detections = 254
      1    EQ       /g155/A0
//                              num_detections = 254
      1    DS       /g154/A0
//			       num_detections = 116
      1    DS       /g154/A1
//			       num_detections = 2
      0    DS       /g141/Y
//                              num_detections = 2
      0    EQ       /g141/A0
//                              num_detections = 2
      0    EQ       /g141/A1
//                              num_detections = 2
      0    EQ       /g142/A0
//                              num_detections = 2
      1    DS       /g141/Y
//                              num_detections = 253
      1    EQ       /g142/A0
//                              num_detections = 253
      1    DS       /g141/A0
//			       num_detections = 122
      1    DS       /g141/A1
//			       num_detections = 3
      0    DS       /g139/Y
//                              num_detections = 2
      0    EQ       /g139/A0
//                              num_detections = 2
      0    EQ       /g139/A1
//                              num_detections = 2
      0    EQ       /g140/A0
//                              num_detections = 2
      1    DS       /g139/Y
//                              num_detections = 253
      1    EQ       /g140/A0
//                              num_detections = 253
      1    DS       /g139/A0
//			       num_detections = 127
      1    DS       /g139/A1
//			       num_detections = 3
      0    DS       /g137/Y
//                              num_detections = 1
      0    EQ       /g137/A0
//                              num_detections = 1
      0    EQ       /g137/A1
//                              num_detections = 1
      0    EQ       /g138/A0
//                              num_detections = 1
      1    DS       /g137/Y
//                              num_detections = 254
      1    EQ       /g138/A0
//                              num_detections = 254
      1    DS       /g137/A0
//			       num_detections = 124
      1    DS       /g137/A1
//			       num_detections = 4
      0    UC       /g135/Y
      0    EQ       /g135/A0
      0    EQ       /g135/A1
      0    EQ       /g136/A0
      1    DS       /g135/Y
//                              num_detections >= 255
      1    EQ       /g136/A0
//                              num_detections >= 255
      1    DS       /g135/A0
//			       num_detections = 118
      1    DS       /g135/A1
//			       num_detections = 5
      0    UC       /g120/Y
      0    EQ       /g120/A0
      0    EQ       /g120/A1
      0    EQ       /g121/A0
      1    DS       /g120/Y
//                              num_detections >= 255
      1    EQ       /g121/A0
//                              num_detections >= 255
      1    DS       /g120/A0
//			       num_detections = 124
      1    DS       /g120/A1
//			       num_detections = 1
      0    UC       /g118/Y
      0    EQ       /g118/A0
      0    EQ       /g118/A1
      0    EQ       /g119/A0
      1    DS       /g118/Y
//                              num_detections >= 255
      1    EQ       /g119/A0
//                              num_detections >= 255
      1    DS       /g118/A0
//			       num_detections = 129
      1    DS       /g118/A1
//			       num_detections = 1
      0    DS       /g116/Y
//                              num_detections = 1
      0    EQ       /g116/A0
//                              num_detections = 1
      0    EQ       /g116/A1
//                              num_detections = 1
      0    EQ       /g117/A0
//                              num_detections = 1
      1    DS       /g116/Y
//                              num_detections = 254
      1    EQ       /g117/A0
//                              num_detections = 254
      1    DS       /g116/A0
//			       num_detections = 124
      1    UO       /g116/A1
      0    UC       /g114/Y
      0    EQ       /g114/A0
      0    EQ       /g114/A1
      0    EQ       /g115/A0
      1    DS       /g114/Y
//                              num_detections >= 255
      1    EQ       /g115/A0
//                              num_detections >= 255
      1    DS       /g114/A0
//			       num_detections = 118
      1    DS       /g114/A1
//			       num_detections = 1
      0    UC       /g132/Y
      0    EQ       /g132/A0
      0    EQ       /g132/A1
      0    EQ       /g133/A0
      1    DS       /g132/Y
//                              num_detections >= 255
      1    EQ       /g133/A0
//                              num_detections >= 255
      1    DS       /g132/A0
//			       num_detections = 124
      1    DS       /g132/A1
//			       num_detections = 1
      0    DS       /g130/Y
//                              num_detections = 1
      0    EQ       /g130/A0
//                              num_detections = 1
      0    EQ       /g130/A1
//                              num_detections = 1
      0    EQ       /g131/A0
//                              num_detections = 1
      1    DS       /g130/Y
//                              num_detections = 254
      1    EQ       /g131/A0
//                              num_detections = 254
      1    DS       /g130/A0
//			       num_detections = 128
      1    UO       /g130/A1
      0    UC       /g128/Y
      0    EQ       /g128/A0
      0    EQ       /g128/A1
      0    EQ       /g129/A0
      1    DS       /g128/Y
//                              num_detections >= 255
      1    EQ       /g129/A0
//                              num_detections >= 255
      1    DS       /g128/A0
//			       num_detections = 125
      1    DS       /g128/A1
//			       num_detections = 1
      0    UC       /g126/Y
      0    EQ       /g126/A0
      0    EQ       /g126/A1
      0    EQ       /g127/A0
      1    DS       /g126/Y
//                              num_detections >= 255
      1    EQ       /g127/A0
//                              num_detections >= 255
      1    DS       /g126/A0
//			       num_detections = 118
      1    DS       /g126/A1
//			       num_detections = 1
      0    UC       /g107/Y
      0    EQ       /g107/A0
      0    EQ       /g107/A1
      0    EQ       /g108/A0
      1    DS       /g107/Y
//                              num_detections >= 255
      1    EQ       /g108/A0
//                              num_detections >= 255
      1    DS       /g107/A0
//			       num_detections = 124
      1    UO       /g107/A1
      0    UC       /g105/Y
      0    EQ       /g105/A0
      0    EQ       /g105/A1
      0    EQ       /g106/A0
      1    DS       /g105/Y
//                              num_detections >= 255
      1    EQ       /g106/A0
//                              num_detections >= 255
      1    DS       /g105/A0
//			       num_detections = 129
      1    UO       /g105/A1
      0    UC       /g103/Y
      0    EQ       /g103/A0
      0    EQ       /g103/A1
      0    EQ       /g104/A0
      1    DS       /g103/Y
//                              num_detections >= 255
      1    EQ       /g104/A0
//                              num_detections >= 255
      1    DS       /g103/A0
//			       num_detections = 125
      1    UO       /g103/A1
      0    UC       /g101/Y
      0    EQ       /g101/A0
      0    EQ       /g101/A1
      0    EQ       /g102/A0
      1    DS       /g101/Y
//                              num_detections >= 255
      1    EQ       /g102/A0
//                              num_detections >= 255
      1    DS       /g101/A0
//			       num_detections = 118
      1    UO       /g101/A1
      0    DS       /God31
//                              num_detections = 117
      0    EQ       /g189/Y
//                              num_detections = 117
      1    DS       /God31
//                              num_detections = 138
      1    EQ       /g189/Y
//                              num_detections = 138
      0    DS       /g189/A1
//			       num_detections = 117
      1    DS       /g189/A1
//			       num_detections = 138
      0    DS       /God30
//                              num_detections = 128
      0    EQ       /g187/Y
//                              num_detections = 128
      1    DS       /God30
//                              num_detections = 127
      1    EQ       /g187/Y
//                              num_detections = 127
      0    DS       /g187/A1
//			       num_detections = 130
      1    DS       /g187/A1
//			       num_detections = 125
      0    DS       /God29
//                              num_detections = 124
      0    EQ       /g185/Y
//                              num_detections = 124
      1    DS       /God29
//                              num_detections = 131
      1    EQ       /g185/Y
//                              num_detections = 131
      0    DS       /g185/A1
//			       num_detections = 123
      1    DS       /g185/A1
//			       num_detections = 132
      0    DS       /God28
//                              num_detections = 132
      0    EQ       /g183/Y
//                              num_detections = 132
      1    DS       /God28
//                              num_detections = 123
      1    EQ       /g183/Y
//                              num_detections = 123
      0    DS       /g183/A1
//			       num_detections = 131
      1    DS       /g183/A1
//			       num_detections = 124
      0    DS       /God23
//                              num_detections = 133
      0    EQ       /g171/Y
//                              num_detections = 133
      1    DS       /God23
//                              num_detections = 122
      1    EQ       /g171/Y
//                              num_detections = 122
      0    DS       /g171/A1
//			       num_detections = 133
      1    DS       /g171/A1
//			       num_detections = 122
      0    DS       /God22
//                              num_detections = 135
      0    EQ       /g169/Y
//                              num_detections = 135
      1    DS       /God22
//                              num_detections = 120
      1    EQ       /g169/Y
//                              num_detections = 120
      0    DS       /g169/A1
//			       num_detections = 138
      1    DS       /g169/A1
//			       num_detections = 117
      0    DS       /God21
//                              num_detections = 133
      0    EQ       /g167/Y
//                              num_detections = 133
      1    DS       /God21
//                              num_detections = 122
      1    EQ       /g167/Y
//                              num_detections = 122
      0    DS       /g167/A1
//			       num_detections = 135
      1    DS       /g167/A1
//			       num_detections = 120
      0    DS       /God20
//                              num_detections = 139
      0    EQ       /g165/Y
//                              num_detections = 139
      1    DS       /God20
//                              num_detections = 116
      1    EQ       /g165/Y
//                              num_detections = 116
      0    DS       /g165/A1
//			       num_detections = 138
      1    DS       /g165/A1
//			       num_detections = 117
      0    DS       /God27
//                              num_detections = 135
      0    EQ       /g180/Y
//                              num_detections = 135
      1    DS       /God27
//                              num_detections = 120
      1    EQ       /g180/Y
//                              num_detections = 120
      0    DS       /g180/A1
//			       num_detections = 135
      1    DS       /g180/A1
//			       num_detections = 120
      0    DS       /God26
//                              num_detections = 129
      0    EQ       /g178/Y
//                              num_detections = 129
      1    DS       /God26
//                              num_detections = 126
      1    EQ       /g178/Y
//                              num_detections = 126
      0    DS       /g178/A1
//			       num_detections = 129
      1    DS       /g178/A1
//			       num_detections = 126
      0    DS       /God25
//                              num_detections = 138
      0    EQ       /g176/Y
//                              num_detections = 138
      1    DS       /God25
//                              num_detections = 117
      1    EQ       /g176/Y
//                              num_detections = 117
      0    DS       /g176/A1
//			       num_detections = 137
      1    DS       /g176/A1
//			       num_detections = 118
      0    DS       /God24
//                              num_detections = 125
      0    EQ       /g174/Y
//                              num_detections = 125
      1    DS       /God24
//                              num_detections = 130
      1    EQ       /g174/Y
//                              num_detections = 130
      0    DS       /g174/A1
//			       num_detections = 126
      1    DS       /g174/A1
//			       num_detections = 129
      0    DS       /God19
//                              num_detections = 132
      0    EQ       /g161/Y
//                              num_detections = 132
      1    DS       /God19
//                              num_detections = 123
      1    EQ       /g161/Y
//                              num_detections = 123
      0    DS       /g161/A1
//			       num_detections = 132
      1    DS       /g161/A1
//			       num_detections = 123
      0    DS       /God18
//                              num_detections = 128
      0    EQ       /g159/Y
//                              num_detections = 128
      1    DS       /God18
//                              num_detections = 127
      1    EQ       /g159/Y
//                              num_detections = 127
      0    DS       /g159/A1
//			       num_detections = 127
      1    DS       /g159/A1
//			       num_detections = 128
      0    DS       /God17
//                              num_detections = 135
      0    EQ       /g157/Y
//                              num_detections = 135
      1    DS       /God17
//                              num_detections = 120
      1    EQ       /g157/Y
//                              num_detections = 120
      0    DS       /g157/A1
//			       num_detections = 134
      1    DS       /g157/A1
//			       num_detections = 121
      0    DS       /God16
//                              num_detections = 124
      0    EQ       /g155/Y
//                              num_detections = 124
      1    DS       /God16
//                              num_detections = 131
      1    EQ       /g155/Y
//                              num_detections = 131
      0    DS       /g155/A1
//			       num_detections = 123
      1    DS       /g155/A1
//			       num_detections = 132
      0    DS       /God15
//                              num_detections = 129
      0    EQ       /g142/Y
//                              num_detections = 129
      1    DS       /God15
//                              num_detections = 126
      1    EQ       /g142/Y
//                              num_detections = 126
      0    DS       /g142/A1
//			       num_detections = 129
      1    DS       /g142/A1
//			       num_detections = 126
      0    DS       /God14
//                              num_detections = 123
      0    EQ       /g140/Y
//                              num_detections = 123
      1    DS       /God14
//                              num_detections = 132
      1    EQ       /g140/Y
//                              num_detections = 132
      0    DS       /g140/A1
//			       num_detections = 123
      1    DS       /g140/A1
//			       num_detections = 132
      0    DS       /God13
//                              num_detections = 118
      0    EQ       /g138/Y
//                              num_detections = 118
      1    DS       /God13
//                              num_detections = 137
      1    EQ       /g138/Y
//                              num_detections = 137
      0    DS       /g138/A1
//			       num_detections = 119
      1    DS       /g138/A1
//			       num_detections = 136
      0    DS       /God12
//                              num_detections = 134
      0    EQ       /g136/Y
//                              num_detections = 134
      1    DS       /God12
//                              num_detections = 121
      1    EQ       /g136/Y
//                              num_detections = 121
      0    DS       /g136/A1
//			       num_detections = 134
      1    DS       /g136/A1
//			       num_detections = 121
      0    DS       /God7
//                              num_detections = 130
      0    EQ       /g121/Y
//                              num_detections = 130
      1    DS       /God7
//                              num_detections = 125
      1    EQ       /g121/Y
//                              num_detections = 125
      0    DS       /g121/A1
//			       num_detections = 130
      1    DS       /g121/A1
//			       num_detections = 125
      0    DS       /God6
//                              num_detections = 135
      0    EQ       /g119/Y
//                              num_detections = 135
      1    DS       /God6
//                              num_detections = 120
      1    EQ       /g119/Y
//                              num_detections = 120
      0    DS       /g119/A1
//			       num_detections = 135
      1    DS       /g119/A1
//			       num_detections = 120
      0    DS       /God5
//                              num_detections = 128
      0    EQ       /g117/Y
//                              num_detections = 128
      1    DS       /God5
//                              num_detections = 127
      1    EQ       /g117/Y
//                              num_detections = 127
      0    DS       /g117/A1
//			       num_detections = 129
      1    DS       /g117/A1
//			       num_detections = 126
      0    DS       /God4
//                              num_detections = 129
      0    EQ       /g115/Y
//                              num_detections = 129
      1    DS       /God4
//                              num_detections = 126
      1    EQ       /g115/Y
//                              num_detections = 126
      0    DS       /g115/A1
//			       num_detections = 129
      1    DS       /g115/A1
//			       num_detections = 126
      0    DS       /God11
//                              num_detections = 124
      0    EQ       /g133/Y
//                              num_detections = 124
      1    DS       /God11
//                              num_detections = 131
      1    EQ       /g133/Y
//                              num_detections = 131
      0    DS       /g133/A1
//			       num_detections = 124
      1    DS       /g133/A1
//			       num_detections = 131
      0    DS       /God10
//                              num_detections = 122
      0    EQ       /g131/Y
//                              num_detections = 122
      1    DS       /God10
//                              num_detections = 133
      1    EQ       /g131/Y
//                              num_detections = 133
      0    DS       /g131/A1
//			       num_detections = 121
      1    DS       /g131/A1
//			       num_detections = 134
      0    DS       /God9
//                              num_detections = 117
      0    EQ       /g129/Y
//                              num_detections = 117
      1    DS       /God9
//                              num_detections = 138
      1    EQ       /g129/Y
//                              num_detections = 138
      0    DS       /g129/A1
//			       num_detections = 117
      1    DS       /g129/A1
//			       num_detections = 138
      0    DS       /God8
//                              num_detections = 118
      0    EQ       /g127/Y
//                              num_detections = 118
      1    DS       /God8
//                              num_detections = 137
      1    EQ       /g127/Y
//                              num_detections = 137
      0    DS       /g127/A1
//			       num_detections = 118
      1    DS       /g127/A1
//			       num_detections = 137
      0    DS       /God3
//                              num_detections = 125
      0    EQ       /g108/Y
//                              num_detections = 125
      1    DS       /God3
//                              num_detections = 130
      1    EQ       /g108/Y
//                              num_detections = 130
      0    DS       /g108/A1
//			       num_detections = 125
      1    DS       /g108/A1
//			       num_detections = 130
      0    DS       /God2
//                              num_detections = 137
      0    EQ       /g106/Y
//                              num_detections = 137
      1    DS       /God2
//                              num_detections = 118
      1    EQ       /g106/Y
//                              num_detections = 118
      0    DS       /g106/A1
//			       num_detections = 137
      1    DS       /g106/A1
//			       num_detections = 118
      0    DS       /God1
//                              num_detections = 130
      0    EQ       /g104/Y
//                              num_detections = 130
      1    DS       /God1
//                              num_detections = 125
      1    EQ       /g104/Y
//                              num_detections = 125
      0    DS       /g104/A1
//			       num_detections = 130
      1    DS       /g104/A1
//			       num_detections = 125
      0    DS       /God0
//                              num_detections = 129
      0    EQ       /g102/Y
//                              num_detections = 129
      1    DS       /God0
//                              num_detections = 126
      1    EQ       /g102/Y
//                              num_detections = 126
      0    DS       /g102/A1
//			       num_detections = 129
      1    DS       /g102/A1
//			       num_detections = 126
