                      Statistics Report                      
                       Stuck-at Faults                       
-------------------------------------------------------------
Fault Classes                           #faults              
                                        (total)              
------------------------  -----------------------------------
  FU (full)                               1286               
  ----------------------  -----------------------------------
  UC (uncontrolled)                      55          ( 4.28%)
  UO (unobserved)                         5          ( 0.39%)
  DS (det_simulation)                  1226          (95.33%)
-------------------------------------------------------------
Coverage                                                     
  ----------------------                                     
  test_coverage                                       95.33% 
  fault_coverage                                      95.33% 
  atpg_effectiveness                                  95.33% 
-------------------------------------------------------------
#test_patterns                                             0 
#simulated_patterns                                      255 
CPU_time (secs)                                        120.5 
-------------------------------------------------------------
Multiple Detection Statistics                                
-------------------------------------------------------------
  Detections                  DS Faults         Test Coverage
     (N)                  (Detections == N) (Detections >= N)
------------------------  ----------------- -----------------
      1                        47 (  3.65%)    1226 ( 95.33%)
      2                        33 (  2.57%)    1179 ( 91.68%)
      3                        29 (  2.26%)    1146 ( 89.11%)
      4                        21 (  1.63%)    1117 ( 86.86%)
      5                        31 (  2.41%)    1096 ( 85.23%)
      6                        13 (  1.01%)    1065 ( 82.81%)
      7                        13 (  1.01%)    1052 ( 81.80%)
      8                        12 (  0.93%)    1039 ( 80.79%)
      9                        10 (  0.78%)    1027 ( 79.86%)
     10                        14 (  1.09%)    1017 ( 79.08%)
     11                        11 (  0.86%)    1003 ( 77.99%)
     12                        18 (  1.40%)     992 ( 77.14%)
     13                        15 (  1.17%)     974 ( 75.74%)
     14                        15 (  1.17%)     959 ( 74.57%)
     15                        19 (  1.48%)     944 ( 73.41%)
     16                        25 (  1.94%)     925 ( 71.93%)
     17                        19 (  1.48%)     900 ( 69.98%)
     18                        14 (  1.09%)     881 ( 68.51%)
     19                         7 (  0.54%)     867 ( 67.42%)
     20                        15 (  1.17%)     860 ( 66.87%)
     21                        18 (  1.40%)     845 ( 65.71%)
     22                        15 (  1.17%)     827 ( 64.31%)
     23                        12 (  0.93%)     812 ( 63.14%)
     24                        26 (  2.02%)     800 ( 62.21%)
     25                        16 (  1.24%)     774 ( 60.19%)
     26                        26 (  2.02%)     758 ( 58.94%)
     27                        21 (  1.63%)     732 ( 56.92%)
     28                        17 (  1.32%)     711 ( 55.29%)
     29                        29 (  2.26%)     694 ( 53.97%)
     30                        42 (  3.27%)     665 ( 51.71%)
     31                        22 (  1.71%)     623 ( 48.44%)
     32                        22 (  1.71%)     601 ( 46.73%)
     33                        39 (  3.03%)     579 ( 45.02%)
     34                        30 (  2.33%)     540 ( 41.99%)
     35                        24 (  1.87%)     510 ( 39.66%)
     36                        13 (  1.01%)     486 ( 37.79%)
     37                        14 (  1.09%)     473 ( 36.78%)
     38                        11 (  0.86%)     459 ( 35.69%)
     39                        19 (  1.48%)     448 ( 34.84%)
     40                         7 (  0.54%)     429 ( 33.36%)
     41                        20 (  1.56%)     422 ( 32.81%)
     42                         0 (  0.00%)     402 ( 31.26%)
     43                         4 (  0.31%)     402 ( 31.26%)
     44                         0 (  0.00%)     398 ( 30.95%)
     45                        14 (  1.09%)     398 ( 30.95%)
     46                         0 (  0.00%)     384 ( 29.86%)
     47                         2 (  0.16%)     384 ( 29.86%)
     48                         6 (  0.47%)     382 ( 29.70%)
     49                         0 (  0.00%)     376 ( 29.24%)
     50                         0 (  0.00%)     376 ( 29.24%)
     51                         1 (  0.08%)     376 ( 29.24%)
     52                         2 (  0.16%)     375 ( 29.16%)
     53                         3 (  0.23%)     373 ( 29.00%)
     54                         0 (  0.00%)     370 ( 28.77%)
     55                         0 (  0.00%)     370 ( 28.77%)
     56                         0 (  0.00%)     370 ( 28.77%)
     57                         1 (  0.08%)     370 ( 28.77%)
     58                         2 (  0.16%)     369 ( 28.69%)
     59                         2 (  0.16%)     367 ( 28.54%)
     60                         0 (  0.00%)     365 ( 28.38%)
     61                         0 (  0.00%)     365 ( 28.38%)
     62                         0 (  0.00%)     365 ( 28.38%)
     63                         0 (  0.00%)     365 ( 28.38%)
     64                         1 (  0.08%)     365 ( 28.38%)
     65                         0 (  0.00%)     364 ( 28.30%)
     66                         0 (  0.00%)     364 ( 28.30%)
     67                         0 (  0.00%)     364 ( 28.30%)
     68                         0 (  0.00%)     364 ( 28.30%)
     69                         0 (  0.00%)     364 ( 28.30%)
     70                         0 (  0.00%)     364 ( 28.30%)
     71                         0 (  0.00%)     364 ( 28.30%)
     72                         0 (  0.00%)     364 ( 28.30%)
     73                         0 (  0.00%)     364 ( 28.30%)
     74                         0 (  0.00%)     364 ( 28.30%)
     75                         0 (  0.00%)     364 ( 28.30%)
     76                         0 (  0.00%)     364 ( 28.30%)
     77                         0 (  0.00%)     364 ( 28.30%)
     78                         0 (  0.00%)     364 ( 28.30%)
     79                         0 (  0.00%)     364 ( 28.30%)
     80                         0 (  0.00%)     364 ( 28.30%)
     81                         0 (  0.00%)     364 ( 28.30%)
     82                         0 (  0.00%)     364 ( 28.30%)
     83                         0 (  0.00%)     364 ( 28.30%)
     84                         0 (  0.00%)     364 ( 28.30%)
     85                         0 (  0.00%)     364 ( 28.30%)
     86                         0 (  0.00%)     364 ( 28.30%)
     87                         0 (  0.00%)     364 ( 28.30%)
     88                         0 (  0.00%)     364 ( 28.30%)
     89                         0 (  0.00%)     364 ( 28.30%)
     90                         0 (  0.00%)     364 ( 28.30%)
     91                         0 (  0.00%)     364 ( 28.30%)
     92                         0 (  0.00%)     364 ( 28.30%)
     93                         0 (  0.00%)     364 ( 28.30%)
     94                         0 (  0.00%)     364 ( 28.30%)
     95                         0 (  0.00%)     364 ( 28.30%)
     96                         0 (  0.00%)     364 ( 28.30%)
     97                         0 (  0.00%)     364 ( 28.30%)
     98                         0 (  0.00%)     364 ( 28.30%)
     99                         0 (  0.00%)     364 ( 28.30%)
    100                         0 (  0.00%)     364 ( 28.30%)
    101                         1 (  0.08%)     364 ( 28.30%)
    102                         0 (  0.00%)     363 ( 28.23%)
    103                         1 (  0.08%)     363 ( 28.23%)
    104                         0 (  0.00%)     362 ( 28.15%)
    105                         0 (  0.00%)     362 ( 28.15%)
    106                         0 (  0.00%)     362 ( 28.15%)
    107                         0 (  0.00%)     362 ( 28.15%)
    108                         0 (  0.00%)     362 ( 28.15%)
    109                         1 (  0.08%)     362 ( 28.15%)
    110                         1 (  0.08%)     361 ( 28.07%)
    111                         3 (  0.23%)     360 ( 27.99%)
    112                         5 (  0.39%)     357 ( 27.76%)
    113                         0 (  0.00%)     352 ( 27.37%)
    114                         0 (  0.00%)     352 ( 27.37%)
    115                         8 (  0.62%)     352 ( 27.37%)
    116                         9 (  0.70%)     344 ( 26.75%)
    117                         3 (  0.23%)     335 ( 26.05%)
    118                         0 (  0.00%)     332 ( 25.82%)
    119                         4 (  0.31%)     332 ( 25.82%)
    120                        12 (  0.93%)     328 ( 25.51%)
    121                        10 (  0.78%)     316 ( 24.57%)
    122                         6 (  0.47%)     306 ( 23.79%)
    123                        14 (  1.09%)     300 ( 23.33%)
    124                        16 (  1.24%)     286 ( 22.24%)
    125                        21 (  1.63%)     270 ( 21.00%)
    126                        17 (  1.32%)     249 ( 19.36%)
    127                        23 (  1.79%)     232 ( 18.04%)
    128                        20 (  1.56%)     209 ( 16.25%)
    129                        11 (  0.86%)     189 ( 14.70%)
    130                        20 (  1.56%)     178 ( 13.84%)
    131                        15 (  1.17%)     158 ( 12.29%)
    132                        11 (  0.86%)     143 ( 11.12%)
    133                         9 (  0.70%)     132 ( 10.26%)
    134                        15 (  1.17%)     123 (  9.56%)
    135                        12 (  0.93%)     108 (  8.40%)
    136                         4 (  0.31%)      96 (  7.47%)
    137                         0 (  0.00%)      92 (  7.15%)
    138                         2 (  0.16%)      92 (  7.15%)
    139                         7 (  0.54%)      90 (  7.00%)
    140                         3 (  0.23%)      83 (  6.45%)
    141                         0 (  0.00%)      80 (  6.22%)
    142                         0 (  0.00%)      80 (  6.22%)
    143                         6 (  0.47%)      80 (  6.22%)
    144                         2 (  0.16%)      74 (  5.75%)
    145                         0 (  0.00%)      72 (  5.60%)
    146                         0 (  0.00%)      72 (  5.60%)
    147                         0 (  0.00%)      72 (  5.60%)
    148                         0 (  0.00%)      72 (  5.60%)
    149                         0 (  0.00%)      72 (  5.60%)
    150                         0 (  0.00%)      72 (  5.60%)
    151                         0 (  0.00%)      72 (  5.60%)
    152                         0 (  0.00%)      72 (  5.60%)
    153                         0 (  0.00%)      72 (  5.60%)
    154                         0 (  0.00%)      72 (  5.60%)
    155                         0 (  0.00%)      72 (  5.60%)
    156                         0 (  0.00%)      72 (  5.60%)
    157                         0 (  0.00%)      72 (  5.60%)
    158                         0 (  0.00%)      72 (  5.60%)
    159                         0 (  0.00%)      72 (  5.60%)
    160                         0 (  0.00%)      72 (  5.60%)
    161                         0 (  0.00%)      72 (  5.60%)
    162                         0 (  0.00%)      72 (  5.60%)
    163                         0 (  0.00%)      72 (  5.60%)
    164                         0 (  0.00%)      72 (  5.60%)
    165                         0 (  0.00%)      72 (  5.60%)
    166                         0 (  0.00%)      72 (  5.60%)
    167                         0 (  0.00%)      72 (  5.60%)
    168                         0 (  0.00%)      72 (  5.60%)
    169                         0 (  0.00%)      72 (  5.60%)
    170                         0 (  0.00%)      72 (  5.60%)
    171                         0 (  0.00%)      72 (  5.60%)
    172                         0 (  0.00%)      72 (  5.60%)
    173                         0 (  0.00%)      72 (  5.60%)
    174                         0 (  0.00%)      72 (  5.60%)
    175                         0 (  0.00%)      72 (  5.60%)
    176                         0 (  0.00%)      72 (  5.60%)
    177                         0 (  0.00%)      72 (  5.60%)
    178                         0 (  0.00%)      72 (  5.60%)
    179                         0 (  0.00%)      72 (  5.60%)
    180                         0 (  0.00%)      72 (  5.60%)
    181                         0 (  0.00%)      72 (  5.60%)
    182                         0 (  0.00%)      72 (  5.60%)
    183                         0 (  0.00%)      72 (  5.60%)
    184                         0 (  0.00%)      72 (  5.60%)
    185                         0 (  0.00%)      72 (  5.60%)
    186                         0 (  0.00%)      72 (  5.60%)
    187                         0 (  0.00%)      72 (  5.60%)
    188                         0 (  0.00%)      72 (  5.60%)
    189                         0 (  0.00%)      72 (  5.60%)
    190                         0 (  0.00%)      72 (  5.60%)
    191                         0 (  0.00%)      72 (  5.60%)
    192                         0 (  0.00%)      72 (  5.60%)
    193                         0 (  0.00%)      72 (  5.60%)
    194                         0 (  0.00%)      72 (  5.60%)
    195                         0 (  0.00%)      72 (  5.60%)
    196                         0 (  0.00%)      72 (  5.60%)
    197                         0 (  0.00%)      72 (  5.60%)
    198                         0 (  0.00%)      72 (  5.60%)
    199                         0 (  0.00%)      72 (  5.60%)
    200                         0 (  0.00%)      72 (  5.60%)
    201                         0 (  0.00%)      72 (  5.60%)
    202                         0 (  0.00%)      72 (  5.60%)
    203                         0 (  0.00%)      72 (  5.60%)
    204                         0 (  0.00%)      72 (  5.60%)
    205                         0 (  0.00%)      72 (  5.60%)
    206                         0 (  0.00%)      72 (  5.60%)
    207                         0 (  0.00%)      72 (  5.60%)
    208                         0 (  0.00%)      72 (  5.60%)
    209                         0 (  0.00%)      72 (  5.60%)
    210                         0 (  0.00%)      72 (  5.60%)
    211                         0 (  0.00%)      72 (  5.60%)
    212                         0 (  0.00%)      72 (  5.60%)
    213                         0 (  0.00%)      72 (  5.60%)
    214                         0 (  0.00%)      72 (  5.60%)
    215                         0 (  0.00%)      72 (  5.60%)
    216                         0 (  0.00%)      72 (  5.60%)
    217                         0 (  0.00%)      72 (  5.60%)
    218                         0 (  0.00%)      72 (  5.60%)
    219                         0 (  0.00%)      72 (  5.60%)
    220                         0 (  0.00%)      72 (  5.60%)
    221                         0 (  0.00%)      72 (  5.60%)
    222                         0 (  0.00%)      72 (  5.60%)
    223                         0 (  0.00%)      72 (  5.60%)
    224                         0 (  0.00%)      72 (  5.60%)
    225                         0 (  0.00%)      72 (  5.60%)
    226                         0 (  0.00%)      72 (  5.60%)
    227                         0 (  0.00%)      72 (  5.60%)
    228                         0 (  0.00%)      72 (  5.60%)
    229                         0 (  0.00%)      72 (  5.60%)
    230                         1 (  0.08%)      72 (  5.60%)
    231                         1 (  0.08%)      71 (  5.52%)
    232                         1 (  0.08%)      70 (  5.44%)
    233                         0 (  0.00%)      69 (  5.37%)
    234                         1 (  0.08%)      69 (  5.37%)
    235                         0 (  0.00%)      68 (  5.29%)
    236                         1 (  0.08%)      68 (  5.29%)
    237                         1 (  0.08%)      67 (  5.21%)
    238                         0 (  0.00%)      66 (  5.13%)
    239                         0 (  0.00%)      66 (  5.13%)
    240                         0 (  0.00%)      66 (  5.13%)
    241                         1 (  0.08%)      66 (  5.13%)
    242                         1 (  0.08%)      65 (  5.05%)
    243                         0 (  0.00%)      64 (  4.98%)
    244                         0 (  0.00%)      64 (  4.98%)
    245                         0 (  0.00%)      64 (  4.98%)
    246                         0 (  0.00%)      64 (  4.98%)
    247                         0 (  0.00%)      64 (  4.98%)
    248                         0 (  0.00%)      64 (  4.98%)
    249                         0 (  0.00%)      64 (  4.98%)
    250                         0 (  0.00%)      64 (  4.98%)
    251                         2 (  0.16%)      64 (  4.98%)
    252                         4 (  0.31%)      62 (  4.82%)
    253                        14 (  1.09%)      58 (  4.51%)
    254                        18 (  1.40%)      44 (  3.42%)
    255+                       26 (  2.02%)      26 (  2.02%)
-------------------------------------------------------------
bridge_coverage_estimate                              92.38% 
-------------------------------------------------------------

