                      Statistics Report                      
                       Stuck-at Faults                       
-------------------------------------------------------------
Fault Classes                           #faults              
                                        (total)              
------------------------  -----------------------------------
  FU (full)                               1284               
  ----------------------  -----------------------------------
  UO (unobserved)                        55          ( 4.28%)
  DS (det_simulation)                  1229          (95.72%)
-------------------------------------------------------------
Coverage                                                     
  ----------------------                                     
  test_coverage                                       95.72% 
  fault_coverage                                      95.72% 
  atpg_effectiveness                                  95.72% 
-------------------------------------------------------------
#test_patterns                                             0 
#simulated_patterns                                      255 
CPU_time (secs)                                        111.1 
-------------------------------------------------------------
Multiple Detection Statistics                                
-------------------------------------------------------------
  Detections                  DS Faults         Test Coverage
     (N)                  (Detections == N) (Detections >= N)
------------------------  ----------------- -----------------
      1                        16 (  1.25%)    1229 ( 95.72%)
      2                        24 (  1.87%)    1213 ( 94.47%)
      3                        19 (  1.48%)    1189 ( 92.60%)
      4                        26 (  2.02%)    1170 ( 91.12%)
      5                        28 (  2.18%)    1144 ( 89.10%)
      6                        24 (  1.87%)    1116 ( 86.92%)
      7                        22 (  1.71%)    1092 ( 85.05%)
      8                        19 (  1.48%)    1070 ( 83.33%)
      9                        12 (  0.93%)    1051 ( 81.85%)
     10                        28 (  2.18%)    1039 ( 80.92%)
     11                        10 (  0.78%)    1011 ( 78.74%)
     12                        55 (  4.28%)    1001 ( 77.96%)
     13                        54 (  4.21%)     946 ( 73.68%)
     14                        32 (  2.49%)     892 ( 69.47%)
     15                        62 (  4.83%)     860 ( 66.98%)
     16                        80 (  6.23%)     798 ( 62.15%)
     17                        22 (  1.71%)     718 ( 55.92%)
     18                        38 (  2.96%)     696 ( 54.21%)
     19                        40 (  3.12%)     658 ( 51.25%)
     20                        32 (  2.49%)     618 ( 48.13%)
     21                        46 (  3.58%)     586 ( 45.64%)
     22                        39 (  3.04%)     540 ( 42.06%)
     23                        19 (  1.48%)     501 ( 39.02%)
     24                        25 (  1.95%)     482 ( 37.54%)
     25                        15 (  1.17%)     457 ( 35.59%)
     26                        44 (  3.43%)     442 ( 34.42%)
     27                        11 (  0.86%)     398 ( 31.00%)
     28                        32 (  2.49%)     387 ( 30.14%)
     29                        26 (  2.02%)     355 ( 27.65%)
     30                        20 (  1.56%)     329 ( 25.62%)
     31                        24 (  1.87%)     309 ( 24.07%)
     32                         3 (  0.23%)     285 ( 22.20%)
     33                         6 (  0.47%)     282 ( 21.96%)
     34                         9 (  0.70%)     276 ( 21.50%)
     35                         3 (  0.23%)     267 ( 20.79%)
     36                        22 (  1.71%)     264 ( 20.56%)
     37                         9 (  0.70%)     242 ( 18.85%)
     38                         1 (  0.08%)     233 ( 18.15%)
     39                         6 (  0.47%)     232 ( 18.07%)
     40                         0 (  0.00%)     226 ( 17.60%)
     41                         5 (  0.39%)     226 ( 17.60%)
     42                        14 (  1.09%)     221 ( 17.21%)
     43                         2 (  0.16%)     207 ( 16.12%)
     44                         0 (  0.00%)     205 ( 15.97%)
     45                         2 (  0.16%)     205 ( 15.97%)
     46                         1 (  0.08%)     203 ( 15.81%)
     47                         2 (  0.16%)     202 ( 15.73%)
     48                         2 (  0.16%)     200 ( 15.58%)
     49                         0 (  0.00%)     198 ( 15.42%)
     50                         0 (  0.00%)     198 ( 15.42%)
     51                         4 (  0.31%)     198 ( 15.42%)
     52                         2 (  0.16%)     194 ( 15.11%)
     53                         0 (  0.00%)     192 ( 14.95%)
     54                         0 (  0.00%)     192 ( 14.95%)
     55                         0 (  0.00%)     192 ( 14.95%)
     56                         0 (  0.00%)     192 ( 14.95%)
     57                         3 (  0.23%)     192 ( 14.95%)
     58                         4 (  0.31%)     189 ( 14.72%)
     59                         0 (  0.00%)     185 ( 14.41%)
     60                         4 (  0.31%)     185 ( 14.41%)
     61                         6 (  0.47%)     181 ( 14.10%)
     62                        27 (  2.10%)     175 ( 13.63%)
     63                         0 (  0.00%)     148 ( 11.53%)
     64                         1 (  0.08%)     148 ( 11.53%)
     65                         3 (  0.23%)     147 ( 11.45%)
     66                         2 (  0.16%)     144 ( 11.21%)
     67                         1 (  0.08%)     142 ( 11.06%)
     68                         2 (  0.16%)     141 ( 10.98%)
     69                         1 (  0.08%)     139 ( 10.83%)
     70                         2 (  0.16%)     138 ( 10.75%)
     71                         1 (  0.08%)     136 ( 10.59%)
     72                         3 (  0.23%)     135 ( 10.51%)
     73                         1 (  0.08%)     132 ( 10.28%)
     74                         0 (  0.00%)     131 ( 10.20%)
     75                         0 (  0.00%)     131 ( 10.20%)
     76                         0 (  0.00%)     131 ( 10.20%)
     77                         2 (  0.16%)     131 ( 10.20%)
     78                         1 (  0.08%)     129 ( 10.05%)
     79                         0 (  0.00%)     128 (  9.97%)
     80                         0 (  0.00%)     128 (  9.97%)
     81                         0 (  0.00%)     128 (  9.97%)
     82                         0 (  0.00%)     128 (  9.97%)
     83                         2 (  0.16%)     128 (  9.97%)
     84                         0 (  0.00%)     126 (  9.81%)
     85                         0 (  0.00%)     126 (  9.81%)
     86                         0 (  0.00%)     126 (  9.81%)
     87                         0 (  0.00%)     126 (  9.81%)
     88                         0 (  0.00%)     126 (  9.81%)
     89                         0 (  0.00%)     126 (  9.81%)
     90                         2 (  0.16%)     126 (  9.81%)
     91                         2 (  0.16%)     124 (  9.66%)
     92                         2 (  0.16%)     122 (  9.50%)
     93                         0 (  0.00%)     120 (  9.35%)
     94                        40 (  3.12%)     120 (  9.35%)
     95                         0 (  0.00%)      80 (  6.23%)
     96                         2 (  0.16%)      80 (  6.23%)
     97                         2 (  0.16%)      78 (  6.07%)
     98                         0 (  0.00%)      76 (  5.92%)
     99                         4 (  0.31%)      76 (  5.92%)
    100                         2 (  0.16%)      72 (  5.61%)
    101                         0 (  0.00%)      70 (  5.45%)
    102                         0 (  0.00%)      70 (  5.45%)
    103                         0 (  0.00%)      70 (  5.45%)
    104                         0 (  0.00%)      70 (  5.45%)
    105                         0 (  0.00%)      70 (  5.45%)
    106                         0 (  0.00%)      70 (  5.45%)
    107                         0 (  0.00%)      70 (  5.45%)
    108                         2 (  0.16%)      70 (  5.45%)
    109                         0 (  0.00%)      68 (  5.30%)
    110                         0 (  0.00%)      68 (  5.30%)
    111                         0 (  0.00%)      68 (  5.30%)
    112                         0 (  0.00%)      68 (  5.30%)
    113                         0 (  0.00%)      68 (  5.30%)
    114                         0 (  0.00%)      68 (  5.30%)
    115                         0 (  0.00%)      68 (  5.30%)
    116                         0 (  0.00%)      68 (  5.30%)
    117                         2 (  0.16%)      68 (  5.30%)
    118                         0 (  0.00%)      66 (  5.14%)
    119                         0 (  0.00%)      66 (  5.14%)
    120                         8 (  0.62%)      66 (  5.14%)
    121                         0 (  0.00%)      58 (  4.52%)
    122                         0 (  0.00%)      58 (  4.52%)
    123                         2 (  0.16%)      58 (  4.52%)
    124                         0 (  0.00%)      56 (  4.36%)
    125                         2 (  0.16%)      56 (  4.36%)
    126                         0 (  0.00%)      54 (  4.21%)
    127                         2 (  0.16%)      54 (  4.21%)
    128                         8 (  0.62%)      52 (  4.05%)
    129                         0 (  0.00%)      44 (  3.43%)
    130                        13 (  1.01%)      44 (  3.43%)
    131                         0 (  0.00%)      31 (  2.41%)
    132                         0 (  0.00%)      31 (  2.41%)
    133                         0 (  0.00%)      31 (  2.41%)
    134                         0 (  0.00%)      31 (  2.41%)
    135                         2 (  0.16%)      31 (  2.41%)
    136                         0 (  0.00%)      29 (  2.26%)
    137                         0 (  0.00%)      29 (  2.26%)
    138                         0 (  0.00%)      29 (  2.26%)
    139                         0 (  0.00%)      29 (  2.26%)
    140                         0 (  0.00%)      29 (  2.26%)
    141                         0 (  0.00%)      29 (  2.26%)
    142                         0 (  0.00%)      29 (  2.26%)
    143                         0 (  0.00%)      29 (  2.26%)
    144                         0 (  0.00%)      29 (  2.26%)
    145                         0 (  0.00%)      29 (  2.26%)
    146                         0 (  0.00%)      29 (  2.26%)
    147                         2 (  0.16%)      29 (  2.26%)
    148                         0 (  0.00%)      27 (  2.10%)
    149                         0 (  0.00%)      27 (  2.10%)
    150                         2 (  0.16%)      27 (  2.10%)
    151                         0 (  0.00%)      25 (  1.95%)
    152                         0 (  0.00%)      25 (  1.95%)
    153                         0 (  0.00%)      25 (  1.95%)
    154                         0 (  0.00%)      25 (  1.95%)
    155                         0 (  0.00%)      25 (  1.95%)
    156                         0 (  0.00%)      25 (  1.95%)
    157                         0 (  0.00%)      25 (  1.95%)
    158                         0 (  0.00%)      25 (  1.95%)
    159                         0 (  0.00%)      25 (  1.95%)
    160                         0 (  0.00%)      25 (  1.95%)
    161                         4 (  0.31%)      25 (  1.95%)
    162                         0 (  0.00%)      21 (  1.64%)
    163                         0 (  0.00%)      21 (  1.64%)
    164                         0 (  0.00%)      21 (  1.64%)
    165                         0 (  0.00%)      21 (  1.64%)
    166                         0 (  0.00%)      21 (  1.64%)
    167                         0 (  0.00%)      21 (  1.64%)
    168                         0 (  0.00%)      21 (  1.64%)
    169                         0 (  0.00%)      21 (  1.64%)
    170                         0 (  0.00%)      21 (  1.64%)
    171                         0 (  0.00%)      21 (  1.64%)
    172                         0 (  0.00%)      21 (  1.64%)
    173                         0 (  0.00%)      21 (  1.64%)
    174                         0 (  0.00%)      21 (  1.64%)
    175                         0 (  0.00%)      21 (  1.64%)
    176                         0 (  0.00%)      21 (  1.64%)
    177                         4 (  0.31%)      21 (  1.64%)
    178                         0 (  0.00%)      17 (  1.32%)
    179                         0 (  0.00%)      17 (  1.32%)
    180                         0 (  0.00%)      17 (  1.32%)
    181                         0 (  0.00%)      17 (  1.32%)
    182                         0 (  0.00%)      17 (  1.32%)
    183                         0 (  0.00%)      17 (  1.32%)
    184                         0 (  0.00%)      17 (  1.32%)
    185                         1 (  0.08%)      17 (  1.32%)
    186                         1 (  0.08%)      16 (  1.25%)
    187                         0 (  0.00%)      15 (  1.17%)
    188                         0 (  0.00%)      15 (  1.17%)
    189                         0 (  0.00%)      15 (  1.17%)
    190                         0 (  0.00%)      15 (  1.17%)
    191                         0 (  0.00%)      15 (  1.17%)
    192                         0 (  0.00%)      15 (  1.17%)
    193                         4 (  0.31%)      15 (  1.17%)
    194                         0 (  0.00%)      11 (  0.86%)
    195                         0 (  0.00%)      11 (  0.86%)
    196                         0 (  0.00%)      11 (  0.86%)
    197                         0 (  0.00%)      11 (  0.86%)
    198                         0 (  0.00%)      11 (  0.86%)
    199                         0 (  0.00%)      11 (  0.86%)
    200                         0 (  0.00%)      11 (  0.86%)
    201                         0 (  0.00%)      11 (  0.86%)
    202                         0 (  0.00%)      11 (  0.86%)
    203                         0 (  0.00%)      11 (  0.86%)
    204                         0 (  0.00%)      11 (  0.86%)
    205                         0 (  0.00%)      11 (  0.86%)
    206                         0 (  0.00%)      11 (  0.86%)
    207                         0 (  0.00%)      11 (  0.86%)
    208                         0 (  0.00%)      11 (  0.86%)
    209                         0 (  0.00%)      11 (  0.86%)
    210                         0 (  0.00%)      11 (  0.86%)
    211                         0 (  0.00%)      11 (  0.86%)
    212                         0 (  0.00%)      11 (  0.86%)
    213                         1 (  0.08%)      11 (  0.86%)
    214                         0 (  0.00%)      10 (  0.78%)
    215                         0 (  0.00%)      10 (  0.78%)
    216                         0 (  0.00%)      10 (  0.78%)
    217                         0 (  0.00%)      10 (  0.78%)
    218                         6 (  0.47%)      10 (  0.78%)
    219                         0 (  0.00%)       4 (  0.31%)
    220                         0 (  0.00%)       4 (  0.31%)
    221                         0 (  0.00%)       4 (  0.31%)
    222                         0 (  0.00%)       4 (  0.31%)
    223                         0 (  0.00%)       4 (  0.31%)
    224                         0 (  0.00%)       4 (  0.31%)
    225                         0 (  0.00%)       4 (  0.31%)
    226                         0 (  0.00%)       4 (  0.31%)
    227                         0 (  0.00%)       4 (  0.31%)
    228                         0 (  0.00%)       4 (  0.31%)
    229                         0 (  0.00%)       4 (  0.31%)
    230                         0 (  0.00%)       4 (  0.31%)
    231                         0 (  0.00%)       4 (  0.31%)
    232                         0 (  0.00%)       4 (  0.31%)
    233                         0 (  0.00%)       4 (  0.31%)
    234                         0 (  0.00%)       4 (  0.31%)
    235                         0 (  0.00%)       4 (  0.31%)
    236                         0 (  0.00%)       4 (  0.31%)
    237                         0 (  0.00%)       4 (  0.31%)
    238                         0 (  0.00%)       4 (  0.31%)
    239                         4 (  0.31%)       4 (  0.31%)
    240+                        0 (  0.00%)       0 (  0.00%)
-------------------------------------------------------------
bridge_coverage_estimate                              94.19% 
-------------------------------------------------------------

