                      Statistics Report                      
                       Stuck-at Faults                       
-------------------------------------------------------------
Fault Classes                           #faults              
                                        (total)              
------------------------  -----------------------------------
  FU (full)                               6164               
  ----------------------  -----------------------------------
  UC (uncontrolled)                      16          ( 0.26%)
  UO (unobserved)                       486          ( 7.88%)
  DS (det_simulation)                  5655          (91.74%)
  TI (tied)                               7          ( 0.11%)
-------------------------------------------------------------
Coverage                                                     
  ----------------------                                     
  test_coverage                                       91.85% 
  fault_coverage                                      91.74% 
  atpg_effectiveness                                  91.86% 
-------------------------------------------------------------
#test_patterns                                             0 
#simulated_patterns                                      255 
CPU_time (secs)                                        455.1 
-------------------------------------------------------------
Multiple Detection Statistics                                
-------------------------------------------------------------
  Detections                  DS Faults         Test Coverage
     (N)                  (Detections == N) (Detections >= N)
------------------------  ----------------- -----------------
      1                       305 (  4.95%)    5655 ( 91.85%)
      2                       260 (  4.22%)    5350 ( 86.89%)
      3                       229 (  3.72%)    5090 ( 82.67%)
      4                       262 (  4.25%)    4861 ( 78.95%)
      5                       260 (  4.22%)    4599 ( 74.70%)
      6                       153 (  2.48%)    4339 ( 70.47%)
      7                       174 (  2.82%)    4186 ( 67.99%)
      8                       309 (  5.01%)    4012 ( 65.16%)
      9                       148 (  2.40%)    3703 ( 60.14%)
     10                       181 (  2.94%)    3555 ( 57.74%)
     11                        92 (  1.49%)    3374 ( 54.80%)
     12                        91 (  1.48%)    3282 ( 53.31%)
     13                       147 (  2.38%)    3191 ( 51.83%)
     14                       109 (  1.77%)    3044 ( 49.44%)
     15                       102 (  1.65%)    2935 ( 47.67%)
     16                       110 (  1.78%)    2833 ( 46.01%)
     17                        59 (  0.96%)    2723 ( 44.23%)
     18                       127 (  2.06%)    2664 ( 43.27%)
     19                        59 (  0.96%)    2537 ( 41.21%)
     20                        74 (  1.20%)    2478 ( 40.25%)
     21                        65 (  1.05%)    2404 ( 39.04%)
     22                        28 (  0.45%)    2339 ( 37.99%)
     23                        51 (  0.83%)    2311 ( 37.53%)
     24                        29 (  0.47%)    2260 ( 36.71%)
     25                        36 (  0.58%)    2231 ( 36.24%)
     26                        25 (  0.41%)    2195 ( 35.65%)
     27                        25 (  0.41%)    2170 ( 35.24%)
     28                        48 (  0.78%)    2145 ( 34.84%)
     29                        47 (  0.76%)    2097 ( 34.06%)
     30                        22 (  0.36%)    2050 ( 33.30%)
     31                        49 (  0.79%)    2028 ( 32.94%)
     32                        49 (  0.79%)    1979 ( 32.14%)
     33                        34 (  0.55%)    1930 ( 31.35%)
     34                        28 (  0.45%)    1896 ( 30.79%)
     35                        48 (  0.78%)    1868 ( 30.34%)
     36                        34 (  0.55%)    1820 ( 29.56%)
     37                        30 (  0.49%)    1786 ( 29.01%)
     38                        38 (  0.62%)    1756 ( 28.52%)
     39                        15 (  0.24%)    1718 ( 27.90%)
     40                        23 (  0.37%)    1703 ( 27.66%)
     41                        23 (  0.37%)    1680 ( 27.29%)
     42                        58 (  0.94%)    1657 ( 26.91%)
     43                        22 (  0.36%)    1599 ( 25.97%)
     44                        55 (  0.89%)    1577 ( 25.61%)
     45                        25 (  0.41%)    1522 ( 24.72%)
     46                        13 (  0.21%)    1497 ( 24.31%)
     47                        23 (  0.37%)    1484 ( 24.10%)
     48                        75 (  1.22%)    1461 ( 23.73%)
     49                        35 (  0.57%)    1386 ( 22.51%)
     50                        17 (  0.28%)    1351 ( 21.94%)
     51                        21 (  0.34%)    1334 ( 21.67%)
     52                        17 (  0.28%)    1313 ( 21.33%)
     53                        27 (  0.44%)    1296 ( 21.05%)
     54                        28 (  0.45%)    1269 ( 20.61%)
     55                        17 (  0.28%)    1241 ( 20.16%)
     56                        42 (  0.68%)    1224 ( 19.88%)
     57                         9 (  0.15%)    1182 ( 19.20%)
     58                        24 (  0.39%)    1173 ( 19.05%)
     59                         6 (  0.10%)    1149 ( 18.66%)
     60                        27 (  0.44%)    1143 ( 18.56%)
     61                        16 (  0.26%)    1116 ( 18.13%)
     62                         5 (  0.08%)    1100 ( 17.87%)
     63                        29 (  0.47%)    1095 ( 17.78%)
     64                        10 (  0.16%)    1066 ( 17.31%)
     65                        10 (  0.16%)    1056 ( 17.15%)
     66                        15 (  0.24%)    1046 ( 16.99%)
     67                        12 (  0.19%)    1031 ( 16.75%)
     68                         5 (  0.08%)    1019 ( 16.55%)
     69                         1 (  0.02%)    1014 ( 16.47%)
     70                        15 (  0.24%)    1013 ( 16.45%)
     71                        14 (  0.23%)     998 ( 16.21%)
     72                        18 (  0.29%)     984 ( 15.98%)
     73                        13 (  0.21%)     966 ( 15.69%)
     74                         9 (  0.15%)     953 ( 15.48%)
     75                        20 (  0.32%)     944 ( 15.33%)
     76                         1 (  0.02%)     924 ( 15.01%)
     77                         9 (  0.15%)     923 ( 14.99%)
     78                         9 (  0.15%)     914 ( 14.84%)
     79                        10 (  0.16%)     905 ( 14.70%)
     80                        18 (  0.29%)     895 ( 14.54%)
     81                         5 (  0.08%)     877 ( 14.24%)
     82                        21 (  0.34%)     872 ( 14.16%)
     83                        19 (  0.31%)     851 ( 13.82%)
     84                         4 (  0.06%)     832 ( 13.51%)
     85                         6 (  0.10%)     828 ( 13.45%)
     86                        11 (  0.18%)     822 ( 13.35%)
     87                         6 (  0.10%)     811 ( 13.17%)
     88                         9 (  0.15%)     805 ( 13.07%)
     89                        22 (  0.36%)     796 ( 12.93%)
     90                         2 (  0.03%)     774 ( 12.57%)
     91                         8 (  0.13%)     772 ( 12.54%)
     92                        17 (  0.28%)     764 ( 12.41%)
     93                        12 (  0.19%)     747 ( 12.13%)
     94                         2 (  0.03%)     735 ( 11.94%)
     95                        14 (  0.23%)     733 ( 11.91%)
     96                        13 (  0.21%)     719 ( 11.68%)
     97                         9 (  0.15%)     706 ( 11.47%)
     98                         8 (  0.13%)     697 ( 11.32%)
     99                         7 (  0.11%)     689 ( 11.19%)
    100                        12 (  0.19%)     682 ( 11.08%)
    101                         6 (  0.10%)     670 ( 10.88%)
    102                         2 (  0.03%)     664 ( 10.78%)
    103                         2 (  0.03%)     662 ( 10.75%)
    104                        30 (  0.49%)     660 ( 10.72%)
    105                        18 (  0.29%)     630 ( 10.23%)
    106                        17 (  0.28%)     612 (  9.94%)
    107                        13 (  0.21%)     595 (  9.66%)
    108                         6 (  0.10%)     582 (  9.45%)
    109                        15 (  0.24%)     576 (  9.36%)
    110                         1 (  0.02%)     561 (  9.11%)
    111                         7 (  0.11%)     560 (  9.10%)
    112                         6 (  0.10%)     553 (  8.98%)
    113                         9 (  0.15%)     547 (  8.88%)
    114                         8 (  0.13%)     538 (  8.74%)
    115                        13 (  0.21%)     530 (  8.61%)
    116                        17 (  0.28%)     517 (  8.40%)
    117                        19 (  0.31%)     500 (  8.12%)
    118                         8 (  0.13%)     481 (  7.81%)
    119                         7 (  0.11%)     473 (  7.68%)
    120                         6 (  0.10%)     466 (  7.57%)
    121                        16 (  0.26%)     460 (  7.47%)
    122                        31 (  0.50%)     444 (  7.21%)
    123                         6 (  0.10%)     413 (  6.71%)
    124                         4 (  0.06%)     407 (  6.61%)
    125                         7 (  0.11%)     403 (  6.55%)
    126                        14 (  0.23%)     396 (  6.43%)
    127                        24 (  0.39%)     382 (  6.20%)
    128                        14 (  0.23%)     358 (  5.81%)
    129                        17 (  0.28%)     344 (  5.59%)
    130                        33 (  0.54%)     327 (  5.31%)
    131                         5 (  0.08%)     294 (  4.78%)
    132                         6 (  0.10%)     289 (  4.69%)
    133                        26 (  0.42%)     283 (  4.60%)
    134                         8 (  0.13%)     257 (  4.17%)
    135                         2 (  0.03%)     249 (  4.04%)
    136                        12 (  0.19%)     247 (  4.01%)
    137                         2 (  0.03%)     235 (  3.82%)
    138                         9 (  0.15%)     233 (  3.78%)
    139                        17 (  0.28%)     224 (  3.64%)
    140                        17 (  0.28%)     207 (  3.36%)
    141                        13 (  0.21%)     190 (  3.09%)
    142                        21 (  0.34%)     177 (  2.87%)
    143                         6 (  0.10%)     156 (  2.53%)
    144                         5 (  0.08%)     150 (  2.44%)
    145                         2 (  0.03%)     145 (  2.36%)
    146                         4 (  0.06%)     143 (  2.32%)
    147                         0 (  0.00%)     139 (  2.26%)
    148                         3 (  0.05%)     139 (  2.26%)
    149                         2 (  0.03%)     136 (  2.21%)
    150                         2 (  0.03%)     134 (  2.18%)
    151                         0 (  0.00%)     132 (  2.14%)
    152                         0 (  0.00%)     132 (  2.14%)
    153                         6 (  0.10%)     132 (  2.14%)
    154                         0 (  0.00%)     126 (  2.05%)
    155                         6 (  0.10%)     126 (  2.05%)
    156                         2 (  0.03%)     120 (  1.95%)
    157                         2 (  0.03%)     118 (  1.92%)
    158                         1 (  0.02%)     116 (  1.88%)
    159                        19 (  0.31%)     115 (  1.87%)
    160                         2 (  0.03%)      96 (  1.56%)
    161                         1 (  0.02%)      94 (  1.53%)
    162                         0 (  0.00%)      93 (  1.51%)
    163                         2 (  0.03%)      93 (  1.51%)
    164                         5 (  0.08%)      91 (  1.48%)
    165                        15 (  0.24%)      86 (  1.40%)
    166                         2 (  0.03%)      71 (  1.15%)
    167                         9 (  0.15%)      69 (  1.12%)
    168                         0 (  0.00%)      60 (  0.97%)
    169                         0 (  0.00%)      60 (  0.97%)
    170                         0 (  0.00%)      60 (  0.97%)
    171                         2 (  0.03%)      60 (  0.97%)
    172                         6 (  0.10%)      58 (  0.94%)
    173                         7 (  0.11%)      52 (  0.84%)
    174                         0 (  0.00%)      45 (  0.73%)
    175                         0 (  0.00%)      45 (  0.73%)
    176                         1 (  0.02%)      45 (  0.73%)
    177                         0 (  0.00%)      44 (  0.71%)
    178                         0 (  0.00%)      44 (  0.71%)
    179                         0 (  0.00%)      44 (  0.71%)
    180                         0 (  0.00%)      44 (  0.71%)
    181                         0 (  0.00%)      44 (  0.71%)
    182                         0 (  0.00%)      44 (  0.71%)
    183                         1 (  0.02%)      44 (  0.71%)
    184                         2 (  0.03%)      43 (  0.70%)
    185                         1 (  0.02%)      41 (  0.67%)
    186                         5 (  0.08%)      40 (  0.65%)
    187                         2 (  0.03%)      35 (  0.57%)
    188                         0 (  0.00%)      33 (  0.54%)
    189                         2 (  0.03%)      33 (  0.54%)
    190                        10 (  0.16%)      31 (  0.50%)
    191                         0 (  0.00%)      21 (  0.34%)
    192                         0 (  0.00%)      21 (  0.34%)
    193                         0 (  0.00%)      21 (  0.34%)
    194                         0 (  0.00%)      21 (  0.34%)
    195                         0 (  0.00%)      21 (  0.34%)
    196                         0 (  0.00%)      21 (  0.34%)
    197                         0 (  0.00%)      21 (  0.34%)
    198                         0 (  0.00%)      21 (  0.34%)
    199                         2 (  0.03%)      21 (  0.34%)
    200                        10 (  0.16%)      19 (  0.31%)
    201                         0 (  0.00%)       9 (  0.15%)
    202                         0 (  0.00%)       9 (  0.15%)
    203                         0 (  0.00%)       9 (  0.15%)
    204                         2 (  0.03%)       9 (  0.15%)
    205                         0 (  0.00%)       7 (  0.11%)
    206                         0 (  0.00%)       7 (  0.11%)
    207                         0 (  0.00%)       7 (  0.11%)
    208                         0 (  0.00%)       7 (  0.11%)
    209                         0 (  0.00%)       7 (  0.11%)
    210                         0 (  0.00%)       7 (  0.11%)
    211                         0 (  0.00%)       7 (  0.11%)
    212                         2 (  0.03%)       7 (  0.11%)
    213                         0 (  0.00%)       5 (  0.08%)
    214                         0 (  0.00%)       5 (  0.08%)
    215                         0 (  0.00%)       5 (  0.08%)
    216                         0 (  0.00%)       5 (  0.08%)
    217                         0 (  0.00%)       5 (  0.08%)
    218                         0 (  0.00%)       5 (  0.08%)
    219                         0 (  0.00%)       5 (  0.08%)
    220                         0 (  0.00%)       5 (  0.08%)
    221                         0 (  0.00%)       5 (  0.08%)
    222                         0 (  0.00%)       5 (  0.08%)
    223                         0 (  0.00%)       5 (  0.08%)
    224                         0 (  0.00%)       5 (  0.08%)
    225                         0 (  0.00%)       5 (  0.08%)
    226                         1 (  0.02%)       5 (  0.08%)
    227                         0 (  0.00%)       4 (  0.06%)
    228                         0 (  0.00%)       4 (  0.06%)
    229                         0 (  0.00%)       4 (  0.06%)
    230                         0 (  0.00%)       4 (  0.06%)
    231                         0 (  0.00%)       4 (  0.06%)
    232                         0 (  0.00%)       4 (  0.06%)
    233                         0 (  0.00%)       4 (  0.06%)
    234                         0 (  0.00%)       4 (  0.06%)
    235                         0 (  0.00%)       4 (  0.06%)
    236                         0 (  0.00%)       4 (  0.06%)
    237                         2 (  0.03%)       4 (  0.06%)
    238                         0 (  0.00%)       2 (  0.03%)
    239                         0 (  0.00%)       2 (  0.03%)
    240                         2 (  0.03%)       2 (  0.03%)
    241+                        0 (  0.00%)       0 (  0.00%)
-------------------------------------------------------------
bridge_coverage_estimate                              87.36% 
-------------------------------------------------------------

