safType,netID,numDetections
0,\x[0],0
1,\x[0],0
0,\x[1],0
1,\x[1],0
0,\x[2],0
1,\x[2],0
0,\x[3],0
1,\x[3],0
0,\x[4],0
1,\x[4],0
0,\x[5],0
1,\x[5],0
0,\x[6],0
1,\x[6],0
0,\x[7],0
1,\x[7],0
0,\x[8],0
1,\x[8],0
0,\x[9],0
1,\x[9],1
0,\x[10],0
1,\x[10],1
1,g007.Y,0
0,g007.A,0
0,\x[11],0
0,g007.Y,0
1,g007.A,0
1,\x[11],0
0,\x[12],3
1,\x[12],1
1,g006.Y,2
0,g006.A,2
0,\x[13],2
0,g006.Y,1
1,g006.A,1
1,\x[13],1
1,g005.Y,10
0,g005.A,10
0,\x[14],10
0,g005.Y,16
1,g005.A,16
1,\x[14],16
0,\x[15],10
1,\x[15],5
0,\x[16],46
1,\x[16],44
1,g004.Y,67
0,g004.A,67
0,\x[17],67
0,g004.Y,84
1,g004.A,84
1,\x[17],84
0,\x[18],168
1,\x[18],178
1,g003.Y,313
0,g003.A,313
0,\x[19],313
0,g003.Y,364
1,g003.A,364
1,\x[19],364
0,\x[20],313
1,\x[20],353
0,\x[21],1658
1,\x[21],1732
1,g002.Y,1643
0,g002.A,1643
0,\x[22],1643
0,g002.Y,1732
1,g002.A,1732
1,\x[22],1732
1,g001.Y,6209
0,g001.A,6209
0,\x[23],6209
0,g001.Y,6223
1,g001.A,6223
1,\x[23],6223
0,\x[24],6209
1,\x[24],6250
0,\x[25],6209
1,\x[25],6359
0,\x[26],57453
1,\x[26],57066
1,g000.Y,69927
0,g000.A,69927
0,\x[27],69927
0,g000.Y,70366
1,g000.A,70366
1,\x[27],70366
0,\x[28],69927
1,\x[28],69674
0,\x[29],69927
1,\x[29],69556
0,\y[0],0
1,\y[0],0
0,\y[1],0
1,\y[1],0
0,\y[2],0
1,\y[2],0
0,\y[3],0
1,\y[3],0
0,\y[4],0
1,\y[4],0
0,\y[5],0
1,\y[5],0
0,\y[6],0
1,\y[6],0
0,\y[7],0
1,\y[7],0
0,\y[8],0
1,\y[8],0
0,\y[9],0
1,\y[9],0
0,\y[10],0
1,\y[10],0
0,\y[11],0
1,\y[11],0
0,\y[12],0
1,\y[12],0
1,g117.Y,0
0,g117.A,0
0,\y[13],0
0,g117.Y,0
1,g117.A,0
1,\y[13],0
0,\y[14],0
1,\y[14],0
0,\y[15],0
1,\y[15],0
0,\y[16],0
1,\y[16],0
0,\y[17],0
1,\y[17],0
0,\y[18],0
1,\y[18],0
0,\y[19],0
1,\y[19],0
0,\y[20],0
1,\y[20],0
0,\y[21],0
1,\y[21],0
1,g114.Y,0
0,g114.A,0
0,\y[22],0
0,g114.Y,0
1,g114.A,0
1,\y[22],0
0,\y[23],0
1,\y[23],0
0,\y[24],0
1,\y[24],0
0,\y[25],0
1,\y[25],0
0,\y[26],0
1,\y[26],0
0,\y[27],0
1,\y[27],0
0,\y[28],0
1,\y[28],0
0,\y[29],0
1,\y[29],0
0,g227.Y,0
1,\outport[3],1020000
1,g227.Y,1020000
0,g228.Y,0
1,\outport[4],1020000
1,g228.Y,1020000
0,g229.Y,0
1,\outport[5],1020000
1,g229.Y,1020000
0,g230.Y,0
1,\outport[6],1020000
1,g230.Y,1020000
0,g231.Y,0
1,\outport[7],1020000
1,g231.Y,1020000
0,g232.Y,0
1,\outport[8],1020000
1,g232.Y,1020000
0,g233.Y,0
1,\outport[9],1020000
1,g233.Y,1020000
0,g234.Y,0
1,\outport[10],1020000
1,g234.Y,1020000
0,g235.Y,0
1,\outport[11],1020000
1,g235.Y,1020000
0,g236.Y,0
1,\outport[12],1020000
1,g236.Y,1020000
0,g237.Y,0
1,\outport[13],1020000
1,g237.Y,1020000
0,g238.Y,0
1,\outport[14],1020000
1,g238.Y,1020000
0,g239.Y,0
1,\outport[15],1020000
1,g239.Y,1020000
0,g240.Y,0
1,\outport[16],1020000
1,g240.Y,1020000
0,g241.Y,0
1,\outport[17],1020000
1,g241.Y,1020000
0,g242.Y,0
1,\outport[18],1020000
1,g242.Y,1020000
0,g243.Y,0
1,\outport[19],1020000
1,g243.Y,1020000
0,g244.Y,0
1,\outport[20],1020000
1,g244.Y,1020000
0,g245.Y,0
1,\outport[21],1020000
1,g245.Y,1020000
0,g246.Y,0
1,\outport[22],1020000
1,g246.Y,1020000
0,g247.Y,0
1,\outport[23],1020000
1,g247.Y,1020000
0,g248.Y,0
1,\outport[24],1020000
1,g248.Y,1020000
0,g249.Y,0
1,\outport[25],1020000
1,g249.Y,1020000
0,g250.Y,0
1,\outport[26],1020000
1,g250.Y,1020000
0,g251.Y,0
1,\outport[27],1020000
1,g251.Y,1020000
0,g252.Y,0
1,\outport[28],1020000
1,g252.Y,1020000
0,g253.Y,0
1,\outport[29],1020000
1,g253.Y,1020000
0,g223.Y,0
0,g224.A0,0
0,g224.Y,0
1,g224.A0,0
1,g224.A1,0
1,g223.Y,0
0,g223.A0,0
0,g223.A1,0
0,g225.A0,0
1,g223.A0,0
1,g223.A1,0
0,g185.Y,0
1,g185.A0,0
1,g185.A1,0
0,g186.A0,0
1,g186.Y,0
1,g186.A0,0
1,g186.A1,0
1,g185.Y,0
1,g217.A1,0
0,g185.A0,0
0,g185.A1,0
0,g080.A0,0
0,g080.A1,0
0,g079.Y,0
1,g079.A0,0
1,g079.A1,0
0,g027.Y,0
1,g078.Y,0
0,g078.A0,0
0,g078.A1,0
0,g077.Y,0
1,g077.A0,0
1,g077.A1,0
1,g076.Y,0
0,g076.A0,0
0,g076.A1,0
0,g075.Y,0
1,g075.A0,0
1,g075.A1,0
0,g032.Y,0
1,g032.A,0
1,g074.Y,0
0,g074.A0,0
0,g074.A1,0
0,g073.Y,0
1,g073.A0,0
1,g073.A1,0
1,g072.Y,0
0,g072.A0,0
0,g072.A1,0
0,g071.Y,0
1,g071.A0,0
1,g071.A1,0
0,g037.Y,0
1,g037.A,0
1,g070.Y,0
0,g070.A0,0
0,g070.A1,0
0,g069.Y,0
1,g069.A0,0
1,g069.A1,0
1,g068.Y,0
0,g068.A0,0
0,g068.A1,0
0,g067.Y,0
0,g067.A0,0
0,g067.A1,0
0,g066.Y,0
1,g066.A0,0
1,g066.A1,0
0,g043.Y,0
1,g043.A,0
1,g065.Y,0
0,g065.A0,0
0,g065.A1,0
0,g064.Y,0
0,g064.A0,0
0,g064.A1,0
0,g063.Y,0
1,g063.A0,0
1,g063.A1,0
0,g047.Y,0
1,g047.A,0
1,g062.Y,0
0,g062.A0,0
0,g062.A1,0
0,g061.Y,0
0,g061.A0,0
0,g061.A1,0
0,g060.Y,0
1,g060.A0,0
1,g060.A1,0
0,g054.Y,0
0,g054.A0,0
0,g054.A1,0
1,g059.Y,0
0,g059.A0,0
0,g059.A1,0
0,g053.Y,0
0,g053.A0,0
0,g053.A1,0
0,g050.Y,0
0,g050.A0,0
0,g050.A1,0
0,g058.Y,0
0,g058.A0,0
0,g058.A1,0
0,g056.Y,0
0,g056.A0,0
0,g056.A1,0
0,g052.Y,0
0,g052.A0,0
0,g052.A1,0
0,g051.Y,0
0,g051.A0,0
0,g051.A1,0
0,g057.Y,0
1,g057.A,0
1,g082.A1,0
1,g050.Y,0
1,g054.A1,0
1,g050.A0,0
1,g050.A1,0
0,g109.A0,0
0,g109.A1,0
0,g108.Y,0
1,g108.A0,0
1,g108.A1,0
1,g107.Y,0
0,g107.A0,0
0,g107.A1,0
0,g106.Y,0
0,g106.A0,0
0,g106.A1,0
0,g105.Y,0
0,g105.A0,0
0,g105.A1,0
0,g104.Y,0
1,g104.A0,0
1,g104.A1,0
1,g103.Y,0
0,g103.A0,0
0,g103.A1,0
0,g102.Y,0
0,g102.A0,0
0,g102.A1,0
0,g101.Y,0
0,g101.A0,0
0,g101.A1,0
0,g100.Y,0
1,g100.A0,0
1,g100.A1,0
1,g099.Y,0
0,g099.A0,0
0,g099.A1,0
0,g098.Y,0
1,g098.A0,0
1,g098.A1,0
1,g097.Y,0
0,g097.A0,0
0,g097.A1,0
0,g096.Y,0
0,g096.A0,0
0,g096.A1,0
0,g095.Y,0
1,g095.A0,0
1,g095.A1,0
1,g094.Y,0
0,g094.A0,0
0,g094.A1,0
0,g093.Y,0
0,g093.A0,0
0,g093.A1,0
0,g092.Y,0
1,g092.A0,0
1,g092.A1,0
1,g091.Y,0
0,g091.A0,0
0,g091.A1,0
0,g090.Y,0
0,g090.A0,0
0,g090.A1,0
0,g087.Y,0
0,g087.A0,0
0,g087.A1,0
0,g089.Y,0
0,g089.A0,0
0,g089.A1,0
0,g086.Y,0
0,g086.A0,0
0,g086.A1,0
0,g083.Y,0
1,g083.A0,0
1,g083.A1,0
0,g088.Y,0
1,g088.A0,0
1,g088.A1,0
0,g085.Y,0
1,g085.A0,0
1,g085.A1,0
0,g084.Y,0
1,g084.A0,0
1,g084.A1,0
0,g110.A0,0
1,g083.Y,0
1,g087.A1,0
0,g083.A0,0
0,g083.A1,0
1,g051.Y,0
1,g053.A1,0
1,g051.A0,0
1,g051.A1,0
1,g084.Y,0
1,g086.A1,0
0,g084.A0,0
0,g084.A1,0
1,g052.Y,0
1,g053.A0,0
1,g052.A0,0
1,g052.A1,0
1,g085.Y,0
1,g086.A0,0
0,g085.A0,0
0,g085.A1,0
1,g056.Y,0
1,g059.A1,0
1,g056.A0,0
1,g056.A1,0
1,g088.Y,0
1,g089.A0,0
0,g088.A0,0
0,g088.A1,0
1,g089.Y,0
1,g090.A0,0
1,g089.A1,0
1,g057.Y,0
0,g057.A,0
1,g058.A0,0
0,g055.Y,0
1,g055.Y,0
0,g055.A0,0
1,g055.A0,0
0,g055.A1,0
1,g055.A1,0
0,g008.Y,1
1,g008.A0,1
1,g008.A1,1
1,g008.Y,0
0,g008.A0,0
0,g008.A1,0
0,g190.Y,0
0,g192.A1,0
1,g216.A0,0
1,g216.A1,0
1,g215.Y,0
1,g215.A0,0
1,g215.A1,0
1,g214.Y,0
1,g214.A0,0
1,g214.A1,0
1,g213.Y,0
1,g213.A0,0
1,g213.A1,0
1,g212.Y,0
1,g212.A0,0
1,g212.A1,0
1,g211.Y,0
1,g211.A0,0
1,g211.A1,0
1,g210.Y,0
1,g210.A0,0
1,g210.A1,0
1,g209.Y,0
1,g209.A0,0
1,g209.A1,0
1,g208.Y,0
1,g208.A0,0
1,g208.A1,0
1,g207.Y,0
1,g207.A0,0
1,g207.A1,0
1,g206.Y,0
1,g206.A0,0
1,g206.A1,0
1,g205.Y,0
1,g205.A0,0
1,g205.A1,0
1,g204.Y,0
1,g204.A0,0
1,g204.A1,0
1,g203.Y,0
1,g203.A0,0
1,g203.A1,0
1,g202.Y,0
1,g202.A0,0
1,g202.A1,0
1,g201.Y,0
1,g201.A0,0
1,g201.A1,0
1,g200.Y,0
1,g200.A0,0
1,g200.A1,0
1,g199.Y,0
1,g199.A0,0
1,g199.A1,0
1,g198.Y,0
1,g198.A0,0
1,g198.A1,0
1,g197.Y,0
1,g197.A0,0
1,g197.A1,0
1,g193.Y,0
1,g193.A0,0
1,g193.A1,0
1,g196.Y,0
0,g196.A0,0
0,g196.A1,0
1,g192.Y,0
1,g192.A0,0
1,g192.A1,0
1,g189.Y,0
1,g189.A0,0
1,g189.A1,0
0,g195.Y,0
1,g195.A0,0
1,g195.A1,0
1,g191.Y,0
0,g191.A0,0
0,g191.A1,0
1,g190.Y,0
0,g190.A0,0
0,g190.A1,0
1,g188.Y,0
0,g188.A0,0
0,g188.A1,0
1,g187.Y,0
0,g187.A0,0
0,g187.A1,0
1,g194.Y,0
0,g194.A,0
1,g217.A0,0
1,g190.A0,0
1,g190.A1,0
0,g183.A0,0
0,g183.A1,0
0,g182.Y,0
0,g182.A0,0
0,g182.A1,0
0,g181.Y,0
0,g181.A0,0
0,g181.A1,0
0,g180.Y,0
0,g180.A0,0
0,g180.A1,0
0,g179.Y,0
0,g179.A0,0
0,g179.A1,0
0,g178.Y,0
0,g178.A0,0
0,g178.A1,0
0,g177.Y,0
0,g177.A0,0
0,g177.A1,0
0,g176.Y,0
0,g176.A0,0
0,g176.A1,0
0,g175.Y,0
0,g175.A0,0
0,g175.A1,0
0,g174.Y,0
0,g174.A0,0
0,g174.A1,0
0,g173.Y,0
0,g173.A0,0
0,g173.A1,0
0,g172.Y,0
0,g172.A0,0
0,g172.A1,0
0,g171.Y,0
0,g171.A0,0
0,g171.A1,0
0,g170.Y,0
0,g170.A0,0
0,g170.A1,0
0,g169.Y,0
0,g169.A0,0
0,g169.A1,0
0,g168.Y,0
0,g168.A0,0
0,g168.A1,0
0,g167.Y,0
0,g167.A0,0
0,g167.A1,0
0,g166.Y,0
0,g166.A0,0
0,g166.A1,0
0,g165.Y,0
0,g165.A0,0
0,g165.A1,0
0,g164.Y,0
0,g164.A0,0
0,g164.A1,0
0,g160.Y,0
0,g160.A0,0
0,g160.A1,0
0,g163.Y,0
0,g163.A0,0
0,g163.A1,0
0,g159.Y,0
0,g159.A0,0
0,g159.A1,0
0,g156.Y,0
1,g156.A0,0
1,g156.A1,0
0,g162.Y,0
1,g162.A0,0
1,g162.A1,0
0,g158.Y,0
1,g158.A0,0
1,g158.A1,0
0,g157.Y,0
1,g157.A0,0
1,g157.A1,0
0,g184.A0,0
1,g156.Y,0
1,g160.A1,0
0,g156.A0,0
0,g156.A1,0
0,g191.Y,0
0,g192.A0,0
1,g191.A0,0
1,g191.A1,0
1,g157.Y,0
1,g159.A1,0
0,g157.A0,0
0,g157.A1,0
0,g187.Y,0
0,g189.A1,0
1,g187.A0,0
1,g187.A1,0
1,g158.Y,0
1,g159.A0,0
0,g158.A0,0
0,g158.A1,0
0,g188.Y,0
0,g189.A0,0
1,g188.A0,0
1,g188.A1,0
1,g162.Y,0
1,g163.A0,0
0,g162.A0,0
0,g162.A1,0
0,g194.Y,0
1,g194.A,0
0,g195.A1,0
1,g195.Y,0
1,g196.A0,0
0,g195.A0,0
1,g163.Y,0
1,g164.A0,0
1,g163.A1,0
0,g161.Y,0
1,g161.Y,0
0,g161.A0,0
1,g161.A0,0
0,g161.A1,0
1,g161.A1,0
0,g118.Y,0
1,g118.Y,0
1,g118.A0,0
1,g118.A1,0
0,g118.A0,0
0,g118.A1,0
0,g155.Y,0
1,g155.Y,0
0,g155.A1,0
1,g155.A1,0
0,g155.A0,0
1,g155.A0,0
0,g119.Y,0
0,g119.A1,0
0,g119.A0,0
1,g119.Y,0
1,g119.A1,0
1,g119.A0,0
0,g154.Y,0
1,g154.Y,0
0,g154.A1,0
1,g154.A1,0
0,g154.A0,0
1,g154.A0,0
0,g120.Y,0
1,g120.A1,0
1,g120.A0,0
1,g120.Y,0
0,g120.A1,0
0,g120.A0,0
0,g116.Y,0
1,g116.A,0
0,g125.A1,0
0,g125.Y,0
1,g125.A1,0
1,g125.A0,0
1,g116.Y,0
0,g116.A,0
0,g115.Y,0
1,g115.A,0
0,g127.A1,0
0,g127.Y,0
1,g127.A1,0
1,g127.A0,0
1,g115.Y,0
0,g115.A,0
0,g113.Y,0
1,g113.A,0
0,g131.A1,0
0,g131.Y,0
1,g131.A1,0
1,g131.A0,0
1,g113.Y,0
0,g113.A,0
0,g112.Y,0
1,g112.A,0
0,g135.A1,0
0,g135.Y,0
1,g135.A1,0
1,g135.A0,0
1,g112.Y,0
0,g112.A,0
1,g137.Y,0
0,g137.A0,0
0,g137.A1,0
0,g136.Y,0
0,g136.A0,0
0,g136.A1,0
1,g136.Y,0
1,g137.A0,0
1,g136.A0,0
1,g136.A1,0
0,g196.Y,0
0,g197.A0,0
1,g196.A1,0
1,g053.Y,0
1,g054.A0,0
1,g086.Y,0
1,g087.A0,0
1,g090.Y,0
1,g091.A0,0
1,g090.A1,0
1,g058.Y,0
1,g059.A0,0
1,g058.A1,0
0,g049.Y,0
1,g049.Y,0
0,g049.A1,0
1,g049.A1,0
0,g049.A0,0
1,g049.A0,0
0,g009.Y,0
1,g009.A1,0
1,g009.A0,0
1,g009.Y,1
0,g009.A1,0
0,g009.A0,1
0,g192.Y,0
0,g193.A0,0
1,g159.Y,0
1,g160.A0,0
0,g189.Y,0
0,g193.A1,0
1,g164.Y,0
1,g165.A0,0
1,g164.A1,0
0,g197.Y,0
0,g198.A0,0
0,g197.A1,0
0,g153.Y,0
1,g153.Y,0
0,g153.A1,0
1,g153.A1,0
0,g153.A0,0
1,g153.A0,0
0,g121.Y,0
1,g121.Y,0
0,g121.A1,0
0,g121.A0,0
1,g121.A1,0
1,g121.A0,0
1,g054.Y,0
1,g061.A1,0
1,g087.Y,0
1,g091.A1,0
0,g091.Y,0
0,g092.A0,0
0,g059.Y,0
0,g060.A0,0
1,g092.Y,3
1,g093.A0,3
0,g092.A1,0
0,g048.Y,0
1,g048.Y,0
0,g048.A1,0
1,g048.A1,0
0,g048.A0,0
1,g048.A0,0
0,g010.Y,1
1,g010.A1,1
1,g010.A0,1
1,g010.Y,3
0,g010.A1,3
0,g010.A0,0
0,g193.Y,0
0,g198.A1,0
1,g160.Y,0
1,g165.A1,0
1,g165.Y,0
1,g166.A0,0
0,g198.Y,0
0,g199.A0,0
0,g152.Y,0
1,g152.Y,0
0,g152.A1,0
1,g152.A1,0
0,g152.A0,0
1,g152.A0,0
0,g122.Y,0
0,g122.A1,0
0,g122.A0,0
1,g122.Y,0
1,g122.A1,0
1,g122.A0,0
1,g060.Y,0
1,g061.A0,0
0,g060.A1,0
1,g093.Y,5
1,g094.A0,5
1,g093.A1,0
0,g046.Y,0
1,g046.Y,0
0,g046.A1,0
1,g046.A1,0
0,g046.A0,0
1,g046.A0,0
0,g011.Y,1
0,g011.A1,1
0,g011.A0,1
1,g011.Y,10
1,g011.A1,2
1,g011.A0,3
1,g166.Y,0
1,g167.A0,0
1,g166.A1,0
0,g199.Y,0
0,g200.A0,0
0,g199.A1,0
0,g151.Y,0
1,g151.Y,0
0,g151.A1,0
1,g151.A1,0
0,g151.A0,0
1,g151.A0,0
0,g123.Y,0
0,g123.A1,0
0,g123.A0,0
1,g123.Y,0
1,g123.A1,0
1,g123.A0,0
1,g061.Y,1
1,g062.A0,1
0,g094.Y,12
0,g095.A0,12
1,g094.A1,0
1,g047.Y,0
0,g047.A,0
1,g064.A1,0
0,g045.Y,0
1,g045.Y,0
0,g045.A1,0
1,g045.A1,0
0,g045.A0,0
1,g045.A0,0
0,g012.Y,10
1,g012.A1,10
1,g012.A0,10
1,g012.Y,20
0,g012.A1,16
0,g012.A0,1
1,g167.Y,0
1,g168.A0,0
1,g167.A1,0
0,g200.Y,0
0,g201.A0,0
0,g200.A1,0
0,g150.Y,0
1,g150.Y,0
0,g150.A1,0
1,g150.A1,0
0,g150.A0,0
1,g150.A0,0
0,g124.Y,0
1,g124.A1,0
1,g124.A0,0
1,g124.Y,0
0,g124.A1,0
0,g124.A0,0
0,g062.Y,2
0,g063.A0,2
1,g062.A1,0
1,g095.Y,29
1,g096.A0,29
0,g095.A1,0
0,g044.Y,0
1,g044.Y,0
0,g044.A1,0
1,g044.A1,0
0,g044.A0,0
1,g044.A0,0
0,g013.Y,10
0,g013.A1,10
0,g013.A0,10
1,g013.Y,44
1,g013.A1,5
1,g013.A0,20
1,g168.Y,0
1,g169.A0,0
1,g168.A1,0
0,g201.Y,0
0,g202.A0,0
0,g201.A1,0
0,g149.Y,0
1,g149.Y,0
0,g149.A1,0
1,g149.A1,0
0,g149.A0,0
1,g149.A0,0
1,g125.Y,0
0,g125.A0,0
1,g063.Y,5
1,g064.A0,5
0,g063.A1,0
1,g096.Y,56
1,g097.A0,56
1,g096.A1,0
0,g042.Y,0
1,g042.Y,0
0,g042.A1,0
1,g042.A1,0
0,g042.A0,0
1,g042.A0,0
0,g014.Y,44
1,g014.A1,44
1,g014.A0,44
1,g014.Y,67
0,g014.A1,46
0,g014.A0,10
1,g169.Y,0
1,g170.A0,0
1,g169.A1,0
0,g202.Y,0
0,g203.A0,0
0,g202.A1,0
0,g148.Y,0
1,g148.Y,0
0,g148.A1,0
1,g148.A1,0
0,g148.A0,0
1,g148.A0,0
0,g126.Y,0
1,g126.A1,0
1,g126.A0,0
1,g126.Y,0
0,g126.A1,0
0,g126.A0,0
1,g064.Y,17
1,g065.A0,17
0,g097.Y,117
0,g098.A0,117
1,g097.A1,0
1,g043.Y,0
0,g043.A,0
1,g067.A1,0
0,g041.Y,0
1,g041.Y,0
0,g041.A1,0
1,g041.A1,0
0,g041.A0,0
1,g041.A0,0
0,g015.Y,67
1,g015.A1,67
1,g015.A0,67
1,g015.Y,178
0,g015.A1,84
0,g015.A0,44
1,g170.Y,0
1,g171.A0,0
1,g170.A1,0
0,g203.Y,0
0,g204.A0,0
0,g203.A1,0
0,g147.Y,0
1,g147.Y,0
0,g147.A1,0
1,g147.A1,0
0,g147.A0,0
1,g147.A0,0
1,g127.Y,0
0,g127.A0,0
0,g065.Y,25
0,g066.A0,25
1,g065.A1,0
1,g098.Y,235
1,g099.A0,235
0,g098.A1,0
0,g040.Y,0
1,g040.Y,0
0,g040.A1,0
1,g040.A1,0
0,g040.A0,0
1,g040.A0,0
0,g016.Y,178
1,g016.A1,178
1,g016.A0,178
1,g016.Y,313
0,g016.A1,168
0,g016.A0,67
1,g171.Y,0
1,g172.A0,0
1,g171.A1,0
0,g204.Y,0
0,g205.A0,0
0,g204.A1,0
0,g146.Y,0
1,g146.Y,0
0,g146.A1,0
1,g146.A1,0
0,g146.A0,0
1,g146.A0,0
0,g128.Y,0
0,g128.A1,0
0,g128.A0,0
1,g128.Y,0
1,g128.A1,0
1,g128.A0,0
1,g066.Y,56
1,g067.A0,56
0,g066.A1,0
0,g099.Y,498
0,g100.A0,498
1,g099.A1,0
0,g039.Y,0
1,g039.Y,0
0,g039.A1,0
1,g039.A1,0
0,g039.A0,0
1,g039.A0,0
0,g017.Y,313
1,g017.A1,313
1,g017.A0,313
1,g017.Y,719
0,g017.A1,364
0,g017.A0,178
1,g172.Y,0
1,g173.A0,0
1,g172.A1,0
0,g205.Y,0
0,g206.A0,0
0,g205.A1,0
0,g145.Y,0
1,g145.Y,0
0,g145.A1,0
1,g145.A1,0
0,g145.A0,0
1,g145.A0,0
0,g129.Y,0
1,g129.A1,0
1,g129.A0,0
1,g129.Y,0
0,g129.A1,0
0,g129.A0,0
1,g067.Y,128
1,g068.A0,128
1,g100.Y,974
1,g101.A0,974
0,g100.A1,0
0,g038.Y,0
1,g038.Y,0
0,g038.A1,0
1,g038.A1,0
0,g038.A0,0
1,g038.A0,0
0,g018.Y,313
0,g018.A1,313
0,g018.A0,313
1,g018.Y,1732
1,g018.A1,353
1,g018.A0,719
1,g173.Y,0
1,g174.A0,0
1,g173.A1,0
0,g206.Y,0
0,g207.A0,0
0,g206.A1,0
0,g144.Y,0
1,g144.Y,0
0,g144.A1,0
1,g144.A1,0
0,g144.A0,0
1,g144.A0,0
0,g130.Y,0
0,g130.A1,0
0,g130.A0,0
1,g130.Y,0
1,g130.A1,0
1,g130.A0,0
0,g068.Y,266
0,g069.A0,266
1,g068.A1,0
1,g101.Y,1971
1,g102.A0,1971
1,g101.A1,0
0,g036.Y,0
1,g036.Y,0
0,g036.A1,0
1,g036.A1,0
0,g036.A0,0
1,g036.A0,0
0,g019.Y,1732
1,g019.A1,1732
1,g019.A0,1732
1,g019.Y,2288
0,g019.A1,1658
0,g019.A0,313
1,g174.Y,0
1,g175.A0,0
1,g174.A1,0
0,g207.Y,0
0,g208.A0,0
0,g207.A1,0
0,g143.Y,0
1,g143.Y,0
0,g143.A1,0
1,g143.A1,0
0,g143.A0,0
1,g143.A0,0
1,g131.Y,0
0,g131.A0,0
1,g069.Y,542
1,g070.A0,542
0,g069.A1,0
1,g102.Y,3931
1,g103.A0,3931
1,g102.A1,0
1,g037.Y,0
0,g037.A,0
1,g072.A1,0
0,g035.Y,0
1,g035.Y,0
0,g035.A1,0
1,g035.A1,0
0,g035.A0,0
1,g035.A0,0
0,g020.Y,1732
0,g020.A1,1732
0,g020.A0,1732
1,g020.Y,6209
1,g020.A1,1643
1,g020.A0,2288
1,g175.Y,0
1,g176.A0,0
1,g175.A1,0
0,g208.Y,0
0,g209.A0,0
0,g208.A1,0
0,g142.Y,0
1,g142.Y,0
0,g142.A1,0
1,g142.A1,0
0,g142.A0,0
1,g142.A0,0
0,g132.Y,0
0,g132.A1,0
0,g132.A0,0
1,g132.Y,0
1,g132.A1,0
1,g132.A0,0
0,g070.Y,1072
0,g071.A0,1072
1,g070.A1,0
0,g103.Y,7879
0,g104.A0,7879
1,g103.A1,0
0,g034.Y,0
1,g034.Y,0
0,g034.A1,0
1,g034.A1,0
0,g034.A0,0
1,g034.A0,0
0,g021.Y,6209
1,g021.A1,6209
1,g021.A0,6209
1,g021.Y,9616
0,g021.A1,6223
0,g021.A0,1732
1,g176.Y,0
1,g177.A0,0
1,g176.A1,0
0,g209.Y,0
0,g210.A0,0
0,g209.A1,0
0,g141.Y,0
1,g141.Y,0
0,g141.A1,0
1,g141.A1,0
0,g141.A0,0
1,g141.A0,0
0,g133.Y,0
0,g133.A1,0
0,g133.A0,0
1,g133.Y,0
1,g133.A1,0
1,g133.A0,0
1,g071.Y,2044
1,g072.A0,2044
0,g071.A1,0
1,g104.Y,15891
1,g105.A0,15891
0,g104.A1,0
0,g033.Y,0
1,g033.Y,0
0,g033.A1,0
1,g033.A1,0
0,g033.A0,0
1,g033.A0,0
0,g022.Y,6209
0,g022.A1,6209
0,g022.A0,6209
1,g022.Y,25437
1,g022.A1,6250
1,g022.A0,9616
1,g177.Y,0
1,g178.A0,0
1,g177.A1,0
0,g210.Y,0
0,g211.A0,0
0,g210.A1,0
0,g140.Y,0
1,g140.Y,0
0,g140.A1,0
1,g140.A1,0
0,g140.A0,0
1,g140.A0,0
0,g134.Y,0
1,g134.A1,0
1,g134.A0,0
1,g134.Y,0
0,g134.A1,0
0,g134.A0,0
0,g072.Y,4011
0,g073.A0,4011
1,g105.Y,31736
1,g106.A0,31736
1,g105.A1,0
0,g031.Y,0
1,g031.Y,0
0,g031.A1,0
1,g031.A1,0
0,g031.A0,0
1,g031.A0,0
0,g023.Y,6209
0,g023.A1,6209
0,g023.A0,6209
1,g023.Y,57066
1,g023.A1,6359
1,g023.A0,25437
1,g178.Y,0
1,g179.A0,0
1,g178.A1,0
0,g211.Y,0
0,g212.A0,0
0,g211.A1,0
0,g139.Y,0
1,g139.Y,0
0,g139.A1,0
1,g139.A1,0
0,g139.A0,0
1,g139.A0,0
1,g135.Y,0
0,g135.A0,0
1,g073.Y,7955
1,g074.A0,7955
0,g073.A1,0
1,g106.Y,63662
1,g107.A0,63662
1,g106.A1,0
1,g032.Y,0
0,g032.A,0
1,g076.A1,0
0,g030.Y,0
1,g030.Y,0
0,g030.A1,0
1,g030.A1,0
0,g030.A0,0
1,g030.A0,0
0,g024.Y,57066
1,g024.A1,57066
1,g024.A0,57066
1,g024.Y,69927
0,g024.A1,57453
0,g024.A0,6209
1,g179.Y,0
1,g180.A0,0
1,g179.A1,0
0,g212.Y,0
0,g213.A0,0
0,g212.A1,0
0,g138.Y,0
1,g138.Y,0
0,g138.A1,0
1,g138.A1,0
0,g138.A0,0
1,g138.A0,0
0,g137.Y,0
1,g137.A1,0
0,g074.Y,15866
0,g075.A0,15866
1,g074.A1,0
0,g107.Y,69927
0,g108.A0,69927
1,g107.A1,0
0,g029.Y,0
1,g029.Y,0
0,g029.A1,0
1,g029.A1,0
0,g029.A0,0
1,g029.A0,0
0,g025.Y,69927
1,g025.A1,69927
1,g025.A0,69927
1,g025.Y,184878
0,g025.A1,70366
0,g025.A0,57066
1,g180.Y,0
1,g181.A0,0
1,g180.A1,0
0,g213.Y,0
0,g214.A0,0
0,g213.A1,0
0,g225.Y,0
1,g225.A0,0
1,g225.A1,0
1,g224.Y,0
0,g226.A0,0
0,g224.A1,0
1,g221.A0,0
1,g221.A1,0
1,g220.Y,0
0,g220.A0,0
0,g220.A1,0
1,g218.Y,0
0,g219.Y,0
1,g222.A0,0
1,g219.Y,0
0,g219.A1,0
0,g219.A0,0
1,g220.A0,0
1,g219.A1,0
1,g219.A0,0
0,g218.Y,0
1,g218.A1,0
1,g218.A0,0
1,g217.Y,0
0,g217.A0,0
0,g217.A1,0
0,g216.Y,0
0,g186.Y,0
0,g221.A1,0
0,g186.A1,0
1,g075.Y,31796
1,g076.A0,31796
0,g075.A1,0
1,g108.Y,69927
1,g109.A0,69927
0,g108.A1,0
0,g028.Y,0
1,g028.Y,0
0,g028.A1,0
1,g028.A1,0
0,g028.A0,0
1,g028.A0,0
0,g026.Y,69927
0,g026.A1,69927
0,g026.A0,69927
1,g026.Y,440559
1,g026.A1,69674
1,g026.A0,184878
1,g181.Y,0
1,g182.A0,0
1,g181.A1,0
0,g214.Y,0
0,g215.A0,0
0,g214.A1,0
0,g076.Y,63295
0,g077.A0,63295
1,g110.Y,69927
1,g110.A0,69927
1,g110.A1,69927
1,g109.Y,69927
1,g109.A1,0
0,g081.Y,950073
1,g081.Y,69927
0,g081.A1,69927
0,g081.A0,69927
1,g081.A1,69556
1,g081.A0,440559
1,g027.Y,0
1,g080.A1,0
0,g027.A1,0
1,g027.A1,0
0,g027.A0,0
1,g027.A0,0
1,g182.Y,0
1,g183.A0,0
1,g182.A1,0
0,g215.Y,0
0,g216.A0,0
0,g215.A1,0
1,g077.Y,127432
1,g078.A0,127432
0,g077.A1,0
0,g110.Y,950073
0,g110.A1,950073
0,g184.Y,0
1,g184.A0,0
1,g184.A1,0
1,g183.Y,0
1,g183.A1,0
0,g216.A1,0
0,g078.Y,254552
0,g079.A0,254552
1,g078.A1,0
1,g184.Y,0
0,g184.A1,0
0,g217.Y,0
0,g218.A0,0
1,g079.Y,510115
1,g080.A0,510115
0,g079.A1,0
0,g226.Y,0
1,g226.A0,0
1,g226.A1,0
1,g225.Y,0
0,g225.A1,0
0,g218.A1,0
1,g082.Y,950073
0,g082.A1,950073
0,g082.A0,950073
0,g080.Y,950073
0,g082.Y,0
1,g082.A0,0
0,g220.Y,65161
0,g221.A0,65161
1,g220.A1,65161
0,g111.Y,1020000
0,g111.A0,0
0,g111.A1,0
1,g111.A0,69927
1,g111.A1,950073
0,\outport[1],950073
0,g222.Y,950073
0,g222.A1,950073
0,g222.A0,950073
0,g221.Y,950073
1,\outport[2],1020000
1,g226.Y,1020000
0,g226.A1,69977
1,\outport[1],69927
1,g222.Y,69927
1,g222.A1,65111
0,\outport[0],1020000
1,g221.Y,0
