
    type    code    pin_pathname
    ----   ------   ------------------------------------
      0    DS       "/\B[0] "
//			       num_detections = 1
      1    UO       "/\B[0] "
      0    DS       "/\B[1] "
//			       num_detections = 1
      1    DS       "/\B[1] "
//			       num_detections = 2
      0    DS       "/\B[2] "
//			       num_detections = 7
      1    DS       "/\B[2] "
//			       num_detections = 3
      0    DS       "/\B[3] "
//			       num_detections = 19
      1    DS       "/\B[3] "
//			       num_detections = 10
      0    DS       "/\B[4] "
//			       num_detections = 27
      1    DS       "/\B[4] "
//			       num_detections = 31
      0    DS       "/\B[5] "
//			       num_detections = 63
      1    DS       "/\B[5] "
//			       num_detections = 57
      0    DS       "/\B[6] "
//			       num_detections = 115
      1    DS       "/\B[6] "
//			       num_detections = 120
      0    DS       "/\B[7] "
//			       num_detections = 121
      1    DS       "/\B[7] "
//			       num_detections = 112
      0    DS       "/\B[8] "
//			       num_detections = 133
      1    DS       "/\B[8] "
//			       num_detections = 122
      0    DS       "/\B[9] "
//			       num_detections = 128
      1    DS       "/\B[9] "
//			       num_detections = 127
      0    DS       "/\B[10] "
//			       num_detections = 135
      1    DS       "/\B[10] "
//			       num_detections = 120
      0    UO       /g141/Y
      1    UO       /g141/Y
      0    EQ       /g141/A0
      0    EQ       /g141/A1
      1    UO       /g141/A0
      1    UO       /g141/A1
      0    DS       /g086/Y
//                              num_detections = 1
      0    EQ       /g086/A0
//                              num_detections = 1
      0    EQ       /g086/A1
//                              num_detections = 1
      0    EQ       /g085/Y
//                              num_detections = 1
      0    EQ       /g084/Y
//                              num_detections = 1
      0    EQ       /g088/A1
//                              num_detections = 1
      1    UO       /g085/Y
      1    EQ       /g085/A0
      1    EQ       /g085/A1
      1    EQ       /g086/A0
      0    UO       /g085/A0
      0    DS       /g085/A1
//			       num_detections = 1
      0    UO       /g008/Y
      1    EQ       /g008/A
      1    DS       /g008/Y
//                              num_detections = 1
      0    EQ       /g008/A
//                              num_detections = 1
      0    DS       /g068/Y
//			       num_detections = 2
      1    UO       /g068/Y
      0    EQ       /g068/A0
      0    EQ       /g068/A1
      1    DS       /g068/A0
//			       num_detections = 1
      1    DS       /g068/A1
//			       num_detections = 1
      0    UO       /g010/Y
      0    EQ       /g010/A0
      0    EQ       /g010/A1
      0    EQ       /g009/Y
      0    EQ       /g009/A0
      0    EQ       /g009/A1
      0    EQ       /g011/A0
      1    DS       /g009/Y
//                              num_detections = 1
      1    EQ       /g010/A0
//                              num_detections = 1
      1    UO       /g009/A0
      1    DS       /g009/A1
//			       num_detections = 1
      0    DS       /g003/Y
//                              num_detections = 2
      1    EQ       /g003/A
//                              num_detections = 2
      1    DS       /g003/Y
//                              num_detections = 1
      0    EQ       /g003/A
//                              num_detections = 1
      0    DS       /g118/Y
//                              num_detections = 1
      0    EQ       /g118/A0
//                              num_detections = 1
      0    EQ       /g118/A1
//                              num_detections = 1
      1    DS       /g118/Y
//			       num_detections = 4
      1    DS       /g118/A0
//			       num_detections = 3
      1    DS       /g118/A1
//			       num_detections = 1
      0    DS       /g057/Y
//                              num_detections = 4
      0    EQ       /g057/A0
//                              num_detections = 4
      0    EQ       /g057/A1
//                              num_detections = 4
      0    EQ       /g056/Y
//                              num_detections = 4
      1    EQ       /g056/A0
//                              num_detections = 4
      1    EQ       /g056/A1
//                              num_detections = 4
      0    EQ       /g055/Y
//                              num_detections = 4
      0    EQ       /g058/A0
//                              num_detections = 4
      1    DS       /g055/Y
//                              num_detections = 3
      1    EQ       /g057/A1
//                              num_detections = 3
      0    DS       /g055/A0
//			       num_detections = 3
      1    DS       /g055/A0
//			       num_detections = 4
      0    DS       /g055/A1
//			       num_detections = 5
      1    DS       /g055/A1
//			       num_detections = 2
      0    DS       /g044/Y
//                              num_detections = 2
      0    EQ       /g044/A0
//                              num_detections = 2
      0    EQ       /g044/A1
//                              num_detections = 2
      0    EQ       /g043/Y
//                              num_detections = 2
      0    EQ       /g043/A0
//                              num_detections = 2
      0    EQ       /g043/A1
//                              num_detections = 2
      0    EQ       /g045/A0
//                              num_detections = 2
      1    UO       /g043/Y
      1    EQ       /g044/A0
      1    UO       /g043/A0
      1    UO       /g043/A1
      0    DS       /g022/Y
//                              num_detections = 1
      1    EQ       /g022/A
//                              num_detections = 1
      1    DS       /g022/Y
//                              num_detections = 1
      0    EQ       /g022/A
//                              num_detections = 1
      0    UO       /g218/Y
      0    EQ       /g218/A0
      0    EQ       /g218/A1
      1    DS       /g218/Y
//			       num_detections = 1
      1    DS       /g218/A0
//			       num_detections = 1
      1    UO       /g218/A1
      0    DS       /g198/Y
//                              num_detections = 2
      0    EQ       /g199/A0
//                              num_detections = 2
      1    UC       "/\M[3] "
      1    EQ       /g200/Y
      1    EQ       /g200/A0
      1    EQ       /g200/A1
      1    EQ       /g199/Y
      1    EQ       /g199/A0
      1    EQ       /g199/A1
      1    EQ       /g197/Y
      1    EQ       /g198/Y
      1    EQ       /g198/A0
      1    EQ       /g198/A1
      0    DS       /g198/A0
//			       num_detections = 1
      0    UO       /g198/A1
      0    DS       /g148/Y
//                              num_detections = 1
      0    EQ       /g148/A0
//                              num_detections = 1
      0    EQ       /g148/A1
//                              num_detections = 1
      0    EQ       /g147/Y
//                              num_detections = 1
      0    EQ       /g147/A0
//                              num_detections = 1
      0    EQ       /g147/A1
//                              num_detections = 1
      0    EQ       /g150/A1
//                              num_detections = 1
      1    UO       /g147/Y
      1    EQ       /g148/A0
      1    UO       /g147/A0
      1    UO       /g147/A1
      0    DS       /g027/Y
//                              num_detections = 4
      1    EQ       /g027/A
//                              num_detections = 4
      1    DS       /g027/Y
//                              num_detections = 8
      0    EQ       /g027/A
//                              num_detections = 8
      0    UO       /g005/Y
      1    EQ       /g005/A0
      1    EQ       /g005/A1
      1    DS       /g005/Y
//			       num_detections = 4
      0    DS       /g005/A0
//			       num_detections = 2
      0    DS       /g005/A1
//			       num_detections = 1
      0    UO       /g004/Y
      0    EQ       /g004/A0
      0    EQ       /g004/A1
      0    EQ       /g006/A1
      1    DS       /g006/Y
//                              num_detections = 2
      1    EQ       /g006/A0
//                              num_detections = 2
      1    EQ       /g006/A1
//                              num_detections = 2
      1    EQ       /g004/Y
//                              num_detections = 2
      1    EQ       /g007/A0
//                              num_detections = 2
      1    DS       /g004/A0
//			       num_detections = 1
      1    DS       /g004/A1
//			       num_detections = 1
      0    UO       /g202/Y
      0    EQ       /g203/A0
      1    UO       /g203/Y
      1    EQ       /g203/A0
      1    EQ       /g203/A1
      1    EQ       /g202/Y
      1    EQ       /g202/A0
      1    EQ       /g202/A1
      1    EQ       /g204/A0
      0    UO       /g202/A0
      0    UO       /g202/A1
      1    UO       /g194/Y
      0    EQ       /g194/A0
      0    EQ       /g194/A1
      0    EQ       /g193/Y
      0    EQ       /g193/A0
      0    EQ       /g193/A1
      0    EQ       /g192/Y
      0    EQ       /g192/A0
      0    EQ       /g192/A1
      1    EQ       /g197/A1
      1    DS       /g192/Y
//                              num_detections = 2
      1    EQ       /g193/A0
//                              num_detections = 2
      1    DS       /g192/A0
//			       num_detections = 2
      1    UO       /g192/A1
      0    DS       /g168/Y
//                              num_detections = 3
      0    EQ       /g168/A0
//                              num_detections = 3
      0    EQ       /g168/A1
//                              num_detections = 3
      1    DS       /g168/Y
//			       num_detections = 17
      1    DS       /g168/A0
//			       num_detections = 5
      1    DS       /g168/A1
//			       num_detections = 6
      0    DS       /g157/Y
//                              num_detections = 4
      0    EQ       /g157/A0
//                              num_detections = 4
      0    EQ       /g157/A1
//                              num_detections = 4
      1    DS       /g157/Y
//			       num_detections = 26
      1    DS       /g157/A0
//			       num_detections = 8
      1    DS       /g157/A1
//			       num_detections = 8
      0    DS       /g149/Y
//                              num_detections = 1
      0    EQ       /g149/A0
//                              num_detections = 1
      0    EQ       /g149/A1
//                              num_detections = 1
      0    EQ       /g150/A0
//                              num_detections = 1
      1    DS       /g150/Y
//                              num_detections = 1
      1    EQ       /g150/A0
//                              num_detections = 1
      1    EQ       /g150/A1
//                              num_detections = 1
      1    EQ       /g149/Y
//                              num_detections = 1
      1    EQ       /g148/Y
//                              num_detections = 1
      1    EQ       /g151/A0
//                              num_detections = 1
      1    UO       /g149/A0
      1    DS       /g149/A1
//			       num_detections = 1
      0    DS       /g002/Y
//                              num_detections = 24
      1    EQ       /g002/A
//                              num_detections = 24
      1    DS       /g002/Y
//                              num_detections = 28
      0    EQ       /g002/A
//                              num_detections = 28
      0    UO       /g236/Y
      0    EQ       /g236/A0
      0    EQ       /g236/A1
      0    EQ       /g235/Y
      0    EQ       /g235/A0
      0    EQ       /g235/A1
      0    EQ       /g237/A0
      1    DS       /g235/Y
//                              num_detections = 6
      1    EQ       /g236/A0
//                              num_detections = 6
      1    DS       /g235/A0
//			       num_detections = 1
      1    DS       /g235/A1
//			       num_detections = 1
      0    UO       /g229/Y
      0    EQ       /g229/A0
      0    EQ       /g229/A1
      0    EQ       /g228/Y
      0    EQ       /g228/A0
      0    EQ       /g228/A1
      0    EQ       /g233/A1
      1    DS       /g228/Y
//                              num_detections = 1
      1    EQ       /g229/A0
//                              num_detections = 1
      1    UO       /g228/A0
      1    UO       /g228/A1
      0    DS       /g175/Y
//                              num_detections = 4
      0    EQ       /g175/A0
//                              num_detections = 4
      0    EQ       /g175/A1
//                              num_detections = 4
      1    DS       /g175/Y
//			       num_detections = 5
      1    DS       /g175/A0
//			       num_detections = 2
      1    DS       /g175/A1
//			       num_detections = 2
      0    UO       /g140/Y
      1    EQ       /g140/A0
      1    EQ       /g140/A1
      0    EQ       /g143/A1
      1    DS       /g143/Y
//                              num_detections = 1
      1    EQ       /g143/A1
//                              num_detections = 1
      1    EQ       /g143/A0
//                              num_detections = 1
      1    EQ       /g140/Y
//                              num_detections = 1
      1    EQ       /g142/Y
//                              num_detections = 1
      1    EQ       /g144/A0
//                              num_detections = 1
      0    DS       /g140/A0
//			       num_detections = 1
      0    UO       /g140/A1
      0    DS       /g050/Y
//                              num_detections = 16
      0    EQ       /g050/A0
//                              num_detections = 16
      0    EQ       /g050/A1
//                              num_detections = 16
      1    DS       /g050/Y
//			       num_detections = 37
      1    DS       /g050/A0
//			       num_detections = 20
      1    DS       /g050/A1
//			       num_detections = 17
      0    DS       /g047/Y
//                              num_detections = 63
      1    EQ       /g047/A
//                              num_detections = 63
      1    DS       /g047/Y
//                              num_detections = 43
      0    EQ       /g047/A
//                              num_detections = 43
      0    UO       /g012/Y
      1    EQ       /g012/A0
      1    EQ       /g012/A1
      1    DS       /g012/Y
//			       num_detections = 6
      0    DS       /g012/A0
//			       num_detections = 2
      0    DS       /g012/A1
//			       num_detections = 1
      0    DS       /g181/Y
//                              num_detections = 5
      0    EQ       /g181/A0
//                              num_detections = 5
      0    EQ       /g181/A1
//                              num_detections = 5
      0    EQ       /g184/A1
//                              num_detections = 5
      1    DS       /g184/Y
//                              num_detections = 16
      1    EQ       /g184/A0
//                              num_detections = 16
      1    EQ       /g184/A1
//                              num_detections = 16
      1    EQ       /g183/Y
//                              num_detections = 16
      1    EQ       /g181/Y
//                              num_detections = 16
      1    EQ       /g185/A0
//                              num_detections = 16
      1    DS       /g181/A0
//			       num_detections = 2
      1    DS       /g181/A1
//			       num_detections = 6
      0    DS       /g061/Y
//                              num_detections = 10
      0    EQ       /g061/A0
//                              num_detections = 10
      0    EQ       /g061/A1
//                              num_detections = 10
      0    EQ       /g060/Y
//                              num_detections = 10
      0    EQ       /g060/A0
//                              num_detections = 10
      0    EQ       /g060/A1
//                              num_detections = 10
      0    EQ       /g062/A0
//                              num_detections = 10
      1    DS       /g060/Y
//                              num_detections = 17
      1    EQ       /g061/A0
//                              num_detections = 17
      1    DS       /g060/A0
//			       num_detections = 5
      1    DS       /g060/A1
//			       num_detections = 6
      1    DS       /g056/Y
//                              num_detections = 7
      1    EQ       /g057/A0
//                              num_detections = 7
      0    DS       /g056/A0
//			       num_detections = 3
      0    DS       /g056/A1
//			       num_detections = 2
      0    DS       /g042/Y
//                              num_detections = 9
      1    EQ       /g042/A0
//                              num_detections = 9
      1    EQ       /g042/A1
//                              num_detections = 9
      1    DS       /g042/Y
//			       num_detections = 47
      0    DS       /g042/A0
//			       num_detections = 13
      0    DS       /g042/A1
//			       num_detections = 19
      0    DS       /g017/Y
//                              num_detections = 55
      1    EQ       /g017/A
//                              num_detections = 55
      1    DS       /g017/Y
//                              num_detections = 36
      0    EQ       /g017/A
//                              num_detections = 36
      0    DS       /g014/Y
//                              num_detections = 3
      0    EQ       /g014/A0
//                              num_detections = 3
      0    EQ       /g014/A1
//                              num_detections = 3
      1    DS       /g014/Y
//			       num_detections = 15
      1    DS       /g014/A0
//			       num_detections = 4
      1    DS       /g014/A1
//			       num_detections = 8
      0    DS       /g243/Y
//                              num_detections = 58
      1    EQ       /g243/A0
//                              num_detections = 58
      1    EQ       /g243/A1
//                              num_detections = 58
      1    DS       /g243/Y
//			       num_detections = 194
      0    DS       /g243/A0
//			       num_detections = 68
      0    DS       /g243/A1
//			       num_detections = 62
      0    DS       /g110/Y
//			       num_detections = 3
      1    DS       /g110/Y
//                              num_detections = 2
      1    EQ       /g110/A0
//                              num_detections = 2
      1    EQ       /g110/A1
//                              num_detections = 2
      0    DS       /g110/A0
//			       num_detections = 2
      0    DS       /g110/A1
//			       num_detections = 1
      0    DS       /g091/Y
//                              num_detections = 7
      0    EQ       /g091/A0
//                              num_detections = 7
      0    EQ       /g091/A1
//                              num_detections = 7
      0    EQ       /g090/Y
//                              num_detections = 7
      0    EQ       /g089/Y
//                              num_detections = 7
      0    EQ       /g092/A0
//                              num_detections = 7
      1    UO       /g089/Y
      1    EQ       /g089/A0
      1    EQ       /g089/A1
      1    EQ       /g091/A1
      0    DS       /g089/A0
//			       num_detections = 2
      0    DS       /g089/A1
//			       num_detections = 1
      0    DS       /g080/Y
//                              num_detections = 22
      0    EQ       /g080/A0
//                              num_detections = 22
      0    EQ       /g080/A1
//                              num_detections = 22
      0    EQ       /g079/Y
//                              num_detections = 22
      0    EQ       /g078/Y
//                              num_detections = 22
      0    EQ       /g081/A0
//                              num_detections = 22
      1    DS       /g079/Y
//                              num_detections = 8
      0    EQ       /g079/A0
//                              num_detections = 8
      0    EQ       /g079/A1
//                              num_detections = 8
      1    EQ       /g080/A0
//                              num_detections = 8
      1    DS       /g079/A0
//			       num_detections = 9
      1    DS       /g079/A1
//			       num_detections = 8
      0    DS       /g077/Y
//			       num_detections = 46
      1    DS       /g077/Y
//                              num_detections = 13
      1    EQ       /g077/A0
//                              num_detections = 13
      1    EQ       /g077/A1
//                              num_detections = 13
      0    DS       /g077/A0
//			       num_detections = 18
      0    DS       /g077/A1
//			       num_detections = 13
      0    DS       /g051/Y
//                              num_detections = 13
      0    EQ       /g051/A0
//                              num_detections = 13
      0    EQ       /g051/A1
//                              num_detections = 13
      0    EQ       /g052/A0
//                              num_detections = 13
      1    DS       /g053/Y
//                              num_detections = 65
      1    EQ       /g053/A1
//                              num_detections = 65
      1    EQ       /g053/A0
//                              num_detections = 65
      1    EQ       /g036/Y
//                              num_detections = 65
      1    EQ       /g052/Y
//                              num_detections = 65
      1    EQ       /g052/A0
//                              num_detections = 65
      1    EQ       /g052/A1
//                              num_detections = 65
      1    EQ       /g051/Y
//                              num_detections = 65
      1    EQ       /g049/Y
//                              num_detections = 65
      1    EQ       /g054/A0
//                              num_detections = 65
      1    DS       /g051/A0
//			       num_detections = 35
      1    DS       /g051/A1
//			       num_detections = 6
      0    DS       /g001/Y
//                              num_detections = 54
      1    EQ       /g001/A
//                              num_detections = 54
      1    DS       /g001/Y
//                              num_detections = 53
      0    EQ       /g001/A
//                              num_detections = 53
      0    DS       /g199/Y
//                              num_detections = 12
      0    EQ       /g200/A0
//                              num_detections = 12
      0    DS       /g199/A1
//			       num_detections = 3
      0    DS       /g064/Y
//                              num_detections = 34
      0    EQ       /g064/A0
//                              num_detections = 34
      0    EQ       /g064/A1
//                              num_detections = 34
      1    DS       /g064/Y
//			       num_detections = 78
      1    DS       /g064/A0
//			       num_detections = 29
      1    DS       /g064/A1
//			       num_detections = 17
      1    DS       /g062/Y
//                              num_detections = 47
      1    EQ       /g062/A0
//                              num_detections = 47
      1    EQ       /g062/A1
//                              num_detections = 47
      1    EQ       /g061/Y
//                              num_detections = 47
      1    EQ       /g059/Y
//                              num_detections = 47
      1    EQ       /g063/A0
//                              num_detections = 47
      1    DS       /g061/A1
//			       num_detections = 6
      0    DS       /g000/Y
//                              num_detections = 78
      1    EQ       /g000/A
//                              num_detections = 78
      1    DS       /g000/Y
//                              num_detections = 53
      0    EQ       /g000/A
//                              num_detections = 53
      0    DS       /g204/Y
//                              num_detections = 1
      0    EQ       /g204/A0
//                              num_detections = 1
      0    EQ       /g204/A1
//                              num_detections = 1
      0    EQ       /g203/Y
//                              num_detections = 1
      0    EQ       /g201/Y
//                              num_detections = 1
      0    EQ       /g205/A0
//                              num_detections = 1
      0    UO       /g203/A1
      1    UO       /g084/Y
      1    EQ       /g084/A1
      1    EQ       /g084/A0
      1    EQ       /g086/A1
      0    UO       /g084/A1
      0    DS       /g084/A0
//			       num_detections = 1
      1    DS       /g011/Y
//                              num_detections = 3
      1    EQ       /g011/A0
//                              num_detections = 3
      1    EQ       /g011/A1
//                              num_detections = 3
      1    EQ       /g010/Y
//                              num_detections = 3
      1    EQ       /g007/Y
//                              num_detections = 3
      1    EQ       /g013/A1
//                              num_detections = 3
      1    UO       /g010/A1
      0    DS       /g240/Y
//                              num_detections = 5
      0    EQ       /g240/A0
//                              num_detections = 5
      0    EQ       /g240/A1
//                              num_detections = 5
      0    EQ       /g239/Y
//                              num_detections = 5
      0    EQ       /g241/A0
//                              num_detections = 5
      1    DS       /g239/Y
//                              num_detections = 1
      0    EQ       /g239/A0
//                              num_detections = 1
      0    EQ       /g239/A1
//                              num_detections = 1
      1    EQ       /g240/A0
//                              num_detections = 1
      1    DS       /g239/A0
//			       num_detections = 1
      1    DS       /g239/A1
//			       num_detections = 3
      0    DS       /g119/Y
//                              num_detections = 4
      1    EQ       /g119/A
//                              num_detections = 4
      1    DS       /g119/Y
//                              num_detections = 1
      0    EQ       /g119/A
//                              num_detections = 1
      1    DS       /g058/Y
//                              num_detections = 16
      1    EQ       /g058/A0
//                              num_detections = 16
      1    EQ       /g058/A1
//                              num_detections = 16
      1    EQ       /g057/Y
//                              num_detections = 16
      1    EQ       /g059/A0
//                              num_detections = 16
      1    DS       /g046/Y
//                              num_detections = 7
      1    EQ       /g046/A0
//                              num_detections = 7
      1    EQ       /g046/A1
//                              num_detections = 7
      1    EQ       /g045/Y
//                              num_detections = 7
      1    EQ       /g045/A0
//                              num_detections = 7
      1    EQ       /g045/A1
//                              num_detections = 7
      1    EQ       /g041/Y
//                              num_detections = 7
      1    EQ       /g044/Y
//                              num_detections = 7
      1    EQ       /g049/A1
//                              num_detections = 7
      1    DS       /g044/A1
//			       num_detections = 1
      0    UO       /g023/Y
      0    EQ       /g023/A1
      0    EQ       /g023/A0
      1    DS       /g023/Y
//			       num_detections = 1
      1    UO       /g023/A1
      1    DS       /g023/A0
//			       num_detections = 1
      1    UO       /g148/A1
      0    UO       /g217/Y
      0    EQ       /g217/A1
      0    EQ       /g217/A0
      0    EQ       /g219/A1
      0    DS       /g219/Y
//                              num_detections = 1
      1    EQ       /g219/A0
//                              num_detections = 1
      1    EQ       /g219/A1
//                              num_detections = 1
      1    EQ       /g217/Y
//                              num_detections = 1
      0    EQ       /g222/A1
//                              num_detections = 1
      1    UO       /g217/A1
      1    UO       /g217/A0
      0    UO       /g135/Y
      0    EQ       /g135/A1
      0    EQ       /g135/A0
      0    EQ       /g133/Y
      0    EQ       /g133/A1
      0    EQ       /g133/A0
      0    EQ       /g134/Y
      0    EQ       /g134/A0
      0    EQ       /g134/A1
      0    EQ       /g138/A1
      1    UO       /g133/Y
      1    EQ       /g135/A1
      1    UO       /g133/A1
      1    UO       /g133/A0
      0    DS       /g029/Y
//                              num_detections = 1
      0    EQ       /g029/A0
//                              num_detections = 1
      0    EQ       /g029/A1
//                              num_detections = 1
      0    EQ       /g028/Y
//                              num_detections = 1
      0    EQ       /g028/A0
//                              num_detections = 1
      0    EQ       /g028/A1
//                              num_detections = 1
      0    EQ       /g030/A0
//                              num_detections = 1
      1    DS       /g028/Y
//                              num_detections = 11
      1    EQ       /g029/A0
//                              num_detections = 11
      1    DS       /g028/A0
//			       num_detections = 4
      1    DS       /g028/A1
//			       num_detections = 7
      1    UO       /g134/Y
      1    EQ       /g135/A0
      1    UO       /g134/A0
      1    UO       /g134/A1
      0    DS       /g111/Y
//                              num_detections = 2
      1    EQ       /g111/A0
//                              num_detections = 2
      1    EQ       /g111/A1
//                              num_detections = 2
      1    DS       /g111/Y
//			       num_detections = 8
      0    DS       /g111/A0
//			       num_detections = 2
      0    DS       /g111/A1
//			       num_detections = 3
      0    DS       /g105/Y
//                              num_detections = 26
      0    EQ       /g105/A0
//                              num_detections = 26
      0    EQ       /g105/A1
//                              num_detections = 26
      0    EQ       /g104/Y
//                              num_detections = 26
      0    EQ       /g106/A0
//                              num_detections = 26
      1    DS       /g104/Y
//                              num_detections = 3
      1    EQ       /g104/A0
//                              num_detections = 3
      1    EQ       /g104/A1
//                              num_detections = 3
      1    EQ       /g105/A0
//                              num_detections = 3
      0    DS       /g104/A0
//			       num_detections = 8
      0    DS       /g104/A1
//			       num_detections = 3
      0    DS       /g096/Y
//                              num_detections = 6
      0    EQ       /g096/A1
//                              num_detections = 6
      0    EQ       /g096/A0
//                              num_detections = 6
      1    DS       /g096/Y
//			       num_detections = 9
      1    DS       /g096/A1
//			       num_detections = 4
      1    DS       /g096/A0
//			       num_detections = 3
      0    UO       /g039/Y
      1    EQ       /g039/A0
      1    EQ       /g039/A1
      0    EQ       /g040/A0
      1    DS       /g040/Y
//                              num_detections = 3
      1    EQ       /g040/A1
//                              num_detections = 3
      1    EQ       /g040/A0
//                              num_detections = 3
      1    EQ       /g038/Y
//                              num_detections = 3
      1    EQ       /g039/Y
//                              num_detections = 3
      1    EQ       /g041/A0
//                              num_detections = 3
      0    UO       /g039/A0
      0    DS       /g039/A1
//			       num_detections = 1
      0    DS       /g018/Y
//                              num_detections = 17
      1    EQ       /g018/A
//                              num_detections = 17
      1    DS       /g018/Y
//                              num_detections = 15
      0    EQ       /g018/A
//                              num_detections = 15
      1    UO       /g196/Y
      0    EQ       /g196/A0
      0    EQ       /g196/A1
      0    EQ       /g195/Y
      0    EQ       /g195/A0
      0    EQ       /g195/A1
      1    EQ       /g197/A0
      1    DS       /g195/Y
//                              num_detections = 4
      1    EQ       /g196/A0
//                              num_detections = 4
      1    DS       /g195/A0
//			       num_detections = 3
      1    UO       /g195/A1
      0    UO       /g007/Y
      0    EQ       /g007/A1
      0    EQ       /g007/A0
      0    EQ       /g006/Y
      0    EQ       /g011/A1
      0    UO       /g006/A0
      0    DS       /g170/Y
//                              num_detections = 9
      1    EQ       /g170/A
//                              num_detections = 9
      1    DS       /g170/Y
//                              num_detections = 1
      0    EQ       /g170/A
//                              num_detections = 1
      0    DS       /g223/Y
//                              num_detections = 2
      0    EQ       /g223/A0
//                              num_detections = 2
      0    EQ       /g223/A1
//                              num_detections = 2
      0    EQ       /g224/A0
//                              num_detections = 2
      1    DS       /g224/Y
//                              num_detections = 24
      1    EQ       /g224/A0
//                              num_detections = 24
      1    EQ       /g224/A1
//                              num_detections = 24
      1    EQ       /g223/Y
//                              num_detections = 24
      1    EQ       /g225/A0
//                              num_detections = 24
      1    DS       /g223/A0
//			       num_detections = 12
      1    DS       /g223/A1
//			       num_detections = 4
      0    DS       /g158/Y
//                              num_detections = 9
      1    EQ       /g158/A
//                              num_detections = 9
      1    DS       /g158/Y
//                              num_detections = 1
      0    EQ       /g158/A
//                              num_detections = 1
      0    DS       /g151/Y
//                              num_detections = 2
      0    EQ       /g151/A0
//                              num_detections = 2
      0    EQ       /g151/A1
//                              num_detections = 2
      0    EQ       /g150/Y
//                              num_detections = 2
      0    EQ       /g152/A0
//                              num_detections = 2
      0    UO       /g232/Y
      1    EQ       /g232/A0
      1    EQ       /g232/A1
      1    EQ       /g231/Y
      0    EQ       /g231/A0
      0    EQ       /g231/A1
      0    EQ       /g230/Y
      0    EQ       /g230/A1
      0    EQ       /g230/A0
      0    EQ       /g233/A0
      1    UO       /g230/Y
      1    EQ       /g231/A0
      1    UO       /g230/A1
      1    UO       /g230/A0
      0    UO       /g154/Y
      0    EQ       /g154/A0
      0    EQ       /g154/A1
      0    EQ       /g155/A0
      1    DS       /g155/Y
//                              num_detections = 3
      1    EQ       /g155/A0
//                              num_detections = 3
      1    EQ       /g155/A1
//                              num_detections = 3
      1    EQ       /g154/Y
//                              num_detections = 3
      1    EQ       /g156/A0
//                              num_detections = 3
      1    DS       /g154/A0
//			       num_detections = 1
      1    UO       /g154/A1
      0    DS       /g163/Y
//                              num_detections = 14
      0    EQ       /g163/A0
//                              num_detections = 14
      0    EQ       /g163/A1
//                              num_detections = 14
      1    DS       /g163/Y
//			       num_detections = 14
      1    DS       /g163/A0
//			       num_detections = 6
      1    DS       /g163/A1
//			       num_detections = 3
      0    DS       /g048/Y
//                              num_detections = 16
      0    EQ       /g048/A1
//                              num_detections = 16
      0    EQ       /g048/A0
//                              num_detections = 16
      1    DS       /g048/Y
//			       num_detections = 43
      1    DS       /g048/A1
//			       num_detections = 21
      1    DS       /g048/A0
//			       num_detections = 20
      0    DS       /g197/Y
//                              num_detections = 26
      0    EQ       /g197/A0
//                              num_detections = 26
      0    EQ       /g197/A1
//                              num_detections = 26
      0    EQ       /g196/Y
//                              num_detections = 26
      0    EQ       /g194/Y
//                              num_detections = 26
      0    EQ       /g200/A1
//                              num_detections = 26
      1    DS       /g196/A1
//			       num_detections = 2
      0    DS       /g071/Y
//                              num_detections = 3
      0    EQ       /g071/A0
//                              num_detections = 3
      0    EQ       /g071/A1
//                              num_detections = 3
      0    EQ       /g070/Y
//                              num_detections = 3
      0    EQ       /g069/Y
//                              num_detections = 3
      0    EQ       /g072/A0
//                              num_detections = 3
      1    UO       /g070/Y
      0    EQ       /g070/A0
      0    EQ       /g070/A1
      1    EQ       /g071/A0
      1    DS       /g070/A0
//			       num_detections = 1
      1    UO       /g070/A1
      0    DS       /g206/Y
//                              num_detections = 4
      1    EQ       /g206/A0
//                              num_detections = 4
      1    EQ       /g206/A1
//                              num_detections = 4
      0    EQ       /g207/A0
//                              num_detections = 4
      1    UO       /g207/Y
      1    EQ       /g207/A1
      1    EQ       /g207/A0
      1    EQ       /g206/Y
      1    EQ       /g214/A1
      0    UO       /g206/A0
      0    UO       /g206/A1
      0    DS       /g186/Y
//                              num_detections = 2
      0    EQ       /g186/A1
//                              num_detections = 2
      0    EQ       /g186/A0
//                              num_detections = 2
      1    DS       /g186/Y
//			       num_detections = 16
      1    DS       /g186/A1
//			       num_detections = 3
      1    DS       /g186/A0
//			       num_detections = 6
      0    DS       /g128/Y
//                              num_detections = 20
      0    EQ       /g128/A1
//                              num_detections = 20
      0    EQ       /g128/A0
//                              num_detections = 20
      1    DS       /g128/Y
//			       num_detections = 75
      1    DS       /g128/A1
//			       num_detections = 19
      1    DS       /g128/A0
//			       num_detections = 33
      0    DS       /g100/Y
//			       num_detections = 44
      1    DS       /g100/Y
//                              num_detections = 11
      1    EQ       /g100/A0
//                              num_detections = 11
      1    EQ       /g100/A1
//                              num_detections = 11
      0    DS       /g100/A0
//			       num_detections = 6
      0    DS       /g100/A1
//			       num_detections = 28
      1    UO       /g090/Y
      1    EQ       /g090/A1
      1    EQ       /g090/A0
      1    EQ       /g091/A0
      0    UO       /g090/A1
      0    DS       /g090/A0
//			       num_detections = 3
      0    DS       /g087/Y
//			       num_detections = 3
      1    DS       /g087/Y
//                              num_detections = 1
      1    EQ       /g087/A0
//                              num_detections = 1
      1    EQ       /g087/A1
//                              num_detections = 1
      0    DS       /g087/A0
//			       num_detections = 3
      0    UO       /g087/A1
      0    DS       /g065/Y
//                              num_detections = 34
      0    EQ       /g065/A0
//                              num_detections = 34
      0    EQ       /g065/A1
//                              num_detections = 34
      0    EQ       /g066/A0
//                              num_detections = 34
      1    DS       "/\M[0] "
//                              num_detections = 118
      1    EQ       /g067/Y
//                              num_detections = 118
      1    EQ       /g067/A1
//                              num_detections = 118
      1    EQ       /g067/A0
//                              num_detections = 118
      1    EQ       /g054/Y
//                              num_detections = 118
      1    EQ       /g066/Y
//                              num_detections = 118
      1    EQ       /g066/A0
//                              num_detections = 118
      1    EQ       /g066/A1
//                              num_detections = 118
      1    EQ       /g065/Y
//                              num_detections = 118
      1    EQ       /g063/Y
//                              num_detections = 118
      1    DS       /g065/A0
//			       num_detections = 54
      1    DS       /g065/A1
//			       num_detections = 36
      1    DS       /g030/Y
//                              num_detections = 15
      1    EQ       /g030/A1
//                              num_detections = 15
      1    EQ       /g030/A0
//                              num_detections = 15
      1    EQ       /g026/Y
//                              num_detections = 15
      1    EQ       /g029/Y
//                              num_detections = 15
      1    EQ       /g031/A0
//                              num_detections = 15
      1    UO       /g029/A1
      0    DS       /g020/Y
//                              num_detections = 39
      1    EQ       /g020/A
//                              num_detections = 39
      1    DS       /g020/Y
//                              num_detections = 34
      0    EQ       /g020/A
//                              num_detections = 34
      0    DS       /g019/Y
//                              num_detections = 7
      0    EQ       /g019/A0
//                              num_detections = 7
      0    EQ       /g019/A1
//                              num_detections = 7
      0    EQ       /g025/A1
//                              num_detections = 7
      1    DS       /g025/Y
//                              num_detections = 10
      1    EQ       /g025/A0
//                              num_detections = 10
      1    EQ       /g025/A1
//                              num_detections = 10
      1    EQ       /g024/Y
//                              num_detections = 10
      1    EQ       /g019/Y
//                              num_detections = 10
      1    EQ       /g026/A0
//                              num_detections = 10
      1    DS       /g019/A0
//			       num_detections = 1
      1    DS       /g019/A1
//			       num_detections = 7
      0    DS       /g248/Y
//                              num_detections = 242
      0    EQ       /g249/A0
//                              num_detections = 242
      1    DS       "/\E[2] "
//                              num_detections = 9
      1    EQ       /g249/Y
//                              num_detections = 9
      1    EQ       /g249/A0
//                              num_detections = 9
      1    EQ       /g249/A1
//                              num_detections = 9
      1    EQ       /g248/Y
//                              num_detections = 9
      0    EQ       /g248/A0
//                              num_detections = 9
      0    EQ       /g248/A1
//                              num_detections = 9
      1    EQ       /g247/Y
//                              num_detections = 9
      1    DS       /g248/A0
//			       num_detections = 42
      1    DS       /g248/A1
//			       num_detections = 47
      0    DS       /g231/Y
//                              num_detections = 3
      0    EQ       /g232/A0
//                              num_detections = 3
      1    UO       /g231/A1
      0    DS       /g187/Y
//                              num_detections = 13
      1    EQ       /g187/A0
//                              num_detections = 13
      1    EQ       /g187/A1
//                              num_detections = 13
      0    EQ       /g188/A0
//                              num_detections = 13
      1    DS       /g188/Y
//                              num_detections = 32
      1    EQ       /g188/A1
//                              num_detections = 32
      1    EQ       /g188/A0
//                              num_detections = 32
      1    EQ       /g187/Y
//                              num_detections = 32
      1    EQ       /g189/A0
//                              num_detections = 32
      0    DS       /g187/A0
//			       num_detections = 2
      0    DS       /g187/A1
//			       num_detections = 27
      0    DS       /g183/Y
//                              num_detections = 6
      0    EQ       /g183/A0
//                              num_detections = 6
      0    EQ       /g183/A1
//                              num_detections = 6
      0    EQ       /g182/Y
//                              num_detections = 6
      0    EQ       /g182/A1
//                              num_detections = 6
      0    EQ       /g182/A0
//                              num_detections = 6
      0    EQ       /g184/A0
//                              num_detections = 6
      1    DS       /g182/Y
//                              num_detections = 9
      1    EQ       /g183/A0
//                              num_detections = 9
      1    DS       /g182/A1
//			       num_detections = 7
      1    DS       /g182/A0
//			       num_detections = 2
      0    DS       /g120/Y
//                              num_detections = 2
      0    EQ       /g121/A0
//                              num_detections = 2
      1    UO       /g121/Y
      1    EQ       /g121/A1
      1    EQ       /g121/A0
      1    EQ       /g120/Y
      1    EQ       /g120/A0
      1    EQ       /g120/A1
      1    EQ       /g122/A0
      0    DS       /g120/A0
//			       num_detections = 1
      0    DS       /g120/A1
//			       num_detections = 1
      1    UO       /g092/Y
      1    EQ       /g092/A1
      1    EQ       /g092/A0
      1    EQ       /g091/Y
      1    EQ       /g093/A0
      1    DS       /g078/Y
//                              num_detections = 4
      1    EQ       /g078/A0
//                              num_detections = 4
      1    EQ       /g078/A1
//                              num_detections = 4
      1    EQ       /g080/A1
//                              num_detections = 4
      0    DS       /g078/A0
//			       num_detections = 7
      0    DS       /g078/A1
//			       num_detections = 6
      0    DS       /g226/Y
//                              num_detections = 39
      0    EQ       /g226/A1
//                              num_detections = 39
      0    EQ       /g226/A0
//                              num_detections = 39
      0    EQ       /g216/Y
//                              num_detections = 39
      0    EQ       /g225/Y
//                              num_detections = 39
      0    EQ       /g225/A0
//                              num_detections = 39
      0    EQ       /g225/A1
//                              num_detections = 39
      0    EQ       /g224/Y
//                              num_detections = 39
      0    EQ       /g222/Y
//                              num_detections = 39
      0    EQ       /g227/A0
//                              num_detections = 39
      0    DS       /g224/A1
//			       num_detections = 32
      0    DS       /g220/Y
//                              num_detections = 8
      0    EQ       /g221/A0
//                              num_detections = 8
      1    UO       /g222/Y
      1    EQ       /g222/A0
      1    EQ       /g222/A1
      1    EQ       /g221/Y
      1    EQ       /g221/A0
      1    EQ       /g221/A1
      1    EQ       /g219/Y
      1    EQ       /g220/Y
      0    EQ       /g220/A0
      0    EQ       /g220/A1
      1    EQ       /g225/A1
      1    DS       /g220/A0
//			       num_detections = 8
      1    UO       /g220/A1
      1    UO       /g088/Y
      1    EQ       /g088/A0
      1    EQ       /g088/A1
      1    EQ       /g086/Y
      1    EQ       /g094/A1
      1    DS       /g241/Y
//                              num_detections = 2
      1    EQ       /g241/A0
//                              num_detections = 2
      1    EQ       /g241/A1
//                              num_detections = 2
      1    EQ       /g240/Y
//                              num_detections = 2
      1    EQ       /g242/A0
//                              num_detections = 2
      1    DS       /g240/A1
//			       num_detections = 1
      0    DS       /g124/Y
//                              num_detections = 10
      0    EQ       /g124/A0
//                              num_detections = 10
      0    EQ       /g124/A1
//                              num_detections = 10
      0    EQ       /g123/Y
//                              num_detections = 10
      0    EQ       /g123/A0
//                              num_detections = 10
      0    EQ       /g123/A1
//                              num_detections = 10
      0    EQ       /g114/Y
//                              num_detections = 10
      0    EQ       /g122/Y
//                              num_detections = 10
      0    EQ       /g122/A0
//                              num_detections = 10
      0    EQ       /g122/A1
//                              num_detections = 10
      0    EQ       /g117/Y
//                              num_detections = 10
      0    EQ       /g121/Y
//                              num_detections = 10
      0    EQ       /g125/A0
//                              num_detections = 10
      0    DS       /g121/A1
//			       num_detections = 3
      0    DS       /g059/Y
//                              num_detections = 30
      0    EQ       /g059/A0
//                              num_detections = 30
      0    EQ       /g059/A1
//                              num_detections = 30
      0    EQ       /g058/Y
//                              num_detections = 30
      0    EQ       /g062/A1
//                              num_detections = 30
      0    DS       /g058/A1
//			       num_detections = 22
      0    DS       /g045/Y
//                              num_detections = 15
      0    EQ       /g046/A0
//                              num_detections = 15
      0    DS       /g045/A1
//			       num_detections = 12
      0    UO       /g219/A0
      1    DS       /g138/Y
//                              num_detections = 2
      1    EQ       /g138/A0
//                              num_detections = 2
      1    EQ       /g138/A1
//                              num_detections = 2
      1    EQ       /g137/Y
//                              num_detections = 2
      1    EQ       /g135/Y
//                              num_detections = 2
      1    EQ       /g139/A0
//                              num_detections = 2
      1    DS       /g106/Y
//                              num_detections = 7
      1    EQ       /g106/A1
//                              num_detections = 7
      1    EQ       /g106/A0
//                              num_detections = 7
      1    EQ       /g105/Y
//                              num_detections = 7
      1    EQ       /g107/A0
//                              num_detections = 7
      1    DS       /g105/A1
//			       num_detections = 4
      0    DS       /g247/Y
//                              num_detections = 1
      0    EQ       /g247/A0
//                              num_detections = 1
      0    EQ       /g247/A1
//                              num_detections = 1
      0    EQ       /g246/Y
//                              num_detections = 1
      0    EQ       /g246/A1
//                              num_detections = 1
      0    EQ       /g246/A0
//                              num_detections = 1
      0    EQ       /g249/A1
//                              num_detections = 1
      1    DS       /g246/Y
//                              num_detections = 3
      1    EQ       /g247/A0
//                              num_detections = 3
      1    UO       /g246/A1
      1    DS       /g246/A0
//			       num_detections = 3
      0    UO       /g159/Y
      1    EQ       /g159/A0
      1    EQ       /g159/A1
      0    EQ       /g160/A0
      1    DS       /g161/Y
//                              num_detections = 12
      1    EQ       /g161/A1
//                              num_detections = 12
      1    EQ       /g161/A0
//                              num_detections = 12
      1    EQ       /g153/Y
//                              num_detections = 12
      1    EQ       /g160/Y
//                              num_detections = 12
      1    EQ       /g160/A0
//                              num_detections = 12
      1    EQ       /g160/A1
//                              num_detections = 12
      1    EQ       /g159/Y
//                              num_detections = 12
      1    EQ       /g156/Y
//                              num_detections = 12
      1    EQ       /g162/A0
//                              num_detections = 12
      0    DS       /g159/A0
//			       num_detections = 9
      0    DS       /g159/A1
//			       num_detections = 2
      0    UO       /g142/Y
      0    EQ       /g142/A0
      0    EQ       /g142/A1
      0    EQ       /g143/A0
      1    UO       /g142/A0
      1    DS       /g142/A1
//			       num_detections = 1
      0    UO       /g137/Y
      0    EQ       /g137/A0
      0    EQ       /g137/A1
      0    EQ       /g136/Y
      0    EQ       /g136/A1
      0    EQ       /g136/A0
      0    EQ       /g138/A0
      1    DS       /g136/Y
//                              num_detections = 1
      1    EQ       /g137/A0
//                              num_detections = 1
      1    UO       /g136/A1
      1    DS       /g136/A0
//			       num_detections = 1
      0    DS       /g037/Y
//			       num_detections = 8
      1    DS       /g037/Y
//                              num_detections = 4
      1    EQ       /g037/A0
//                              num_detections = 4
      1    EQ       /g037/A1
//                              num_detections = 4
      0    DS       /g037/A0
//			       num_detections = 2
      0    DS       /g037/A1
//			       num_detections = 4
      0    DS       /g033/Y
//                              num_detections = 9
      0    EQ       /g033/A0
//                              num_detections = 9
      0    EQ       /g033/A1
//                              num_detections = 9
      0    EQ       /g032/Y
//                              num_detections = 9
      0    EQ       /g032/A0
//                              num_detections = 9
      0    EQ       /g032/A1
//                              num_detections = 9
      0    EQ       /g034/A0
//                              num_detections = 9
      1    DS       /g032/Y
//                              num_detections = 15
      1    EQ       /g033/A0
//                              num_detections = 15
      1    DS       /g032/A0
//			       num_detections = 8
      1    DS       /g032/A1
//			       num_detections = 7
      1    UO       /g007/A1
      0    DS       /g221/Y
//                              num_detections = 25
      0    EQ       /g222/A0
//                              num_detections = 25
      0    DS       /g221/A1
//			       num_detections = 5
      0    DS       /g171/Y
//                              num_detections = 9
      0    EQ       /g171/A0
//                              num_detections = 9
      0    EQ       /g171/A1
//                              num_detections = 9
      0    EQ       /g172/A0
//                              num_detections = 9
      1    DS       /g173/Y
//                              num_detections = 22
      1    EQ       /g173/A1
//                              num_detections = 22
      1    EQ       /g173/A0
//                              num_detections = 22
      1    EQ       /g162/Y
//                              num_detections = 22
      1    EQ       /g172/Y
//                              num_detections = 22
      1    EQ       /g172/A0
//                              num_detections = 22
      1    EQ       /g172/A1
//                              num_detections = 22
      1    EQ       /g171/Y
//                              num_detections = 22
      1    EQ       /g169/Y
//                              num_detections = 22
      1    EQ       /g174/A0
//                              num_detections = 22
      1    DS       /g171/A0
//			       num_detections = 1
      1    DS       /g171/A1
//			       num_detections = 19
      1    DS       /g201/Y
//                              num_detections = 1
      1    EQ       /g201/A0
//                              num_detections = 1
      1    EQ       /g201/A1
//                              num_detections = 1
      1    EQ       /g204/A1
//                              num_detections = 1
      0    UO       /g201/A0
      0    UO       /g201/A1
      1    DS       /g152/Y
//                              num_detections = 4
      1    EQ       /g152/A1
//                              num_detections = 4
      1    EQ       /g152/A0
//                              num_detections = 4
      1    EQ       /g146/Y
//                              num_detections = 4
      1    EQ       /g151/Y
//                              num_detections = 4
      1    EQ       /g153/A0
//                              num_detections = 4
      1    UO       /g151/A1
      0    DS       /g164/Y
//                              num_detections = 2
      0    EQ       /g164/A1
//                              num_detections = 2
      0    EQ       /g164/A0
//                              num_detections = 2
      0    EQ       /g167/A1
//                              num_detections = 2
      1    DS       /g167/Y
//                              num_detections = 3
      1    EQ       /g167/A0
//                              num_detections = 3
      1    EQ       /g167/A1
//                              num_detections = 3
      1    EQ       /g166/Y
//                              num_detections = 3
      1    EQ       /g164/Y
//                              num_detections = 3
      1    EQ       /g169/A1
//                              num_detections = 3
      1    UO       /g164/A1
      1    DS       /g164/A0
//			       num_detections = 3
      0    DS       /g215/Y
//                              num_detections = 8
      0    EQ       /g215/A1
//                              num_detections = 8
      0    EQ       /g215/A0
//                              num_detections = 8
      0    EQ       /g205/Y
//                              num_detections = 8
      0    EQ       /g214/Y
//                              num_detections = 8
      0    EQ       /g214/A1
//                              num_detections = 8
      0    EQ       /g214/A0
//                              num_detections = 8
      0    EQ       /g207/Y
//                              num_detections = 8
      0    EQ       /g213/Y
//                              num_detections = 8
      0    EQ       /g213/A1
//                              num_detections = 8
      0    EQ       /g213/A0
//                              num_detections = 8
      0    EQ       /g209/Y
//                              num_detections = 8
      0    EQ       /g209/A0
//                              num_detections = 8
      0    EQ       /g209/A1
//                              num_detections = 8
      0    EQ       /g212/Y
//                              num_detections = 8
      0    EQ       /g212/A0
//                              num_detections = 8
      0    EQ       /g212/A1
//                              num_detections = 8
      0    EQ       /g208/Y
//                              num_detections = 8
      0    EQ       /g211/Y
//                              num_detections = 8
      0    EQ       /g210/Y
//                              num_detections = 8
      0    EQ       /g216/A0
//                              num_detections = 8
      1    DS       /g211/Y
//                              num_detections = 1
      0    EQ       /g211/A0
//                              num_detections = 1
      0    EQ       /g211/A1
//                              num_detections = 1
      1    EQ       /g212/A0
//                              num_detections = 1
      1    UO       /g211/A0
      1    DS       /g211/A1
//			       num_detections = 5
      0    UO       /g115/Y
      0    EQ       /g115/A0
      0    EQ       /g115/A1
      0    EQ       /g116/A0
      0    DS       /g116/Y
//                              num_detections = 3
      1    EQ       /g116/A0
//                              num_detections = 3
      1    EQ       /g116/A1
//                              num_detections = 3
      1    EQ       /g115/Y
//                              num_detections = 3
      0    EQ       /g117/A0
//                              num_detections = 3
      1    DS       /g115/A0
//			       num_detections = 1
      1    UO       /g115/A1
      0    DS       /g112/Y
//                              num_detections = 2
      0    EQ       /g112/A0
//                              num_detections = 2
      0    EQ       /g112/A1
//                              num_detections = 2
      1    DS       /g112/Y
//			       num_detections = 9
      1    DS       /g112/A0
//			       num_detections = 3
      1    UO       /g112/A1
      0    DS       /g207/A1
//			       num_detections = 1
      1    DS       /g237/Y
//                              num_detections = 22
      1    EQ       /g237/A0
//                              num_detections = 22
      1    EQ       /g237/A1
//                              num_detections = 22
      1    EQ       /g236/Y
//                              num_detections = 22
      1    EQ       /g234/Y
//                              num_detections = 22
      1    EQ       /g238/A0
//                              num_detections = 22
      1    DS       /g236/A1
//			       num_detections = 1
      1    DS       /g233/Y
//                              num_detections = 7
      1    EQ       /g233/A0
//                              num_detections = 7
      1    EQ       /g233/A1
//                              num_detections = 7
      1    EQ       /g232/Y
//                              num_detections = 7
      1    EQ       /g229/Y
//                              num_detections = 7
      1    EQ       /g234/A0
//                              num_detections = 7
      1    DS       /g229/A1
//			       num_detections = 3
      1    DS       /g193/Y
//                              num_detections = 8
      1    EQ       /g194/A0
//                              num_detections = 8
      1    DS       /g193/A1
//			       num_detections = 2
      0    DS       /g129/Y
//                              num_detections = 47
      0    EQ       /g130/A0
//                              num_detections = 47
      1    DS       /g130/Y
//                              num_detections = 5
      1    EQ       /g130/A0
//                              num_detections = 5
      1    EQ       /g130/A1
//                              num_detections = 5
      1    EQ       /g129/Y
//                              num_detections = 5
      0    EQ       /g129/A1
//                              num_detections = 5
      0    EQ       /g129/A0
//                              num_detections = 5
      1    EQ       /g131/A0
//                              num_detections = 5
      1    DS       /g129/A1
//			       num_detections = 7
      1    DS       /g129/A0
//			       num_detections = 33
      0    DS       /g094/Y
//                              num_detections = 13
      0    EQ       /g094/A1
//                              num_detections = 13
      0    EQ       /g094/A0
//                              num_detections = 13
      0    EQ       /g088/Y
//                              num_detections = 13
      0    EQ       /g093/Y
//                              num_detections = 13
      0    EQ       /g093/A0
//                              num_detections = 13
      0    EQ       /g093/A1
//                              num_detections = 13
      0    EQ       /g092/Y
//                              num_detections = 13
      0    EQ       /g095/A0
//                              num_detections = 13
      0    DS       /g088/A0
//			       num_detections = 3
      1    DS       /g210/Y
//                              num_detections = 4
      1    EQ       /g210/A0
//                              num_detections = 4
      1    EQ       /g210/A1
//                              num_detections = 4
      1    EQ       /g212/A1
//                              num_detections = 4
      0    DS       /g210/A0
//			       num_detections = 1
      0    DS       /g210/A1
//			       num_detections = 4
      0    DS       /g165/Y
//                              num_detections = 3
      0    EQ       /g165/A1
//                              num_detections = 3
      0    EQ       /g165/A0
//                              num_detections = 3
      1    DS       /g165/Y
//			       num_detections = 5
      1    DS       /g165/A1
//			       num_detections = 1
      1    DS       /g165/A0
//			       num_detections = 4
      0    DS       /g097/Y
//                              num_detections = 6
      0    EQ       /g098/A0
//                              num_detections = 6
      1    DS       /g099/Y
//                              num_detections = 3
      1    EQ       /g099/A0
//                              num_detections = 3
      1    EQ       /g099/A1
//                              num_detections = 3
      1    EQ       /g098/Y
//                              num_detections = 3
      1    EQ       /g098/A0
//                              num_detections = 3
      1    EQ       /g098/A1
//                              num_detections = 3
      1    EQ       /g097/Y
//                              num_detections = 3
      1    EQ       /g097/A0
//                              num_detections = 3
      1    EQ       /g097/A1
//                              num_detections = 3
      1    EQ       /g101/A1
//                              num_detections = 3
      0    DS       /g097/A0
//			       num_detections = 3
      0    DS       /g097/A1
//			       num_detections = 1
      0    DS       /g073/Y
//                              num_detections = 2
      0    EQ       /g074/A0
//                              num_detections = 2
      1    DS       /g074/Y
//                              num_detections = 3
      1    EQ       /g074/A0
//                              num_detections = 3
      1    EQ       /g074/A1
//                              num_detections = 3
      1    EQ       /g073/Y
//                              num_detections = 3
      1    EQ       /g073/A0
//                              num_detections = 3
      1    EQ       /g073/A1
//                              num_detections = 3
      1    EQ       /g075/A0
//                              num_detections = 3
      0    DS       /g073/A0
//			       num_detections = 1
      0    DS       /g073/A1
//			       num_detections = 1
      1    DS       /g059/A1
//			       num_detections = 21
      0    DS       /g021/Y
//                              num_detections = 3
      0    EQ       /g021/A1
//                              num_detections = 3
      0    EQ       /g021/A0
//                              num_detections = 3
      1    DS       /g021/Y
//			       num_detections = 5
      1    DS       /g021/A1
//			       num_detections = 2
      1    DS       /g021/A0
//			       num_detections = 2
      0    UO       /g232/A1
      0    DS       /g189/Y
//                              num_detections = 67
      0    EQ       /g189/A0
//                              num_detections = 67
      0    EQ       /g189/A1
//                              num_detections = 67
      0    EQ       /g188/Y
//                              num_detections = 67
      0    EQ       /g190/A0
//                              num_detections = 67
      0    DS       /g188/A1
//			       num_detections = 29
      1    DS       /g183/A1
//			       num_detections = 3
      0    DS       /g092/A1
//			       num_detections = 1
      1    DS       /g081/Y
//                              num_detections = 12
      1    EQ       /g081/A1
//                              num_detections = 12
      1    EQ       /g081/A0
//                              num_detections = 12
      1    EQ       /g080/Y
//                              num_detections = 12
      1    EQ       /g082/A0
//                              num_detections = 12
      1    DS       /g242/Y
//                              num_detections = 8
      0    EQ       /g242/A0
//                              num_detections = 8
      0    EQ       /g242/A1
//                              num_detections = 8
      0    EQ       /g241/Y
//                              num_detections = 8
      1    EQ       /g244/A1
//                              num_detections = 8
      0    DS       /g241/A1
//			       num_detections = 3
      1    DS       /g122/Y
//                              num_detections = 8
      1    EQ       /g123/A0
//                              num_detections = 8
      1    DS       /g122/A1
//			       num_detections = 7
      0    DS       /g108/Y
//                              num_detections = 66
      0    EQ       /g108/A0
//                              num_detections = 66
      0    EQ       /g108/A1
//                              num_detections = 66
      0    EQ       /g107/Y
//                              num_detections = 66
      0    EQ       /g107/A0
//                              num_detections = 66
      0    EQ       /g107/A1
//                              num_detections = 66
      0    EQ       /g083/Y
//                              num_detections = 66
      0    EQ       /g106/Y
//                              num_detections = 66
      0    EQ       /g103/Y
//                              num_detections = 66
      0    EQ       /g109/A0
//                              num_detections = 66
      0    DS       /g106/A1
//			       num_detections = 16
      1    DS       /g247/A1
//			       num_detections = 1
      0    UO       /g144/Y
      0    EQ       /g144/A1
      0    EQ       /g144/A0
      0    EQ       /g143/Y
      0    EQ       /g145/A0
      1    DS       /g137/A1
//			       num_detections = 1
      0    DS       /g075/Y
//                              num_detections = 14
      0    EQ       /g075/A0
//                              num_detections = 14
      0    EQ       /g075/A1
//                              num_detections = 14
      0    EQ       /g074/Y
//                              num_detections = 14
      0    EQ       /g072/Y
//                              num_detections = 14
      0    EQ       /g076/A0
//                              num_detections = 14
      0    DS       /g074/A1
//			       num_detections = 7
      1    UO       /g069/Y
      1    EQ       /g069/A1
      1    EQ       /g069/A0
      1    EQ       /g071/A1
      0    DS       /g069/A1
//			       num_detections = 1
      0    DS       /g069/A0
//			       num_detections = 1
      0    UO       /g038/Y
      1    EQ       /g038/A1
      1    EQ       /g038/A0
      0    EQ       /g040/A1
      0    DS       /g038/A1
//			       num_detections = 1
      0    DS       /g038/A0
//			       num_detections = 1
      1    DS       /g035/Y
//                              num_detections = 30
      1    EQ       /g035/A1
//                              num_detections = 30
      1    EQ       /g035/A0
//                              num_detections = 30
      1    EQ       /g016/Y
//                              num_detections = 30
      1    EQ       /g034/Y
//                              num_detections = 30
      1    EQ       /g034/A0
//                              num_detections = 30
      1    EQ       /g034/A1
//                              num_detections = 30
      1    EQ       /g033/Y
//                              num_detections = 30
      1    EQ       /g031/Y
//                              num_detections = 30
      1    EQ       /g036/A0
//                              num_detections = 30
      1    DS       /g033/A1
//			       num_detections = 3
      0    UO       /g013/Y
      0    EQ       /g013/A0
      0    EQ       /g013/A1
      0    EQ       /g011/Y
      0    EQ       /g015/A1
      1    DS       /g205/Y
//                              num_detections = 1
      1    EQ       /g205/A1
//                              num_detections = 1
      1    EQ       /g205/A0
//                              num_detections = 1
      1    EQ       /g204/Y
//                              num_detections = 1
      1    EQ       /g215/A1
//                              num_detections = 1
      1    DS       /g212/Y
//                              num_detections = 7
      1    EQ       /g213/A0
//                              num_detections = 7
      1    DS       /g117/Y
//                              num_detections = 1
      1    EQ       /g117/A1
//                              num_detections = 1
      1    EQ       /g117/A0
//                              num_detections = 1
      1    EQ       /g116/Y
//                              num_detections = 1
      1    EQ       /g123/A1
//                              num_detections = 1
      0    DS       /g116/A1
//			       num_detections = 1
      0    DS       /g156/Y
//                              num_detections = 1
      0    EQ       /g156/A1
//                              num_detections = 1
      0    EQ       /g156/A0
//                              num_detections = 1
      0    EQ       /g155/Y
//                              num_detections = 1
      0    EQ       /g160/A1
//                              num_detections = 1
      0    DS       /g155/A1
//			       num_detections = 1
      0    DS       /g113/Y
//                              num_detections = 6
      1    EQ       /g113/A0
//                              num_detections = 6
      1    EQ       /g113/A1
//                              num_detections = 6
      0    EQ       /g114/A0
//                              num_detections = 6
      1    DS       /g114/Y
//                              num_detections = 1
      1    EQ       /g114/A1
//                              num_detections = 1
      1    EQ       /g114/A0
//                              num_detections = 1
      1    EQ       /g113/Y
//                              num_detections = 1
      1    EQ       /g124/A1
//                              num_detections = 1
      0    DS       /g113/A0
//			       num_detections = 1
      0    UO       /g113/A1
      0    UO       /g234/Y
      0    EQ       /g234/A1
      0    EQ       /g234/A0
      0    EQ       /g233/Y
      0    EQ       /g237/A1
      1    UO       /g194/A1
      0    DS       "/\M[1] "
//                              num_detections = 151
      0    EQ       /g132/Y
//                              num_detections = 151
      0    EQ       /g132/A1
//                              num_detections = 151
      0    EQ       /g132/A0
//                              num_detections = 151
      0    EQ       /g109/Y
//                              num_detections = 151
      0    EQ       /g131/Y
//                              num_detections = 151
      0    EQ       /g131/A0
//                              num_detections = 151
      0    EQ       /g131/A1
//                              num_detections = 151
      0    EQ       /g130/Y
//                              num_detections = 151
      0    EQ       /g127/Y
//                              num_detections = 151
      0    DS       /g130/A1
//			       num_detections = 22
      1    DS       /g208/Y
//                              num_detections = 3
      1    EQ       /g208/A0
//                              num_detections = 3
      1    EQ       /g208/A1
//                              num_detections = 3
      1    EQ       /g209/A0
//                              num_detections = 3
      0    DS       /g208/A0
//			       num_detections = 3
      0    DS       /g208/A1
//			       num_detections = 2
      0    UO       /g166/Y
      0    EQ       /g166/A0
      0    EQ       /g166/A1
      0    EQ       /g167/A0
      1    DS       /g166/A0
//			       num_detections = 2
      1    DS       /g166/A1
//			       num_detections = 1
      0    DS       /g098/Y
//                              num_detections = 19
      0    EQ       /g099/A0
//                              num_detections = 19
      0    DS       /g098/A1
//			       num_detections = 7
      0    DS       /g063/Y
//                              num_detections = 52
      0    EQ       /g063/A1
//                              num_detections = 52
      0    EQ       /g063/A0
//                              num_detections = 52
      0    EQ       /g062/Y
//                              num_detections = 52
      0    EQ       /g066/A1
//                              num_detections = 52
      0    DS       /g176/Y
//                              num_detections = 3
      0    EQ       /g176/A0
//                              num_detections = 3
      0    EQ       /g176/A1
//                              num_detections = 3
      0    EQ       /g177/A0
//                              num_detections = 3
      1    DS       /g177/Y
//                              num_detections = 12
      1    EQ       /g177/A0
//                              num_detections = 12
      1    EQ       /g177/A1
//                              num_detections = 12
      1    EQ       /g176/Y
//                              num_detections = 12
      1    EQ       /g178/A0
//                              num_detections = 12
      1    DS       /g176/A0
//			       num_detections = 4
      1    DS       /g176/A1
//			       num_detections = 2
      0    UO       /g024/Y
      0    EQ       /g024/A1
      0    EQ       /g024/A0
      0    EQ       /g025/A0
      1    DS       /g024/A1
//			       num_detections = 3
      1    DS       /g024/A0
//			       num_detections = 1
      1    DS       "/\M[2] "
//                              num_detections = 118
      1    EQ       /g191/Y
//                              num_detections = 118
      1    EQ       /g191/A1
//                              num_detections = 118
      1    EQ       /g191/A0
//                              num_detections = 118
      1    EQ       /g180/Y
//                              num_detections = 118
      1    EQ       /g190/Y
//                              num_detections = 118
      1    EQ       /g190/A0
//                              num_detections = 118
      1    EQ       /g190/A1
//                              num_detections = 118
      1    EQ       /g189/Y
//                              num_detections = 118
      1    EQ       /g185/Y
//                              num_detections = 118
      1    DS       /g189/A1
//			       num_detections = 74
      0    DS       /g185/Y
//                              num_detections = 11
      0    EQ       /g185/A0
//                              num_detections = 11
      0    EQ       /g185/A1
//                              num_detections = 11
      0    EQ       /g184/Y
//                              num_detections = 11
      0    EQ       /g190/A1
//                              num_detections = 11
      1    UO       /g093/Y
      1    EQ       /g094/A0
      1    UO       /g093/A1
      0    DS       /g082/Y
//                              num_detections = 35
      0    EQ       /g082/A0
//                              num_detections = 35
      0    EQ       /g082/A1
//                              num_detections = 35
      0    EQ       /g081/Y
//                              num_detections = 35
      0    EQ       /g076/Y
//                              num_detections = 35
      0    EQ       /g083/A0
//                              num_detections = 35
      0    DS       /g081/A1
//			       num_detections = 10
      1    DS       "/\E[1] "
//                              num_detections = 50
      1    EQ       /g245/Y
//                              num_detections = 50
      1    EQ       /g245/A0
//                              num_detections = 50
      1    EQ       /g245/A1
//                              num_detections = 50
      1    EQ       /g244/Y
//                              num_detections = 50
      0    EQ       /g244/A0
//                              num_detections = 50
      0    EQ       /g244/A1
//                              num_detections = 50
      1    EQ       /g238/Y
//                              num_detections = 50
      0    EQ       /g242/Y
//                              num_detections = 50
      1    DS       /g242/A1
//			       num_detections = 34
      1    DS       /g225/Y
//                              num_detections = 24
      1    EQ       /g226/A0
//                              num_detections = 24
      0    DS       "/\E[2] "
//                              num_detections = 246
      0    EQ       /g249/Y
//                              num_detections = 246
      1    DS       /g145/Y
//                              num_detections = 2
      1    EQ       /g145/A1
//                              num_detections = 2
      1    EQ       /g145/A0
//                              num_detections = 2
      1    EQ       /g139/Y
//                              num_detections = 2
      1    EQ       /g144/Y
//                              num_detections = 2
      1    EQ       /g146/A0
//                              num_detections = 2
      1    DS       /g144/A1
//			       num_detections = 1
      0    UO       /g139/Y
      0    EQ       /g139/A1
      0    EQ       /g139/A0
      0    EQ       /g138/Y
      0    EQ       /g145/A1
      1    UO       /g072/Y
      1    EQ       /g072/A0
      1    EQ       /g072/A1
      1    EQ       /g071/Y
      1    EQ       /g075/A1
      0    UO       /g041/Y
      0    EQ       /g041/A1
      0    EQ       /g041/A0
      0    EQ       /g040/Y
      0    EQ       /g046/A1
      1    DS       /g015/Y
//                              num_detections = 15
      1    EQ       /g015/A0
//                              num_detections = 15
      1    EQ       /g015/A1
//                              num_detections = 15
      1    EQ       /g013/Y
//                              num_detections = 15
      1    EQ       /g016/A0
//                              num_detections = 15
      1    DS       /g013/A0
//			       num_detections = 4
      0    DS       /g205/A1
//			       num_detections = 4
      0    DS       /g117/A1
//			       num_detections = 1
      1    DS       /g156/A1
//			       num_detections = 3
      0    DS       /g114/A1
//			       num_detections = 2
      1    DS       /g234/A1
//			       num_detections = 1
      1    DS       /g209/Y
//                              num_detections = 6
      1    EQ       /g213/A1
//                              num_detections = 6
      1    UO       /g209/A1
      0    DS       /g169/Y
//                              num_detections = 2
      0    EQ       /g169/A0
//                              num_detections = 2
      0    EQ       /g169/A1
//                              num_detections = 2
      0    EQ       /g167/Y
//                              num_detections = 2
      0    EQ       /g172/A1
//                              num_detections = 2
      0    DS       /g102/Y
//                              num_detections = 31
      0    EQ       /g102/A1
//                              num_detections = 31
      0    EQ       /g102/A0
//                              num_detections = 31
      0    EQ       /g095/Y
//                              num_detections = 31
      0    EQ       /g101/Y
//                              num_detections = 31
      0    EQ       /g101/A1
//                              num_detections = 31
      0    EQ       /g101/A0
//                              num_detections = 31
      0    EQ       /g099/Y
//                              num_detections = 31
      0    EQ       /g103/A0
//                              num_detections = 31
      0    DS       /g099/A1
//			       num_detections = 3
      1    DS       /g063/A1
//			       num_detections = 37
      0    DS       /g178/Y
//                              num_detections = 14
      0    EQ       /g178/A1
//                              num_detections = 14
      0    EQ       /g178/A0
//                              num_detections = 14
      0    EQ       /g177/Y
//                              num_detections = 14
      0    EQ       /g179/A0
//                              num_detections = 14
      0    DS       /g177/A1
//			       num_detections = 11
      0    DS       /g026/Y
//                              num_detections = 7
      0    EQ       /g026/A1
//                              num_detections = 7
      0    EQ       /g026/A0
//                              num_detections = 7
      0    EQ       /g025/Y
//                              num_detections = 7
      0    EQ       /g030/A1
//                              num_detections = 7
      1    DS       /g185/A1
//			       num_detections = 46
      1    DS       /g095/Y
//                              num_detections = 2
      1    EQ       /g095/A1
//                              num_detections = 2
      1    EQ       /g095/A0
//                              num_detections = 2
      1    EQ       /g094/Y
//                              num_detections = 2
      1    EQ       /g102/A1
//                              num_detections = 2
      0    DS       /g244/Y
//                              num_detections = 201
      0    EQ       /g245/A0
//                              num_detections = 201
      1    DS       /g244/A0
//			       num_detections = 162
      1    UO       /g139/A1
      0    DS       /g072/A1
//			       num_detections = 1
      1    UO       /g041/A1
      0    DS       /g016/Y
//                              num_detections = 5
      0    EQ       /g016/A0
//                              num_detections = 5
      0    EQ       /g016/A1
//                              num_detections = 5
      0    EQ       /g015/Y
//                              num_detections = 5
      0    EQ       /g035/A1
//                              num_detections = 5
      0    DS       /g015/A0
//			       num_detections = 3
      1    DS       /g123/Y
//                              num_detections = 11
      1    EQ       /g124/A0
//                              num_detections = 11
      0    DS       /g160/Y
//                              num_detections = 1
      0    EQ       /g161/A0
//                              num_detections = 1
      0    DS       /g125/Y
//                              num_detections = 14
      1    EQ       /g125/A0
//                              num_detections = 14
      1    EQ       /g125/A1
//                              num_detections = 14
      1    EQ       /g124/Y
//                              num_detections = 14
      0    EQ       /g126/A0
//                              num_detections = 14
      0    UO       /g238/Y
      0    EQ       /g238/A0
      0    EQ       /g238/A1
      0    EQ       /g237/Y
      0    EQ       /g245/A1
      0    DS       "/\M[3] "
//                              num_detections >= 255
      0    EQ       /g200/Y
//                              num_detections >= 255
      1    DS       /g213/Y
//                              num_detections = 17
      1    EQ       /g214/A0
//                              num_detections = 17
      1    DS       /g169/A0
//			       num_detections = 8
      1    DS       /g101/Y
//                              num_detections = 6
      1    EQ       /g102/A0
//                              num_detections = 6
      1    DS       /g101/A0
//			       num_detections = 3
      0    DS       /g066/Y
//                              num_detections = 86
      0    EQ       /g067/A0
//                              num_detections = 86
      1    DS       /g179/Y
//                              num_detections = 54
      1    EQ       /g179/A0
//                              num_detections = 54
      1    EQ       /g179/A1
//                              num_detections = 54
      1    EQ       /g178/Y
//                              num_detections = 54
      1    EQ       /g174/Y
//                              num_detections = 54
      1    EQ       /g180/A0
//                              num_detections = 54
      1    DS       /g178/A1
//			       num_detections = 19
      1    DS       /g026/A1
//			       num_detections = 4
      0    DS       /g190/Y
//                              num_detections = 90
      0    EQ       /g191/A0
//                              num_detections = 90
      0    DS       /g095/A1
//			       num_detections = 5
      0    UO       /g146/Y
      0    EQ       /g146/A1
      0    EQ       /g146/A0
      0    EQ       /g145/Y
      0    EQ       /g152/A1
      1    DS       /g076/Y
//                              num_detections = 4
      1    EQ       /g076/A1
//                              num_detections = 4
      1    EQ       /g076/A0
//                              num_detections = 4
      1    EQ       /g075/Y
//                              num_detections = 4
      1    EQ       /g082/A1
//                              num_detections = 4
      0    DS       /g049/Y
//                              num_detections = 16
      0    EQ       /g049/A1
//                              num_detections = 16
      0    EQ       /g049/A0
//                              num_detections = 16
      0    EQ       /g046/Y
//                              num_detections = 16
      0    EQ       /g052/A1
//                              num_detections = 16
      1    DS       /g016/A1
//			       num_detections = 7
      0    DS       /g126/Y
//                              num_detections = 48
      1    EQ       /g126/A1
//                              num_detections = 48
      1    EQ       /g126/A0
//                              num_detections = 48
      1    EQ       /g125/Y
//                              num_detections = 48
      0    EQ       /g127/A0
//                              num_detections = 48
      0    DS       /g125/A1
//			       num_detections = 19
      1    DS       /g238/A1
//			       num_detections = 4
      1    DS       /g214/Y
//                              num_detections = 26
      1    EQ       /g215/A0
//                              num_detections = 26
      0    DS       /g172/Y
//                              num_detections = 11
      0    EQ       /g173/A0
//                              num_detections = 11
      1    DS       /g103/Y
//                              num_detections = 10
      1    EQ       /g103/A1
//                              num_detections = 10
      1    EQ       /g103/A0
//                              num_detections = 10
      1    EQ       /g102/Y
//                              num_detections = 10
      1    EQ       /g107/A1
//                              num_detections = 10
      0    DS       /g031/Y
//                              num_detections = 8
      0    EQ       /g031/A1
//                              num_detections = 8
      0    EQ       /g031/A0
//                              num_detections = 8
      0    EQ       /g030/Y
//                              num_detections = 8
      0    EQ       /g034/A1
//                              num_detections = 8
      1    UO       /g146/A1
      0    DS       /g076/A1
//			       num_detections = 2
      1    DS       /g049/A0
//			       num_detections = 35
      1    DS       /g127/Y
//                              num_detections = 48
      1    EQ       /g127/A1
//                              num_detections = 48
      1    EQ       /g127/A0
//                              num_detections = 48
      1    EQ       /g126/Y
//                              num_detections = 48
      1    EQ       /g131/A1
//                              num_detections = 48
      0    DS       /g126/A1
//			       num_detections = 17
      0    DS       "/\E[1] "
//                              num_detections = 205
      0    EQ       /g245/Y
//                              num_detections = 205
      1    DS       /g216/Y
//                              num_detections = 27
      1    EQ       /g216/A1
//                              num_detections = 27
      1    EQ       /g216/A0
//                              num_detections = 27
      1    EQ       /g215/Y
//                              num_detections = 27
      1    EQ       /g226/A1
//                              num_detections = 27
      0    DS       /g103/A1
//			       num_detections = 18
      1    DS       /g031/A1
//			       num_detections = 5
      0    DS       /g153/Y
//                              num_detections = 2
      0    EQ       /g153/A0
//                              num_detections = 2
      0    EQ       /g153/A1
//                              num_detections = 2
      0    EQ       /g152/Y
//                              num_detections = 2
      0    EQ       /g161/A1
//                              num_detections = 2
      1    DS       /g083/Y
//                              num_detections = 16
      1    EQ       /g083/A1
//                              num_detections = 16
      1    EQ       /g083/A0
//                              num_detections = 16
      1    EQ       /g082/Y
//                              num_detections = 16
      1    EQ       /g108/A1
//                              num_detections = 16
      0    DS       /g052/Y
//                              num_detections = 29
      0    EQ       /g053/A0
//                              num_detections = 29
      0    DS       /g127/A1
//			       num_detections = 64
      0    DS       /g216/A1
//			       num_detections = 22
      1    DS       /g107/Y
//                              num_detections = 31
      1    EQ       /g108/A0
//                              num_detections = 31
      0    DS       /g034/Y
//                              num_detections = 17
      0    EQ       /g035/A0
//                              num_detections = 17
      1    DS       /g153/A1
//			       num_detections = 3
      0    DS       /g083/A1
//			       num_detections = 16
      1    DS       /g131/Y
//                              num_detections = 53
      1    EQ       /g132/A0
//                              num_detections = 53
      1    DS       "/\E[0] "
//                              num_detections = 81
      1    EQ       /g227/Y
//                              num_detections = 81
      1    EQ       /g227/A1
//                              num_detections = 81
      1    EQ       /g227/A0
//                              num_detections = 81
      1    EQ       /g226/Y
//                              num_detections = 81
      1    DS       /g109/Y
//                              num_detections = 48
      1    EQ       /g109/A1
//                              num_detections = 48
      1    EQ       /g109/A0
//                              num_detections = 48
      1    EQ       /g108/Y
//                              num_detections = 48
      1    EQ       /g132/A1
//                              num_detections = 48
      0    DS       /g036/Y
//                              num_detections = 22
      0    EQ       /g036/A1
//                              num_detections = 22
      0    EQ       /g036/A0
//                              num_detections = 22
      0    EQ       /g035/Y
//                              num_detections = 22
      0    EQ       /g053/A1
//                              num_detections = 22
      0    DS       /g162/Y
//                              num_detections = 6
      0    EQ       /g162/A1
//                              num_detections = 6
      0    EQ       /g162/A0
//                              num_detections = 6
      0    EQ       /g161/Y
//                              num_detections = 6
      0    EQ       /g173/A1
//                              num_detections = 6
      0    DS       "/\E[0] "
//                              num_detections = 174
      0    EQ       /g227/Y
//                              num_detections = 174
      0    DS       /g227/A1
//			       num_detections = 84
      0    DS       /g109/A1
//			       num_detections = 43
      1    DS       /g036/A1
//			       num_detections = 16
      1    DS       /g162/A1
//			       num_detections = 5
      1    DS       "/\M[1] "
//                              num_detections = 104
      1    EQ       /g132/Y
//                              num_detections = 104
      0    DS       /g054/Y
//                              num_detections = 51
      0    EQ       /g054/A1
//                              num_detections = 51
      0    EQ       /g054/A0
//                              num_detections = 51
      0    EQ       /g053/Y
//                              num_detections = 51
      0    EQ       /g067/A1
//                              num_detections = 51
      0    DS       /g174/Y
//                              num_detections = 24
      0    EQ       /g174/A1
//                              num_detections = 24
      0    EQ       /g174/A0
//                              num_detections = 24
      0    EQ       /g173/Y
//                              num_detections = 24
      0    EQ       /g179/A1
//                              num_detections = 24
      1    DS       /g054/A1
//			       num_detections = 25
      1    DS       /g174/A1
//			       num_detections = 17
      0    DS       "/\M[0] "
//                              num_detections = 137
      0    EQ       /g067/Y
//                              num_detections = 137
      0    DS       /g180/Y
//                              num_detections = 40
      0    EQ       /g180/A1
//                              num_detections = 40
      0    EQ       /g180/A0
//                              num_detections = 40
      0    EQ       /g179/Y
//                              num_detections = 40
      0    EQ       /g191/A1
//                              num_detections = 40
      1    DS       /g180/A1
//			       num_detections = 26
      0    DS       "/\M[2] "
//                              num_detections = 137
      0    EQ       /g191/Y
//                              num_detections = 137
