                      Statistics Report                      
                       Stuck-at Faults                       
-------------------------------------------------------------
Fault Classes                           #faults              
                                        (total)              
------------------------  -----------------------------------
  FU (full)                               1508               
  ----------------------  -----------------------------------
  UO (unobserved)                       182          (12.07%)
  DS (det_simulation)                  1326          (87.93%)
-------------------------------------------------------------
Coverage                                                     
  ----------------------                                     
  test_coverage                                       87.93% 
  fault_coverage                                      87.93% 
  atpg_effectiveness                                  87.93% 
-------------------------------------------------------------
#test_patterns                                             0 
#simulated_patterns                                      255 
CPU_time (secs)                                         90.4 
-------------------------------------------------------------
Multiple Detection Statistics                                
-------------------------------------------------------------
  Detections                  DS Faults         Test Coverage
     (N)                  (Detections == N) (Detections >= N)
------------------------  ----------------- -----------------
      1                       237 ( 15.72%)    1326 ( 87.93%)
      2                       124 (  8.22%)    1089 ( 72.21%)
      3                        89 (  5.90%)     965 ( 63.99%)
      4                        83 (  5.50%)     876 ( 58.09%)
      5                        48 (  3.18%)     793 ( 52.59%)
      6                        63 (  4.18%)     745 ( 49.40%)
      7                        21 (  1.39%)     682 ( 45.23%)
      8                        63 (  4.18%)     661 ( 43.83%)
      9                        20 (  1.33%)     598 ( 39.66%)
     10                        33 (  2.19%)     578 ( 38.33%)
     11                        47 (  3.12%)     545 ( 36.14%)
     12                        50 (  3.32%)     498 ( 33.02%)
     13                        10 (  0.66%)     448 ( 29.71%)
     14                         9 (  0.60%)     438 ( 29.05%)
     15                        30 (  1.99%)     429 ( 28.45%)
     16                         3 (  0.20%)     399 ( 26.46%)
     17                        12 (  0.80%)     396 ( 26.26%)
     18                        18 (  1.19%)     384 ( 25.46%)
     19                        17 (  1.13%)     366 ( 24.27%)
     20                        20 (  1.33%)     349 ( 23.14%)
     21                         8 (  0.53%)     329 ( 21.82%)
     22                        19 (  1.26%)     321 ( 21.29%)
     23                        18 (  1.19%)     302 ( 20.03%)
     24                         3 (  0.20%)     284 ( 18.83%)
     25                        15 (  0.99%)     281 ( 18.63%)
     26                         6 (  0.40%)     266 ( 17.64%)
     27                        10 (  0.66%)     260 ( 17.24%)
     28                        19 (  1.26%)     250 ( 16.58%)
     29                         1 (  0.07%)     231 ( 15.32%)
     30                         4 (  0.27%)     230 ( 15.25%)
     31                         3 (  0.20%)     226 ( 14.99%)
     32                        15 (  0.99%)     223 ( 14.79%)
     33                         0 (  0.00%)     208 ( 13.79%)
     34                         1 (  0.07%)     208 ( 13.79%)
     35                         7 (  0.46%)     207 ( 13.73%)
     36                         2 (  0.13%)     200 ( 13.26%)
     37                         1 (  0.07%)     198 ( 13.13%)
     38                         1 (  0.07%)     197 ( 13.06%)
     39                        21 (  1.39%)     196 ( 13.00%)
     40                         6 (  0.40%)     175 ( 11.60%)
     41                         0 (  0.00%)     169 ( 11.21%)
     42                         3 (  0.20%)     169 ( 11.21%)
     43                         7 (  0.46%)     166 ( 11.01%)
     44                         2 (  0.13%)     159 ( 10.54%)
     45                         1 (  0.07%)     157 ( 10.41%)
     46                         0 (  0.00%)     156 ( 10.34%)
     47                         0 (  0.00%)     156 ( 10.34%)
     48                        13 (  0.86%)     156 ( 10.34%)
     49                         2 (  0.13%)     143 (  9.48%)
     50                        15 (  0.99%)     141 (  9.35%)
     51                         0 (  0.00%)     126 (  8.36%)
     52                         3 (  0.20%)     126 (  8.36%)
     53                         1 (  0.07%)     123 (  8.16%)
     54                         6 (  0.40%)     122 (  8.09%)
     55                         0 (  0.00%)     116 (  7.69%)
     56                         5 (  0.33%)     116 (  7.69%)
     57                         6 (  0.40%)     111 (  7.36%)
     58                         2 (  0.13%)     105 (  6.96%)
     59                         1 (  0.07%)     103 (  6.83%)
     60                        18 (  1.19%)     102 (  6.76%)
     61                         0 (  0.00%)      84 (  5.57%)
     62                         1 (  0.07%)      84 (  5.57%)
     63                         0 (  0.00%)      83 (  5.50%)
     64                         0 (  0.00%)      83 (  5.50%)
     65                         1 (  0.07%)      83 (  5.50%)
     66                         2 (  0.13%)      82 (  5.44%)
     67                         0 (  0.00%)      80 (  5.31%)
     68                         0 (  0.00%)      80 (  5.31%)
     69                         2 (  0.13%)      80 (  5.31%)
     70                         2 (  0.13%)      78 (  5.17%)
     71                         0 (  0.00%)      76 (  5.04%)
     72                         5 (  0.33%)      76 (  5.04%)
     73                         1 (  0.07%)      71 (  4.71%)
     74                         0 (  0.00%)      70 (  4.64%)
     75                         0 (  0.00%)      70 (  4.64%)
     76                         0 (  0.00%)      70 (  4.64%)
     77                         0 (  0.00%)      70 (  4.64%)
     78                         5 (  0.33%)      70 (  4.64%)
     79                         0 (  0.00%)      65 (  4.31%)
     80                         0 (  0.00%)      65 (  4.31%)
     81                         0 (  0.00%)      65 (  4.31%)
     82                         0 (  0.00%)      65 (  4.31%)
     83                         0 (  0.00%)      65 (  4.31%)
     84                         0 (  0.00%)      65 (  4.31%)
     85                         0 (  0.00%)      65 (  4.31%)
     86                         0 (  0.00%)      65 (  4.31%)
     87                         0 (  0.00%)      65 (  4.31%)
     88                         0 (  0.00%)      65 (  4.31%)
     89                         0 (  0.00%)      65 (  4.31%)
     90                         0 (  0.00%)      65 (  4.31%)
     91                         0 (  0.00%)      65 (  4.31%)
     92                         0 (  0.00%)      65 (  4.31%)
     93                         2 (  0.13%)      65 (  4.31%)
     94                         1 (  0.07%)      63 (  4.18%)
     95                         0 (  0.00%)      62 (  4.11%)
     96                         0 (  0.00%)      62 (  4.11%)
     97                         0 (  0.00%)      62 (  4.11%)
     98                         0 (  0.00%)      62 (  4.11%)
     99                         0 (  0.00%)      62 (  4.11%)
    100                         0 (  0.00%)      62 (  4.11%)
    101                         0 (  0.00%)      62 (  4.11%)
    102                         0 (  0.00%)      62 (  4.11%)
    103                         0 (  0.00%)      62 (  4.11%)
    104                         0 (  0.00%)      62 (  4.11%)
    105                         0 (  0.00%)      62 (  4.11%)
    106                         0 (  0.00%)      62 (  4.11%)
    107                         1 (  0.07%)      62 (  4.11%)
    108                         0 (  0.00%)      61 (  4.05%)
    109                         0 (  0.00%)      61 (  4.05%)
    110                         2 (  0.13%)      61 (  4.05%)
    111                         2 (  0.13%)      59 (  3.91%)
    112                        10 (  0.66%)      57 (  3.78%)
    113                         0 (  0.00%)      47 (  3.12%)
    114                        10 (  0.66%)      47 (  3.12%)
    115                         0 (  0.00%)      37 (  2.45%)
    116                         2 (  0.13%)      37 (  2.45%)
    117                         0 (  0.00%)      35 (  2.32%)
    118                         0 (  0.00%)      35 (  2.32%)
    119                         0 (  0.00%)      35 (  2.32%)
    120                         0 (  0.00%)      35 (  2.32%)
    121                         0 (  0.00%)      35 (  2.32%)
    122                         1 (  0.07%)      35 (  2.32%)
    123                         3 (  0.20%)      34 (  2.25%)
    124                         0 (  0.00%)      31 (  2.06%)
    125                         0 (  0.00%)      31 (  2.06%)
    126                         0 (  0.00%)      31 (  2.06%)
    127                         0 (  0.00%)      31 (  2.06%)
    128                         0 (  0.00%)      31 (  2.06%)
    129                         0 (  0.00%)      31 (  2.06%)
    130                         0 (  0.00%)      31 (  2.06%)
    131                         0 (  0.00%)      31 (  2.06%)
    132                        10 (  0.66%)      31 (  2.06%)
    133                         1 (  0.07%)      21 (  1.39%)
    134                         0 (  0.00%)      20 (  1.33%)
    135                         0 (  0.00%)      20 (  1.33%)
    136                         0 (  0.00%)      20 (  1.33%)
    137                         0 (  0.00%)      20 (  1.33%)
    138                         0 (  0.00%)      20 (  1.33%)
    139                         1 (  0.07%)      20 (  1.33%)
    140                         0 (  0.00%)      19 (  1.26%)
    141                         2 (  0.13%)      19 (  1.26%)
    142                         0 (  0.00%)      17 (  1.13%)
    143                         2 (  0.13%)      17 (  1.13%)
    144                         1 (  0.07%)      15 (  0.99%)
    145                         0 (  0.00%)      14 (  0.93%)
    146                         0 (  0.00%)      14 (  0.93%)
    147                         0 (  0.00%)      14 (  0.93%)
    148                         0 (  0.00%)      14 (  0.93%)
    149                         0 (  0.00%)      14 (  0.93%)
    150                         0 (  0.00%)      14 (  0.93%)
    151                         0 (  0.00%)      14 (  0.93%)
    152                         0 (  0.00%)      14 (  0.93%)
    153                         0 (  0.00%)      14 (  0.93%)
    154                         0 (  0.00%)      14 (  0.93%)
    155                         0 (  0.00%)      14 (  0.93%)
    156                         0 (  0.00%)      14 (  0.93%)
    157                         0 (  0.00%)      14 (  0.93%)
    158                         0 (  0.00%)      14 (  0.93%)
    159                         0 (  0.00%)      14 (  0.93%)
    160                         0 (  0.00%)      14 (  0.93%)
    161                         0 (  0.00%)      14 (  0.93%)
    162                         0 (  0.00%)      14 (  0.93%)
    163                         0 (  0.00%)      14 (  0.93%)
    164                         0 (  0.00%)      14 (  0.93%)
    165                         0 (  0.00%)      14 (  0.93%)
    166                         0 (  0.00%)      14 (  0.93%)
    167                         1 (  0.07%)      14 (  0.93%)
    168                         0 (  0.00%)      13 (  0.86%)
    169                         0 (  0.00%)      13 (  0.86%)
    170                         0 (  0.00%)      13 (  0.86%)
    171                         0 (  0.00%)      13 (  0.86%)
    172                         0 (  0.00%)      13 (  0.86%)
    173                         0 (  0.00%)      13 (  0.86%)
    174                         0 (  0.00%)      13 (  0.86%)
    175                         0 (  0.00%)      13 (  0.86%)
    176                         0 (  0.00%)      13 (  0.86%)
    177                         0 (  0.00%)      13 (  0.86%)
    178                         0 (  0.00%)      13 (  0.86%)
    179                         0 (  0.00%)      13 (  0.86%)
    180                         0 (  0.00%)      13 (  0.86%)
    181                         0 (  0.00%)      13 (  0.86%)
    182                         0 (  0.00%)      13 (  0.86%)
    183                         2 (  0.13%)      13 (  0.86%)
    184                         0 (  0.00%)      11 (  0.73%)
    185                         0 (  0.00%)      11 (  0.73%)
    186                         0 (  0.00%)      11 (  0.73%)
    187                         0 (  0.00%)      11 (  0.73%)
    188                         0 (  0.00%)      11 (  0.73%)
    189                         0 (  0.00%)      11 (  0.73%)
    190                         0 (  0.00%)      11 (  0.73%)
    191                         0 (  0.00%)      11 (  0.73%)
    192                         0 (  0.00%)      11 (  0.73%)
    193                         0 (  0.00%)      11 (  0.73%)
    194                         0 (  0.00%)      11 (  0.73%)
    195                         0 (  0.00%)      11 (  0.73%)
    196                         0 (  0.00%)      11 (  0.73%)
    197                         0 (  0.00%)      11 (  0.73%)
    198                         1 (  0.07%)      11 (  0.73%)
    199                         0 (  0.00%)      10 (  0.66%)
    200                         0 (  0.00%)      10 (  0.66%)
    201                         0 (  0.00%)      10 (  0.66%)
    202                         0 (  0.00%)      10 (  0.66%)
    203                         0 (  0.00%)      10 (  0.66%)
    204                         0 (  0.00%)      10 (  0.66%)
    205                         0 (  0.00%)      10 (  0.66%)
    206                         2 (  0.13%)      10 (  0.66%)
    207                         0 (  0.00%)       8 (  0.53%)
    208                         0 (  0.00%)       8 (  0.53%)
    209                         0 (  0.00%)       8 (  0.53%)
    210                         0 (  0.00%)       8 (  0.53%)
    211                         0 (  0.00%)       8 (  0.53%)
    212                         0 (  0.00%)       8 (  0.53%)
    213                         0 (  0.00%)       8 (  0.53%)
    214                         0 (  0.00%)       8 (  0.53%)
    215                         0 (  0.00%)       8 (  0.53%)
    216                         2 (  0.13%)       8 (  0.53%)
    217                         0 (  0.00%)       6 (  0.40%)
    218                         0 (  0.00%)       6 (  0.40%)
    219                         0 (  0.00%)       6 (  0.40%)
    220                         0 (  0.00%)       6 (  0.40%)
    221                         0 (  0.00%)       6 (  0.40%)
    222                         0 (  0.00%)       6 (  0.40%)
    223                         0 (  0.00%)       6 (  0.40%)
    224                         0 (  0.00%)       6 (  0.40%)
    225                         0 (  0.00%)       6 (  0.40%)
    226                         0 (  0.00%)       6 (  0.40%)
    227                         0 (  0.00%)       6 (  0.40%)
    228                         0 (  0.00%)       6 (  0.40%)
    229                         0 (  0.00%)       6 (  0.40%)
    230                         0 (  0.00%)       6 (  0.40%)
    231                         0 (  0.00%)       6 (  0.40%)
    232                         0 (  0.00%)       6 (  0.40%)
    233                         2 (  0.13%)       6 (  0.40%)
    234                         0 (  0.00%)       4 (  0.27%)
    235                         0 (  0.00%)       4 (  0.27%)
    236                         0 (  0.00%)       4 (  0.27%)
    237                         0 (  0.00%)       4 (  0.27%)
    238                         0 (  0.00%)       4 (  0.27%)
    239                         0 (  0.00%)       4 (  0.27%)
    240                         2 (  0.13%)       4 (  0.27%)
    241                         0 (  0.00%)       2 (  0.13%)
    242                         0 (  0.00%)       2 (  0.13%)
    243                         0 (  0.00%)       2 (  0.13%)
    244                         0 (  0.00%)       2 (  0.13%)
    245                         0 (  0.00%)       2 (  0.13%)
    246                         0 (  0.00%)       2 (  0.13%)
    247                         0 (  0.00%)       2 (  0.13%)
    248                         0 (  0.00%)       2 (  0.13%)
    249                         0 (  0.00%)       2 (  0.13%)
    250                         0 (  0.00%)       2 (  0.13%)
    251                         0 (  0.00%)       2 (  0.13%)
    252                         0 (  0.00%)       2 (  0.13%)
    253                         0 (  0.00%)       2 (  0.13%)
    254                         2 (  0.13%)       2 (  0.13%)
    255+                        0 (  0.00%)       0 (  0.00%)
-------------------------------------------------------------
bridge_coverage_estimate                              76.74% 
-------------------------------------------------------------

