safType,netID,numDetections
0,\totalcoeffs[0],144285
1,\totalcoeffs[0],144490
0,\totalcoeffs[1],149415
1,\totalcoeffs[1],149069
0,\totalcoeffs[2],155572
1,\totalcoeffs[2],154937
0,\totalcoeffs[3],156270
1,\totalcoeffs[3],156169
0,\totalcoeffs[4],254969
1,\totalcoeffs[4],254891
0,\ctable[0],200700
1,\ctable[0],201705
0,\ctable[1],201700
1,\ctable[1],202648
0,\ctable[2],312942
1,\ctable[2],311530
0,\trailingones[0],135282
1,\trailingones[0],135498
0,\trailingones[1],139299
1,\trailingones[1],139337
0,g005.Y,120266
1,g005.A,120266
1,g005.Y,121290
0,g005.A,121290
0,g029.Y,12955
0,g029.A0,12955
0,g029.A1,12955
1,g029.Y,32846
1,g029.A0,13005
1,g029.A1,9935
0,g004.Y,110105
1,g004.A,110105
1,g004.Y,117413
0,g004.A,117413
0,g086.Y,8016
0,g086.A0,8016
0,g086.A1,8016
1,g086.Y,16081
1,g086.A0,6068
1,g086.A1,6008
0,g077.Y,1025
0,g077.A0,1025
0,g077.A1,1025
0,g076.Y,1025
1,g076.A0,1025
1,g076.A1,1025
0,g078.A0,1025
1,g076.Y,2947
1,g077.A0,2947
0,g076.A0,1018
0,g076.A1,972
0,g021.Y,85625
1,g021.Y,33850
1,g021.A0,33850
1,g021.A1,33850
0,g021.A0,30708
0,g021.A1,28069
0,g003.Y,129204
1,g003.A,129204
1,g003.Y,125674
0,g003.A,125674
0,g225.Y,5918
0,g225.A0,5918
0,g225.A1,5918
1,g225.Y,40387
1,g225.A0,16936
1,g225.A1,5899
0,g129.Y,61351
1,g129.Y,13961
1,g129.A0,13961
1,g129.A1,13961
0,g129.A0,22920
0,g129.A1,12690
0,g093.Y,70878
1,g093.Y,14736
1,g093.A0,14736
1,g093.A1,14736
0,g093.A0,29807
0,g093.A1,16003
0,g071.Y,8981
1,g071.A0,8981
1,g071.A1,8981
1,g071.Y,24841
0,g071.A0,8046
0,g071.A1,9055
0,g032.Y,111211
1,g032.A,111211
1,g032.Y,108555
0,g032.A,108555
0,g023.Y,14949
1,g023.Y,4016
0,g023.A0,4016
0,g023.A1,4016
1,g023.A0,5917
1,g023.A1,3930
0,g008.Y,82610
1,g008.Y,24207
1,g008.A0,24207
1,g008.A1,24207
0,g008.A0,23751
0,g008.A1,31985
0,g423.Y,7817
0,g423.A0,7817
0,g423.A1,7817
0,g421.Y,7817
0,g424.A0,7817
1,g421.Y,7912
1,g423.A1,7912
0,g421.A0,7820
1,g421.A0,7909
0,g421.A1,7879
1,g421.A1,7850
0,g348.Y,4106
0,g348.A0,4106
0,g348.A1,4106
0,g347.Y,4106
0,g347.A0,4106
0,g347.A1,4106
0,g344.Y,4106
0,g346.Y,4106
1,g346.A1,4106
1,g346.A0,4106
0,g349.A0,4106
1,g346.Y,42895
1,g347.A0,42895
0,g346.A1,6939
0,g346.A0,14981
0,g118.Y,3996
0,g118.A0,3996
0,g118.A1,3996
1,g118.Y,8942
1,g118.A0,2994
1,g118.A1,3904
0,g000.Y,246886
1,g000.A,246886
1,g000.Y,248231
0,g000.A,248231
0,g001.Y,119946
1,g001.A,119946
1,g001.Y,118129
0,g001.A,118129
0,\len[3],115634
0,g711.Y,115634
0,g711.A1,115634
0,g711.A0,115634
0,g685.Y,115634
0,g710.Y,115634
0,g710.A0,115634
0,g710.A1,115634
0,g709.Y,115634
0,g709.A0,115634
0,g709.A1,115634
0,g696.Y,115634
0,g708.Y,115634
0,g708.A0,115634
0,g708.A1,115634
0,g699.Y,115634
0,g707.Y,115634
0,g707.A1,115634
0,g707.A0,115634
0,g701.Y,115634
0,g703.Y,115634
0,g706.Y,115634
0,g706.A0,115634
0,g706.A1,115634
0,g705.Y,115634
0,g704.Y,115634
1,g705.Y,19716
0,g705.A1,19716
0,g705.A0,19716
1,g706.A0,19716
1,g705.A1,91674
1,g705.A0,1945
0,g605.Y,22776
1,g605.Y,8024
1,g605.A0,8024
1,g605.A1,8024
0,g605.A0,7831
0,g605.A1,7033
0,g133.A0,6893
0,g133.A1,6893
0,g132.Y,6893
0,g132.A0,6893
0,g132.A1,6893
0,g128.Y,6893
0,g131.Y,6893
1,g131.A0,6893
1,g131.A1,6893
0,g134.A0,6893
1,g131.Y,24990
1,g132.A0,24990
0,g131.A0,9027
0,g131.A1,7025
0,g047.Y,2987
0,g047.A1,2987
0,g047.A0,2987
0,g045.Y,2987
0,g048.A0,2987
1,g045.Y,1028
1,g045.A0,1028
1,g045.A1,1028
1,g047.A1,1028
0,g045.A0,976
0,g045.A1,1007
0,g040.Y,2959
0,g040.A0,2959
0,g040.A1,2959
1,g040.Y,8121
1,g040.A0,3082
1,g040.A1,4032
0,g020.Y,241744
1,g020.A,241744
1,g020.Y,242590
0,g020.A,242590
0,g002.Y,79628
1,g002.A,79628
1,g002.Y,80850
0,g002.A,80850
0,g022.Y,7967
0,g022.A1,7967
0,g022.A0,7967
1,g022.Y,12975
1,g022.A1,5013
1,g022.A0,5932
0,g012.Y,83679
1,g012.A,83679
1,g012.Y,82738
0,g012.A,82738
0,g009.Y,9771
0,g009.A0,9771
0,g009.A1,9771
1,g009.Y,21007
1,g009.A0,7916
1,g009.A1,7032
0,g006.Y,10042
0,g006.A0,10042
0,g006.A1,10042
1,g006.Y,35845
1,g006.A0,12963
1,g006.A1,11936
0,g485.Y,3037
1,g485.A0,3037
1,g485.A1,3037
1,g485.Y,11843
0,g485.A0,5021
0,g485.A1,2938
0,g479.Y,11005
1,g479.Y,5020
1,g479.A0,5020
1,g479.A1,5020
0,g479.A0,3026
0,g479.A1,4986
0,g292.Y,3930
0,g292.A0,3930
0,g292.A1,3930
1,g292.Y,9979
1,g292.A0,3985
1,g292.A1,5067
0,g211.Y,3957
0,g211.A0,3957
0,g211.A1,3957
1,g211.Y,23728
1,g211.A0,9825
1,g211.A1,3983
0,g197.Y,3917
0,g198.A0,3917
1,g198.Y,4021
1,g198.A1,4021
1,g198.A0,4021
1,g197.Y,4021
1,g199.A0,4021
0,g197.A0,4935
1,g197.A0,3003
0,g197.A1,4956
1,g197.A1,2982
0,g158.Y,22035
0,g160.A1,22035
0,g161.Y,6917
0,g161.A0,6917
0,g161.A1,6917
0,g160.Y,6917
1,g160.A1,6917
1,g160.A0,6917
0,g157.Y,6917
1,g158.Y,6917
1,g158.A0,6917
1,g158.A1,6917
0,g162.A0,6917
0,g158.A0,7005
0,g158.A1,7097
0,g137.Y,3996
1,g137.A0,3996
1,g137.A1,3996
1,g137.Y,16974
0,g137.A0,7040
0,g137.A1,4952
0,g135.Y,3108
0,g135.A0,3108
0,g135.A1,3108
1,g135.Y,9995
1,g135.A0,3020
1,g135.A1,3942
0,g106.Y,13026
1,g106.A0,13026
1,g106.A1,13026
1,g106.Y,93728
0,g106.A0,40951
0,g106.A1,12984
0,g063.Y,6995
1,g063.Y,6995
0,g063.A0,7054
1,g063.A0,6936
0,g063.A1,5979
1,g063.A1,8011
0,g052.Y,18853
1,g052.A0,18853
1,g052.A1,18853
1,g052.Y,57044
0,g052.A0,19013
0,g052.A1,18977
0,g049.Y,6015
0,g049.A0,6015
0,g049.A1,6015
1,g049.Y,22226
1,g049.A0,8064
1,g049.A1,7073
0,g013.Y,8088
0,g013.A0,8088
0,g013.A1,8088
1,g013.Y,24957
1,g013.A0,6930
1,g013.A1,9081
0,g433.Y,6825
1,g433.Y,2053
1,g433.A0,2053
1,g433.A1,2053
0,g433.A0,2952
0,g433.A1,2901
0,g329.Y,8821
1,g329.Y,9808
0,g329.A0,9738
1,g329.A0,8891
0,g329.A1,8763
1,g329.A1,9866
0,g317.Y,8135
0,g317.A0,8135
0,g317.A1,8135
1,g317.Y,26788
1,g317.A0,9880
1,g317.A1,12891
0,g262.Y,4953
0,g262.A0,4953
0,g262.A1,4953
0,g261.Y,4953
0,g263.A0,4953
1,g261.Y,1021
0,g261.A0,1021
0,g261.A1,1021
1,g262.A0,1021
1,g261.A0,1990
1,g261.A1,956
0,g220.Y,22744
1,g220.A0,22744
1,g220.A1,22744
1,g220.Y,65941
0,g220.A0,22038
0,g220.A1,22901
0,g218.Y,1066
0,g218.A0,1066
0,g218.A1,1066
0,g222.A1,1066
1,g222.Y,12704
1,g222.A0,12704
1,g222.A1,12704
1,g221.Y,12704
1,g218.Y,12704
1,g223.A0,12704
1,g218.A0,4892
1,g218.A1,1969
0,g210.Y,13128
1,g210.A0,13128
1,g210.A1,13128
1,g210.Y,33759
0,g210.A0,13854
0,g210.A1,9949
0,g205.Y,5989
1,g205.A0,5989
1,g205.A1,5989
1,g205.Y,13047
0,g205.A0,7003
0,g205.A1,3044
0,g098.Y,15910
1,g098.A0,15910
1,g098.A1,15910
1,g098.Y,30674
0,g098.A0,14815
0,g098.A1,10889
0,g085.Y,5010
0,g085.A0,5010
0,g085.A1,5010
0,g084.Y,5010
0,g088.A1,5010
1,g084.Y,2911
1,g084.A0,2911
1,g084.A1,2911
1,g085.A0,2911
0,g084.A0,970
0,g084.A1,4040
0,g064.Y,4037
0,g064.A1,4037
0,g064.A0,4037
1,g064.Y,15844
1,g064.A1,5875
1,g064.A0,4964
0,g033.Y,4876
0,g033.A0,4876
0,g033.A1,4876
1,g033.Y,24884
1,g033.A0,9890
1,g033.A1,8977
0,g007.Y,10125
1,g007.Y,5034
1,g007.A0,5034
1,g007.A1,5034
0,g007.A0,1997
0,g007.A1,6153
0,g657.Y,3014
0,g658.A0,3014
0,g658.Y,3976
1,g658.A1,3976
1,g658.A0,3976
1,g657.Y,3976
0,g659.A0,3976
0,g657.A0,3932
1,g657.A0,3058
0,g657.A1,2916
1,g657.A1,4074
1,g629.Y,4012
1,g629.A0,4012
1,g629.A1,4012
1,g628.Y,4012
0,g628.A0,4012
0,g628.A1,4012
0,g627.Y,4012
1,g627.A1,4012
1,g627.A0,4012
1,g630.A0,4012
1,g627.Y,8842
1,g628.A0,8842
0,g627.A1,3825
0,g627.A0,3020
0,g611.Y,7857
0,g612.A0,7857
1,g612.Y,4049
1,g612.A0,4049
1,g612.A1,4049
1,g611.Y,4049
1,g611.A0,4049
1,g611.A1,4049
1,g614.A1,4049
0,g611.A0,2956
0,g611.A1,3911
0,g580.Y,22727
1,g580.Y,5862
0,g580.A0,5862
0,g580.A1,5862
1,g580.A0,5948
1,g580.A1,7834
0,g543.Y,6919
0,g544.A0,6919
1,g544.Y,2947
1,g544.A0,2947
1,g544.A1,2947
1,g543.Y,2947
1,g543.A0,2947
1,g543.A1,2947
1,g542.Y,2947
1,g546.A1,2947
0,g543.A0,2863
0,g543.A1,4056
1,g509.Y,2059
0,g509.A0,2059
0,g509.A1,2059
0,g508.Y,2059
0,g508.A0,2059
0,g508.A1,2059
1,g510.A0,2059
1,g508.Y,14980
1,g509.A0,14980
1,g508.A0,3994
1,g508.A1,4991
0,g506.Y,29655
0,g507.A0,29655
1,g507.Y,6024
1,g507.A0,6024
1,g507.A1,6024
1,g506.Y,6024
1,g506.A0,6024
1,g506.A1,6024
1,g505.Y,6024
1,g510.A1,6024
0,g506.A0,10733
0,g506.A1,7916
0,g463.Y,10993
0,g464.A0,10993
1,g464.Y,4082
1,g464.A0,4082
1,g464.A1,4082
1,g463.Y,4082
1,g463.A0,4082
1,g463.A1,4082
1,g462.Y,4082
1,g465.A0,4082
0,g463.A0,3059
0,g463.A1,3994
0,g449.Y,4930
1,g449.Y,8781
0,g449.A0,5899
1,g449.A0,7812
0,g449.A1,6904
1,g449.A1,6807
0,g445.Y,15801
0,g445.A0,15801
0,g445.A1,15801
0,g444.Y,15801
0,g446.A0,15801
1,g444.Y,2000
0,g444.A0,2000
0,g444.A1,2000
1,g445.A0,2000
1,g444.A0,6907
1,g444.A1,4085
0,g434.Y,2908
0,g434.A0,2908
0,g434.A1,2908
0,g436.A1,2908
1,g436.Y,4096
1,g436.A0,4096
1,g436.A1,4096
1,g435.Y,4096
1,g435.A0,4096
1,g435.A1,4096
1,g434.Y,4096
1,g438.A1,4096
1,g434.A0,1054
1,g434.A1,3042
0,g351.Y,3908
0,g351.A0,3908
0,g351.A1,3908
0,g352.A0,3908
1,g352.Y,24784
1,g352.A0,24784
1,g352.A1,24784
1,g351.Y,24784
1,g350.Y,24784
1,g353.A0,24784
1,g351.A0,7906
1,g351.A1,6892
0,g318.Y,935
0,g318.A1,935
0,g318.A0,935
0,g319.A0,935
1,g319.Y,6068
1,g319.A0,6068
1,g319.A1,6068
1,g318.Y,6068
1,g320.A0,6068
1,g318.A1,1071
1,g318.A0,2011
0,g087.Y,3010
0,g087.A0,3010
0,g087.A1,3010
0,g088.A0,3010
1,g088.Y,31853
1,g088.A0,31853
1,g088.A1,31853
1,g087.Y,31853
1,g085.Y,31853
1,g089.A0,31853
1,g087.A0,5958
1,g087.A1,7023
1,g078.Y,13887
1,g078.A0,13887
1,g078.A1,13887
1,g077.Y,13887
1,g079.A0,13887
1,g077.A1,3005
0,g224.Y,11875
0,g224.A0,11875
0,g224.A1,11875
0,g226.A1,11875
1,g227.Y,27624
1,g227.A1,27624
1,g227.A0,27624
1,g223.Y,27624
1,g226.Y,27624
1,g226.A0,27624
1,g226.A1,27624
1,g224.Y,27624
1,g228.A0,27624
1,g224.A0,4873
1,g224.A1,15948
0,g065.Y,2020
0,g065.A1,2020
0,g065.A0,2020
0,g062.Y,2020
1,g062.A,2020
0,g066.A0,2020
1,g062.Y,3988
0,g062.A,3988
1,g065.A1,3988
0,g237.Y,30000
1,g237.A1,30000
1,g237.A0,30000
1,g237.Y,39595
0,g237.A1,26675
0,g237.A0,8949
0,g195.Y,11929
0,g195.A0,11929
0,g195.A1,11929
1,g195.Y,28869
1,g195.A0,9028
1,g195.A1,10939
0,g099.Y,1999
0,g099.A0,1999
0,g099.A1,1999
0,g100.A0,1999
1,g100.Y,1974
1,g100.A0,1974
1,g100.A1,1974
1,g099.Y,1974
1,g101.A0,1974
1,g099.A0,1011
1,g099.A1,963
0,g051.Y,34396
1,g051.Y,6987
1,g051.A0,6987
1,g051.A1,6987
0,g051.A0,10186
0,g051.A1,10109
0,g570.Y,22148
1,g570.Y,6981
0,g570.A0,6981
0,g570.A1,6981
1,g570.A0,5085
1,g570.A1,11067
0,g428.Y,35850
0,g428.A0,35850
0,g428.A1,35850
1,g428.Y,107590
1,g428.A0,36215
1,g428.A1,35618
0,g226.Y,16876
0,g227.A0,16876
0,g226.A0,3945
0,g258.Y,2029
0,g258.A1,2029
0,g258.A0,2029
0,g255.Y,2029
1,g255.A,2029
0,g259.A0,2029
1,g255.Y,3942
0,g255.A,3942
1,g258.A1,3942
0,g130.Y,10878
1,g130.A0,10878
1,g130.A1,10878
1,g130.Y,134099
0,g130.A0,55414
0,g130.A1,14962
0,g073.Y,1929
0,g073.A0,1929
0,g073.A1,1929
0,g072.Y,1929
0,g072.A0,1929
0,g072.A1,1929
0,g070.Y,1929
0,g074.A0,1929
1,g072.Y,30141
1,g073.A0,30141
1,g072.A0,8985
1,g072.A1,4064
0,g101.Y,5848
0,g101.A0,5848
0,g101.A1,5848
0,g100.Y,5848
0,g102.A0,5848
0,g100.A1,2905
0,g581.Y,5903
0,g581.A0,5903
0,g581.A1,5903
0,g582.A0,5903
1,g582.Y,6005
1,g582.A0,6005
1,g582.A1,6005
1,g581.Y,6005
1,g583.A0,6005
1,g581.A0,1996
1,g581.A1,4009
0,g024.Y,1002
1,g024.A,1002
0,g025.A0,1002
1,g025.Y,6008
1,g025.A1,6008
1,g025.A0,6008
1,g024.Y,6008
0,g024.A,6008
1,g026.A0,6008
0,g670.Y,111244
0,g671.A0,111244
1,g671.A0,8024
1,g671.A1,8024
1,g670.Y,8024
1,g670.A0,8024
1,g670.A1,8024
1,g672.A0,8024
0,g670.A0,21775
0,g670.A1,23830
0,g666.Y,59792
0,g667.A0,59792
1,g667.Y,7054
1,g667.A0,7054
1,g667.A1,7054
1,g666.Y,7054
1,g666.A0,7054
1,g666.A1,7054
1,g665.Y,7054
1,g668.A0,7054
0,g666.A0,24851
0,g666.A1,10165
0,g011.Y,2060
0,g011.A0,2060
0,g011.A1,2060
0,g010.Y,2060
1,g010.A0,2060
1,g010.A1,2060
0,g018.A1,2060
1,g010.Y,21868
1,g011.A0,21868
0,g010.A0,3959
0,g010.A1,10021
1,g120.Y,9866
0,g120.A0,9866
0,g120.A1,9866
0,g119.Y,9866
1,g121.A0,9866
1,g119.Y,1930
0,g119.A0,1930
0,g119.A1,1930
1,g120.A0,1930
1,g119.A0,4917
1,g119.A1,1997
1,g704.Y,107662
1,g704.A0,107662
1,g704.A1,107662
1,g706.A1,107662
0,g704.A0,7927
0,g704.A1,107707
0,g420.Y,24000
0,g420.A0,24000
0,g420.A1,24000
0,g424.A1,24000
1,g424.Y,95405
1,g424.A1,95405
1,g424.A0,95405
1,g420.Y,95405
1,g423.Y,95405
1,g426.A1,95405
1,g420.A0,35521
1,g420.A1,23813
0,g438.Y,11956
0,g438.A0,11956
0,g438.A1,11956
0,g437.Y,11956
0,g436.Y,11956
0,g439.A0,11956
1,g437.Y,2000
0,g437.A1,2000
0,g437.A0,2000
1,g438.A0,2000
1,g437.A1,2057
1,g437.A0,3949
0,g384.Y,88216
1,g384.Y,32899
1,g384.A0,32899
1,g384.A1,32899
0,g384.A0,32867
0,g384.A1,28562
0,g379.Y,10803
0,g379.A0,10803
0,g379.A1,10803
1,g379.Y,29166
1,g379.A0,9979
1,g379.A1,12165
0,g361.Y,4922
0,g361.A0,4922
0,g361.A1,4922
1,g361.Y,12079
1,g361.A0,4042
1,g361.A1,5077
0,g345.Y,25255
1,g345.A0,25255
1,g345.A1,25255
1,g345.Y,69618
0,g345.A0,24797
0,g345.A1,22848
0,g315.Y,62520
1,g315.Y,25783
1,g315.A0,25783
1,g315.A1,25783
0,g315.A0,27680
0,g315.A1,19837
0,g250.Y,16107
1,g250.Y,6077
1,g250.A0,6077
1,g250.A1,6077
0,g250.A0,4041
0,g250.A1,8032
0,g169.Y,2060
0,g169.A1,2060
0,g169.A0,2060
0,g167.Y,2060
0,g167.A0,2060
0,g167.A1,2060
0,g170.A0,2060
1,g167.Y,4015
1,g169.A1,4015
1,g167.A0,2036
1,g167.A1,963
0,g125.Y,116339
0,g125.A0,116339
0,g125.A1,116339
1,g125.Y,355774
1,g125.A0,116339
1,g125.A1,119386
0,g081.Y,2017
0,g081.A0,2017
0,g081.A1,2017
0,g080.Y,2017
0,g080.A1,2017
0,g080.A0,2017
0,g082.A0,2017
1,g080.Y,10022
1,g081.A0,10022
1,g080.A1,1953
1,g080.A0,4064
0,g079.Y,6922
0,g079.A0,6922
0,g079.A1,6922
0,g078.Y,6922
0,g082.A1,6922
0,g078.A1,4942
0,g046.Y,16853
1,g046.A0,16853
1,g046.A1,16853
1,g046.Y,64713
0,g046.A0,17988
0,g046.A1,22991
0,g039.Y,94605
1,g039.A,94605
1,g039.Y,92303
0,g039.A,92303
0,g027.Y,5107
1,g027.A1,5107
1,g027.A0,5107
1,g027.Y,16911
0,g027.A1,5012
0,g027.A0,5960
0,g435.Y,6971
0,g436.A0,6971
0,g435.A0,3996
0,g435.A1,2014
0,g407.Y,7995
1,g407.A1,7995
1,g407.A0,7995
1,g407.Y,16638
0,g407.A1,6842
0,g407.A0,3925
0,g396.Y,50711
1,g396.Y,17958
1,g396.A0,17958
1,g396.A1,17958
0,g396.A0,13853
0,g396.A1,26939
1,g263.Y,6989
1,g263.A0,6989
1,g263.A1,6989
1,g262.Y,6989
1,g264.A0,6989
1,g262.A1,4982
0,g256.Y,18704
0,g256.A0,18704
0,g256.A1,18704
1,g256.Y,69941
1,g256.A0,21178
1,g256.A1,26807
0,g244.Y,27774
0,g245.A0,27774
0,g246.Y,8035
0,g246.A0,8035
0,g246.A1,8035
0,g245.Y,8035
1,g245.A0,8035
1,g245.A1,8035
0,g243.Y,8035
1,g244.Y,8035
1,g244.A1,8035
1,g244.A0,8035
0,g247.A0,8035
0,g244.A1,9852
0,g244.A0,7958
0,g203.Y,2032
0,g203.A0,2032
0,g203.A1,2032
0,g204.A0,2032
1,g204.Y,4980
1,g204.A0,4980
1,g204.A1,4980
1,g203.Y,4980
1,g207.A1,4980
1,g203.A0,1025
1,g203.A1,3955
0,g173.Y,927
0,g173.A0,927
0,g173.A1,927
0,g174.A0,927
1,g174.Y,2049
1,g174.A0,2049
1,g174.A1,2049
1,g173.Y,2049
1,g175.A0,2049
1,g173.A0,1034
1,g173.A1,1015
0,g172.Y,6079
1,g172.A0,6079
1,g172.A1,6079
1,g172.Y,28540
0,g172.A0,5930
0,g172.A1,12733
0,g164.Y,24706
1,g164.Y,7805
0,g164.A0,7805
0,g164.A1,7805
1,g164.A0,6712
1,g164.A1,11087
0,g143.Y,39712
1,g143.Y,7883
0,g143.A0,7883
0,g143.A1,7883
1,g143.A0,9917
1,g143.A1,17895
0,g122.Y,969
0,g122.A0,969
0,g122.A1,969
0,g124.A1,969
1,g124.Y,4083
1,g124.A0,4083
1,g124.A1,4083
1,g122.Y,4083
1,g127.A1,4083
1,g122.A0,1002
1,g122.A1,1045
1,g082.Y,42752
1,g082.A0,42752
1,g082.A1,42752
1,g081.Y,42752
1,g079.Y,42752
1,g083.A0,42752
1,g079.A1,14776
0,g495.Y,3046
0,g495.A0,3046
0,g495.A1,3046
0,g496.A0,3046
1,g496.Y,3016
1,g496.A0,3016
1,g496.A1,3016
1,g495.Y,3016
1,g494.Y,3016
0,g494.A,3016
1,g497.A0,3016
1,g495.A0,1975
1,g495.A1,1041
0,g326.Y,11934
1,g326.A0,11934
1,g326.A1,11934
1,g326.Y,23957
0,g326.A0,3840
0,g326.A1,14119
0,g276.Y,20034
1,g276.Y,7076
1,g276.A0,7076
1,g276.A1,7076
0,g276.A0,4912
0,g276.A1,8078
0,g159.Y,7947
0,g159.A0,7947
0,g159.A1,7947
1,g159.Y,16931
1,g159.A0,5076
1,g159.A1,7869
1,g706.Y,141224
1,g707.A0,141224
1,g132.Y,252833
1,g133.A0,252833
1,g132.A1,49537
1,g048.Y,17960
1,g048.A1,17960
1,g048.A0,17960
1,g044.Y,17960
1,g047.Y,17960
1,g050.A1,17960
1,g047.A0,15941
1,g597.Y,1004
0,g597.A0,1004
0,g597.A1,1004
0,g596.Y,1004
0,g596.A0,1004
0,g596.A1,1004
1,g598.A0,1004
1,g596.Y,7057
1,g597.A0,7057
1,g596.A0,3094
1,g596.A1,988
0,g340.Y,1025
0,g340.A1,1025
0,g340.A0,1025
0,g341.A0,1025
1,g341.Y,8066
1,g341.A0,8066
1,g341.A1,8066
1,g340.Y,8066
1,g342.A0,8066
1,g340.A1,2013
1,g340.A0,2034
0,g041.Y,1955
0,g041.A0,1955
0,g041.A1,1955
1,g041.Y,12106
1,g041.A0,4017
1,g041.A1,3030
0,\len[4],12112
0,g718.Y,12112
0,g718.A0,12112
0,g718.A1,12112
0,g717.Y,12112
0,g717.A0,12112
0,g717.A1,12112
0,g716.Y,12112
1,g717.Y,83554
1,g718.A0,83554
1,g717.A0,35726
1,g717.A1,11892
1,g456.Y,2021
0,g456.A0,2021
0,g456.A1,2021
0,g455.Y,2021
1,g457.A0,2021
1,g455.Y,930
1,g455.A0,930
1,g455.A1,930
1,g456.A0,930
0,g455.A0,1034
0,g455.A1,987
0,g425.Y,47610
0,g425.A0,47610
0,g425.A1,47610
1,g425.Y,334991
1,g425.A0,143438
1,g425.A1,47867
0,g042.Y,1010
0,g042.A0,1010
0,g042.A1,1010
0,g043.A0,1010
1,g043.Y,7129
1,g043.A0,7129
1,g043.A1,7129
1,g042.Y,7129
1,g044.A0,7129
1,g042.A0,2019
1,g042.A1,3046
0,g680.Y,5024
1,g680.A1,5024
1,g680.A0,5024
0,g683.A1,5024
1,g683.Y,11849
1,g683.A1,11849
1,g683.A0,11849
1,g680.Y,11849
1,g682.Y,11849
1,g682.A0,11849
1,g682.A1,11849
1,g684.A0,11849
0,g680.A1,5968
0,g680.A0,2906
0,g588.Y,29032
1,g588.Y,3999
0,g588.A1,3999
0,g588.A0,3999
1,g588.A1,2900
1,g588.A0,14133
0,g457.Y,5006
0,g457.A1,5006
0,g457.A0,5006
0,g456.Y,5006
0,g458.A0,5006
1,g456.A1,3077
0,g447.Y,12723
1,g447.Y,10933
0,g447.A0,10982
1,g447.A0,12674
0,g447.A1,11819
1,g447.A1,11837
0,g354.Y,4943
0,g354.A0,4943
0,g354.A1,4943
1,g354.Y,16989
1,g354.A0,5013
1,g354.A1,7031
1,g324.Y,12132
1,g324.A1,12132
1,g324.A0,12132
1,g320.Y,12132
1,g323.Y,12132
0,g323.A0,12132
0,g323.A1,12132
0,g321.Y,12132
1,g325.A0,12132
1,g321.Y,3123
0,g321.A1,3123
0,g321.A0,3123
1,g323.A1,3123
1,g321.A1,9108
1,g321.A0,3024
0,g309.Y,5035
0,g309.A0,5035
0,g309.A1,5035
1,g309.Y,15962
1,g309.A0,6863
1,g309.A1,2951
0,g300.Y,6011
1,g300.Y,8801
0,g300.A0,7930
1,g300.A0,6882
0,g300.A1,6847
1,g300.A1,7965
0,g293.Y,2905
0,g293.A1,2905
0,g293.A0,2905
1,g293.Y,14973
1,g293.A1,1956
1,g293.A0,7945
0,g284.Y,2957
0,g284.A0,2957
0,g284.A1,2957
1,g284.Y,7788
1,g284.A0,3955
1,g284.A1,1927
0,g239.Y,4074
0,g239.A1,4074
0,g239.A0,4074
0,g236.Y,4074
0,g238.Y,4074
1,g238.A0,4074
1,g238.A1,4074
0,g241.A1,4074
1,g238.Y,14979
1,g239.A0,14979
0,g238.A0,6000
0,g238.A1,3063
0,g192.Y,1029
0,g192.A1,1029
0,g192.A0,1029
0,g193.A0,1029
1,g193.Y,12978
1,g193.A0,12978
1,g193.A1,12978
1,g192.Y,12978
1,g192.A1,5949
1,g192.A0,1978
0,g187.Y,7973
1,g187.A1,7973
1,g187.A0,7973
1,g187.Y,23107
0,g187.A1,10034
0,g187.A0,7030
0,g142.Y,9850
0,g142.A0,9850
0,g142.A1,9850
1,g142.Y,26572
1,g142.A0,8911
1,g142.A1,9855
0,g138.Y,6133
1,g138.A1,6133
1,g138.A0,6133
1,g138.Y,18034
0,g138.A1,6099
0,g138.A0,7914
0,g127.Y,4018
0,g127.A0,4018
0,g127.A1,4018
0,g126.Y,4018
1,g126.A0,4018
1,g126.A1,4018
0,g124.Y,4018
0,g128.A0,4018
1,g126.Y,7881
1,g127.A0,7881
0,g126.A0,1949
0,g126.A1,4906
0,g148.Y,3867
0,g148.A1,3867
0,g148.A0,3867
1,g148.Y,29106
1,g148.A1,1986
1,g148.A0,17044
0,g147.Y,1012
1,g147.A1,1012
1,g147.A0,1012
0,g149.A1,1012
1,g150.Y,13015
1,g150.A1,13015
1,g150.A0,13015
1,g146.Y,13015
1,g149.Y,13015
1,g149.A0,13015
1,g149.A1,13015
1,g147.Y,13015
1,g151.A0,13015
0,g147.A1,974
0,g147.A0,4981
0,g108.Y,43657
1,g108.Y,5987
0,g108.A1,5987
0,g108.A0,5987
1,g108.A1,6918
1,g108.A0,18867
1,g085.A1,18958
0,g563.Y,18039
1,g563.Y,5935
1,g563.A0,5935
1,g563.A1,5935
0,g563.A0,4975
0,g563.A1,6962
0,g557.Y,15885
0,g558.A0,15885
1,g558.Y,3050
1,g558.A0,3050
1,g558.A1,3050
1,g557.Y,3050
1,g557.A1,3050
1,g557.A0,3050
1,g559.A0,3050
0,g557.A1,1907
0,g557.A0,6914
0,g536.Y,14971
0,g536.A1,14971
0,g536.A0,14971
0,g530.Y,14971
0,g535.Y,14971
0,g535.A0,14971
0,g535.A1,14971
0,g534.Y,14971
0,g533.Y,14971
0,g537.A0,14971
1,g534.Y,2934
1,g534.A1,2934
1,g534.A0,2934
1,g535.A0,2934
0,g534.A1,1992
0,g534.A0,6892
0,g264.Y,12800
0,g264.A0,12800
0,g264.A1,12800
0,g263.Y,12800
0,g266.A1,12800
0,g263.A1,4907
0,g168.Y,7005
0,g168.A0,7005
0,g168.A1,7005
1,g168.Y,27838
1,g168.A0,10933
1,g168.A1,7922
0,g123.Y,5984
0,g123.A1,5984
0,g123.A0,5984
1,g123.Y,15851
1,g123.A1,5942
1,g123.A0,4946
0,g116.Y,23765
1,g116.A1,23765
1,g116.A0,23765
1,g116.Y,57046
0,g116.A1,17909
0,g116.A0,24089
0,g068.Y,10047
0,g068.A1,10047
0,g068.A0,10047
1,g068.Y,32485
1,g068.A1,17635
1,g068.A0,7907
0,g310.Y,4013
0,g310.A1,4013
0,g310.A0,4013
0,g311.A0,4013
1,g311.Y,29708
1,g311.A0,29708
1,g311.A1,29708
1,g310.Y,29708
1,g308.Y,29708
1,g312.A0,29708
1,g310.A1,6967
1,g310.A0,9894
0,g026.Y,7844
0,g026.A1,7844
0,g026.A0,7844
0,g025.Y,7844
0,g035.A1,7844
0,g025.A1,3954
1,g401.Y,27063
0,g401.A0,27063
0,g401.A1,27063
0,g400.Y,27063
1,g402.A0,27063
1,g400.Y,1996
0,g400.A1,1996
0,g400.A0,1996
1,g401.A0,1996
1,g400.A1,1970
1,g400.A0,12108
0,g273.Y,16004
1,g273.Y,13110
1,g273.A1,13110
1,g273.A0,13110
0,g273.A1,7038
0,g273.A0,4927
0,g015.Y,16987
0,g015.A1,16987
0,g015.A0,16987
1,g015.Y,58790
1,g015.A1,21073
1,g015.A0,16955
0,g092.Y,5029
1,g092.A,5029
0,g094.A1,5029
1,g094.Y,947
1,g094.A0,947
1,g094.A1,947
1,g092.Y,947
0,g092.A,947
1,g096.A1,947
0,g510.Y,63437
0,g510.A0,63437
0,g510.A1,63437
0,g509.Y,63437
0,g507.Y,63437
0,g511.A0,63437
1,g509.A1,15030
0,g494.Y,7959
1,g494.A,7959
0,g496.A1,7959
0,g662.Y,19898
0,g662.A0,19898
0,g662.A1,19898
0,g661.Y,19898
0,g660.Y,19898
0,g663.A0,19898
1,g661.Y,1015
0,g661.A0,1015
0,g661.A1,1015
1,g662.A0,1015
1,g661.A0,4830
1,g661.A1,2971
0,g505.Y,9861
0,g505.A0,9861
0,g505.A1,9861
0,g504.Y,9861
0,g507.A1,9861
1,g504.Y,2000
0,g504.A0,2000
0,g504.A1,2000
1,g505.A0,2000
1,g504.A0,3036
1,g504.A1,2882
0,g480.Y,16920
0,g481.A0,16920
1,g481.Y,1984
1,g481.A0,1984
1,g481.A1,1984
1,g480.Y,1984
1,g480.A1,1984
1,g480.A0,1984
1,g482.A0,1984
0,g480.A1,1972
0,g480.A0,9005
0,g473.Y,26636
0,g473.A0,26636
0,g473.A1,26636
0,g472.Y,26636
0,g469.Y,26636
0,g474.A0,26636
1,g469.Y,965
0,g469.A0,965
0,g469.A1,965
1,g473.A1,965
1,g469.A0,12818
1,g469.A1,1951
0,g213.Y,5939
0,g213.A1,5939
0,g213.A0,5939
0,g209.Y,5939
0,g209.A1,5939
0,g209.A0,5939
0,g212.Y,5939
1,g212.A1,5939
1,g212.A0,5939
0,g214.A0,5939
1,g212.Y,6072
1,g213.A0,6072
0,g212.A1,4083
0,g212.A0,1989
1,g160.Y,41894
1,g161.A0,41894
0,g160.A0,5043
0,g542.Y,4005
1,g542.A1,4005
1,g542.A0,4005
0,g544.A1,4005
0,g542.A1,992
0,g542.A0,1955
0,g342.Y,3026
0,g342.A1,3026
0,g342.A0,3026
0,g341.Y,3026
0,g344.A1,3026
0,g341.A1,2001
0,g139.Y,1003
0,g139.A0,1003
0,g139.A1,1003
0,g140.A0,1003
1,g140.Y,19779
1,g140.A0,19779
1,g140.A1,19779
1,g139.Y,19779
1,g136.Y,19779
1,g141.A0,19779
1,g139.A0,3914
1,g139.A1,4903
0,g462.Y,10032
0,g462.A0,10032
0,g462.A1,10032
0,g461.Y,10032
0,g460.Y,10032
1,g460.A,10032
0,g464.A1,10032
1,g461.Y,1025
0,g461.A1,1025
0,g461.A0,1025
1,g462.A0,1025
1,g461.A1,3103
1,g461.A0,2985
0,g136.Y,1030
0,g136.A0,1030
0,g136.A1,1030
0,g140.A1,1030
1,g136.A0,2962
1,g136.A1,3925
0,g107.Y,9999
1,g107.A,9999
0,g109.A1,9999
0,g109.Y,1003
1,g109.A1,1003
1,g109.A0,1003
1,g107.Y,1003
0,g107.A,1003
0,g110.A0,1003
0,g491.Y,2031
1,g491.A,2031
0,g493.A1,2031
1,g493.Y,2958
1,g493.A0,2958
1,g493.A1,2958
1,g491.Y,2958
0,g491.A,2958
1,g497.A1,2958
0,g053.Y,5981
1,g053.A,5981
0,g054.A0,5981
0,g054.Y,930
1,g054.A0,930
1,g054.A1,930
1,g053.Y,930
0,g053.A,930
0,g598.Y,24977
0,g598.A0,24977
0,g598.A1,24977
0,g597.Y,24977
0,g595.Y,24977
0,g601.A1,24977
1,g597.A1,2042
0,g343.Y,1080
0,g343.A0,1080
0,g343.A1,1080
0,g344.A0,1080
1,g344.Y,22113
1,g344.A0,22113
1,g344.A1,22113
1,g343.Y,22113
1,g342.Y,22113
1,g348.A1,22113
1,g343.A0,3980
1,g343.A1,6018
0,g060.Y,9928
1,g060.Y,8875
1,g060.A1,8875
1,g060.A0,8875
0,g060.A1,4876
0,g060.A0,3047
0,g014.Y,5038
1,g014.Y,8001
1,g014.A1,8001
1,g014.A0,8001
0,g014.A1,3007
0,g014.A0,2031
0,g565.Y,7034
0,g565.A0,7034
0,g565.A1,7034
0,g564.Y,7034
0,g562.Y,7034
0,g566.A0,7034
1,g562.Y,1973
1,g562.A1,1973
1,g562.A0,1973
1,g565.A1,1973
0,g562.A1,3003
0,g562.A0,1990
0,g548.Y,27123
1,g548.Y,3150
0,g548.A0,3150
0,g548.A1,3150
1,g548.A0,11097
1,g548.A1,4960
0,g470.Y,30710
1,g470.Y,2951
1,g470.A0,2951
1,g470.A1,2951
0,g470.A0,15811
0,g470.A1,3966
0,g422.Y,15841
0,g422.A0,15841
0,g422.A1,15841
1,g422.Y,111742
1,g422.A0,47946
1,g422.A1,16060
0,g621.Y,3917
0,g621.A0,3917
0,g621.A1,3917
0,g622.A0,3917
1,g622.Y,5929
1,g622.A1,5929
1,g622.A0,5929
1,g621.Y,5929
1,g631.A1,5929
1,g621.A0,999
1,g621.A1,2913
0,g330.Y,6895
1,g330.A,6895
1,g330.Y,4904
0,g330.A,4904
0,g475.Y,15897
1,g475.A,15897
1,g475.Y,3144
0,g475.A,3144
0,g409.Y,5008
0,g409.A1,5008
0,g409.A0,5008
0,g408.Y,5008
0,g410.A0,5008
1,g408.Y,4993
1,g408.A0,4993
1,g408.A1,4993
1,g409.A0,4993
0,g408.A0,2924
0,g408.A1,2084
0,g623.Y,4011
1,g623.A,4011
0,g624.A1,4011
1,g624.Y,1967
1,g624.A0,1967
1,g624.A1,1967
1,g623.Y,1967
0,g623.A,1967
1,g625.A0,1967
0,g599.Y,24900
1,g599.A,24900
1,g599.Y,8032
0,g599.A,8032
0,g207.Y,7083
0,g207.A1,7083
0,g207.A0,7083
0,g204.Y,7083
0,g206.Y,7083
1,g206.A0,7083
1,g206.A1,7083
0,g214.A1,7083
1,g206.Y,11973
1,g207.A0,11973
0,g206.A0,2937
0,g206.A1,6971
1,g301.Y,2923
0,g301.A1,2923
0,g301.A0,2923
0,g299.Y,2923
1,g299.A,2923
1,g302.A0,2923
1,g299.Y,3051
0,g299.A,3051
1,g301.A1,3051
1,g102.Y,9817
1,g102.A1,9817
1,g102.A0,9817
1,g101.Y,9817
1,g103.A0,9817
1,g101.A1,7843
1,g081.A1,5970
1,g066.Y,31660
1,g066.A0,31660
1,g066.A1,31660
1,g065.Y,31660
1,g061.Y,31660
1,g067.A0,31660
1,g065.A0,9874
0,g275.Y,1938
0,g275.A0,1938
0,g275.A1,1938
0,g274.Y,1938
0,g274.A0,1938
0,g274.A1,1938
0,g272.Y,1938
0,g279.A1,1938
1,g272.Y,16915
1,g272.A1,16915
1,g272.A0,16915
1,g275.A1,16915
0,g272.A1,962
0,g272.A0,976
0,g518.Y,12023
0,g518.A0,12023
0,g518.A1,12023
0,g517.Y,12023
0,g517.A0,12023
0,g517.A1,12023
0,g519.A0,12023
1,g517.Y,28785
1,g518.A0,28785
1,g517.A0,10010
1,g517.A1,11876
0,g277.Y,25980
1,g277.Y,4113
1,g277.A0,4113
1,g277.A1,4113
0,g277.A0,12036
0,g277.A1,6004
0,g265.Y,1036
0,g265.A0,1036
0,g265.A1,1036
0,g266.A0,1036
1,g266.Y,19960
1,g266.A0,19960
1,g266.A1,19960
1,g265.Y,19960
1,g264.Y,19960
1,g267.A0,19960
1,g265.A0,9008
1,g265.A1,998
0,g095.Y,47795
1,g095.Y,6997
1,g095.A0,6997
1,g095.A1,6997
0,g095.A0,15945
0,g095.A1,12898
1,g018.Y,33899
1,g018.A0,33899
1,g018.A1,33899
1,g017.Y,33899
1,g011.Y,33899
1,g019.A0,33899
1,g011.A1,1965
0,g659.Y,7106
1,g659.A0,7106
1,g659.A1,7106
1,g658.Y,7106
0,g660.A0,7106
0,g658.A1,3099
0,g628.Y,15807
0,g629.A0,15807
1,g628.A1,4979
0,g591.Y,70911
0,g591.A1,70911
0,g591.A0,70911
0,g579.Y,70911
0,g590.Y,70911
0,g590.A0,70911
0,g590.A1,70911
0,g589.Y,70911
0,g587.Y,70911
0,g592.A0,70911
1,g589.Y,1993
1,g589.A0,1993
1,g589.A1,1993
1,g590.A0,1993
0,g589.A0,12045
0,g589.A1,7893
0,g546.Y,15930
0,g546.A0,15930
0,g546.A1,15930
0,g545.Y,15930
0,g544.Y,15930
0,g547.A0,15930
0,g450.Y,6808
1,g450.A,6808
0,g451.A0,6808
1,g451.Y,2940
1,g451.A1,2940
1,g451.A0,2940
1,g450.Y,2940
0,g450.A,2940
1,g452.A0,2940
1,g446.Y,5003
1,g446.A1,5003
1,g446.A0,5003
1,g445.Y,5003
1,g452.A1,5003
1,g445.A1,3003
0,g320.Y,1957
0,g320.A1,1957
0,g320.A0,1957
0,g319.Y,1957
0,g324.A1,1957
0,g319.A1,1022
0,g089.Y,8020
0,g089.A0,8020
0,g089.A1,8020
0,g088.Y,8020
0,g090.A0,8020
0,g499.Y,13990
1,g499.A0,13990
1,g499.A1,13990
1,g499.Y,27511
0,g499.A0,6901
0,g499.A1,16608
0,g440.Y,26857
1,g440.Y,6005
1,g440.A1,6005
1,g440.A0,6005
0,g440.A1,8030
0,g440.A0,11893
0,g397.Y,12073
1,g397.A0,12073
1,g397.A1,12073
1,g397.Y,68449
0,g397.A0,27646
0,g397.A1,11911
0,g376.Y,991
0,g376.A0,991
0,g376.A1,991
0,g377.A0,991
1,g377.Y,5907
1,g377.A1,5907
1,g377.A0,5907
1,g375.Y,5907
1,g376.Y,5907
1,g378.A0,5907
1,g376.A0,3007
1,g376.A1,972
0,g308.Y,3942
0,g308.A0,3942
0,g308.A1,3942
0,g307.Y,3942
0,g307.A0,3942
0,g307.A1,3942
0,g306.Y,3942
0,g311.A1,3942
1,g307.Y,15888
1,g308.A0,15888
1,g307.A0,7941
1,g307.A1,1971
1,g264.A1,8942
0,g248.Y,8956
1,g248.A0,8956
1,g248.A1,8956
1,g248.Y,6996
0,g248.A0,3943
0,g248.A1,3053
0,g240.Y,2032
0,g240.A1,2032
0,g240.A0,2032
0,g241.A0,2032
1,g241.Y,23974
1,g241.A0,23974
1,g241.A1,23974
1,g240.Y,23974
1,g239.Y,23974
1,g242.A0,23974
1,g240.A1,6053
1,g240.A0,4938
0,g196.Y,2981
0,g196.A1,2981
0,g196.A0,2981
1,g196.Y,11127
1,g196.A1,3049
1,g196.A0,7079
0,g571.Y,6091
0,g571.A0,6091
0,g571.A1,6091
0,g572.A0,6091
1,g572.Y,3036
1,g572.A1,3036
1,g572.A0,3036
1,g571.Y,3036
1,g574.A1,3036
1,g571.A0,1008
1,g571.A1,1007
1,g054.Y,44286
0,g054.A1,10114
0,g633.Y,10027
0,g633.A1,10027
0,g633.A0,10027
0,g635.A1,10027
1,g635.Y,4031
1,g635.A0,4031
1,g635.A1,4031
1,g634.Y,4031
1,g634.A0,4031
1,g634.A1,4031
1,g633.Y,4031
1,g639.A1,4031
1,g633.A1,2094
1,g633.A0,1937
0,g617.Y,25845
0,g618.A0,25845
1,g618.Y,6030
1,g618.A0,6030
1,g618.A1,6030
1,g617.Y,6030
0,g617.A1,6030
0,g617.A0,6030
1,g616.Y,6030
1,g619.A0,6030
1,g617.A1,12866
1,g617.A0,4036
0,g715.Y,8016
0,g715.A0,8016
0,g715.A1,8016
0,g714.Y,8016
0,g714.A0,8016
0,g714.A1,8016
0,g713.Y,8016
0,g716.A0,8016
1,g714.Y,56086
1,g715.A0,56086
1,g714.A0,23931
1,g714.A1,8007
0,g700.Y,53662
1,g700.A1,53662
1,g700.A0,53662
0,g701.A0,53662
1,g701.Y,9960
1,g701.A0,9960
1,g701.A1,9960
1,g700.Y,9960
1,g708.A1,9960
0,g700.A1,1944
0,g700.A0,8016
0,g556.Y,16726
1,g556.Y,5028
1,g556.A1,5028
1,g556.A0,5028
0,g556.A1,5942
0,g556.A0,5852
0,g523.Y,3994
1,g523.A0,3994
1,g523.A1,3994
0,g524.A0,3994
0,g524.Y,3930
1,g524.A1,3930
1,g524.A0,3930
1,g523.Y,3930
0,g525.A0,3930
0,g523.A0,938
0,g523.A1,2992
0,g526.Y,17777
0,g526.A0,17777
0,g526.A1,17777
0,g525.Y,17777
0,g522.Y,17777
0,g527.A0,17777
1,g522.Y,3013
0,g522.A0,3013
0,g522.A1,3013
1,g526.A1,3013
1,g522.A0,8939
1,g522.A1,2950
0,g389.Y,2008
0,g389.A0,2008
0,g389.A1,2008
0,g391.A1,2008
1,g391.Y,22945
1,g391.A0,22945
1,g391.A1,22945
1,g390.Y,22945
1,g389.Y,22945
1,g392.A0,22945
1,g389.A0,15045
1,g389.A1,1980
0,g350.Y,4967
1,g350.A0,4967
1,g350.A1,4967
0,g352.A1,4967
0,g350.A0,1897
0,g350.A1,14873
0,g305.Y,10058
1,g305.Y,3973
1,g305.A1,3973
1,g305.A0,3973
0,g305.A1,3014
0,g305.A0,4044
0,g287.Y,12966
0,g287.A0,12966
0,g287.A1,12966
1,g287.Y,34864
1,g287.A0,13017
1,g287.A1,12979
0,g583.Y,17757
0,g583.A1,17757
0,g583.A0,17757
0,g582.Y,17757
0,g584.A0,17757
0,g582.A1,5919
1,g439.Y,6096
1,g439.A1,6096
1,g439.A0,6096
1,g438.Y,6096
1,g442.A1,6096
0,g380.Y,963
0,g380.A0,963
0,g380.A1,963
0,g381.A0,963
1,g381.Y,6034
1,g381.A1,6034
1,g381.A0,6034
1,g380.Y,6034
1,g382.A0,6034
1,g380.A0,2995
1,g380.A1,1001
0,g362.Y,1007
0,g362.A0,1007
0,g362.A1,1007
0,g363.A0,1007
1,g363.Y,16091
1,g363.A1,16091
1,g363.A0,16091
1,g362.Y,16091
1,g364.A0,16091
1,g362.A0,4079
1,g362.A1,5047
0,g676.Y,7927
1,g676.A0,7927
1,g676.A1,7927
0,g677.A0,7927
1,g677.Y,16139
1,g677.A0,16139
1,g677.A1,16139
1,g676.Y,16139
1,g678.A0,16139
0,g676.A0,4096
0,g676.A1,7906
0,g355.Y,992
0,g355.A1,992
0,g355.A0,992
0,g356.A0,992
1,g356.Y,11031
1,g356.A0,11031
1,g356.A1,11031
1,g355.Y,11031
1,g358.A1,11031
1,g355.A1,1965
1,g355.A0,3104
1,g347.Y,188691
1,g348.A0,188691
1,g347.A1,14983
0,g614.Y,19823
0,g614.A0,19823
0,g614.A1,19823
0,g613.Y,19823
0,g612.Y,19823
0,g615.A0,19823
1,g613.Y,1054
1,g613.A1,1054
1,g613.A0,1054
1,g614.A0,1054
0,g613.A1,3998
0,g613.A0,3878
1,g505.A1,3017
0,g486.Y,34653
0,g487.A0,34653
1,g487.Y,7013
1,g487.A0,7013
1,g487.A1,7013
1,g486.Y,7013
0,g486.A1,7013
0,g486.A0,7013
1,g488.A0,7013
1,g486.A1,21690
1,g486.A0,3962
0,g316.Y,22718
1,g316.A,22718
1,g316.Y,52688
0,g316.A,52688
0,g252.Y,3949
0,g252.A0,3949
0,g252.A1,3949
0,g251.Y,3949
0,g253.A0,3949
1,g251.Y,3034
0,g251.A1,3034
0,g251.A0,3034
1,g252.A0,3034
1,g251.A1,927
1,g251.A0,2008
1,g170.Y,16810
1,g170.A0,16810
1,g170.A1,16810
1,g169.Y,16810
1,g166.Y,16810
1,g171.A0,16810
1,g169.A0,3927
0,g358.Y,4871
0,g358.A0,4871
0,g358.A1,4871
0,g356.Y,4871
0,g359.A0,4871
0,g356.A1,3879
0,g681.Y,42987
1,g681.Y,19856
1,g681.A1,19856
1,g681.A0,19856
0,g681.A1,24903
0,g681.A0,6010
0,g442.Y,25699
0,g442.A0,25699
0,g442.A1,25699
0,g441.Y,25699
0,g439.Y,25699
0,g443.A0,25699
1,g441.Y,3073
1,g441.A0,3073
1,g441.A1,3073
1,g442.A0,3073
0,g441.A0,16878
0,g441.A1,2968
0,g406.Y,4022
0,g406.A1,4022
0,g406.A0,4022
0,g405.Y,4022
0,g410.A1,4022
1,g405.Y,11775
1,g405.A0,11775
1,g405.A1,11775
1,g406.A0,11775
0,g405.A0,2014
0,g405.A1,2008
0,g702.Y,29828
0,g702.A0,29828
0,g702.A1,29828
0,g703.A0,29828
1,g703.Y,39723
1,g703.A1,39723
1,g703.A0,39723
1,g702.Y,39723
1,g707.A1,39723
1,g702.A0,7917
1,g702.A1,29772
1,g638.Y,2973
1,g638.A1,2973
1,g638.A0,2973
1,g637.Y,2973
0,g637.A1,2973
0,g637.A0,2973
0,g636.Y,2973
1,g639.A0,2973
1,g636.Y,931
1,g636.A1,931
1,g636.A0,931
1,g637.A1,931
0,g636.A1,996
0,g636.A0,966
0,g610.Y,18952
0,g610.A0,18952
0,g610.A1,18952
0,g609.Y,18952
1,g609.Y,5022
1,g609.A1,5022
1,g609.A0,5022
1,g610.A0,5022
0,g609.A1,8982
0,g609.A0,3985
0,g492.Y,14941
1,g492.Y,3969
1,g492.A1,3969
1,g492.A0,3969
0,g492.A1,4910
0,g492.A0,7044
0,g453.Y,53453
0,g453.A1,53453
0,g453.A0,53453
0,g443.Y,53453
0,g452.Y,53453
0,g452.A0,53453
0,g452.A1,53453
0,g451.Y,53453
0,g446.Y,53453
0,g454.A0,53453
0,g446.A1,4968
0,g296.Y,2094
0,g296.A0,2094
0,g296.A1,2094
0,g297.A0,2094
1,g297.Y,8994
1,g297.A0,8994
1,g297.A1,8994
1,g296.Y,8994
1,g295.Y,8994
1,g298.A0,8994
1,g296.A0,3963
1,g296.A1,1007
0,g249.Y,2965
1,g249.A0,2965
1,g249.A1,2965
0,g253.A1,2965
1,g253.Y,8977
1,g253.A0,8977
1,g253.A1,8977
1,g252.Y,8977
1,g249.Y,8977
1,g254.A0,8977
0,g249.A0,2021
0,g249.A1,3980
1,g090.Y,64604
1,g090.A1,64604
1,g090.A0,64604
1,g083.Y,64604
1,g089.Y,64604
1,g091.A0,64604
1,g089.A1,14898
0,g604.Y,59695
0,g607.A1,59695
1,g607.A0,4096
1,g607.A1,4096
1,g606.Y,4096
1,g606.A0,4096
1,g606.A1,4096
1,g604.Y,4096
0,g604.A0,4096
0,g604.A1,4096
1,g608.A0,4096
1,g604.A0,11807
1,g604.A1,11965
0,g028.Y,4946
1,g028.A0,4946
1,g028.A1,4946
0,g030.A1,4946
1,g030.Y,3044
1,g030.A0,3044
1,g030.A1,3044
1,g028.Y,3044
1,g031.A0,3044
0,g028.A0,1011
0,g028.A1,2033
1,g410.Y,28653
1,g410.A0,28653
1,g410.A1,28653
1,g409.Y,28653
1,g406.Y,28653
1,g411.A0,28653
1,g409.A1,15682
0,g402.Y,4016
0,g402.A1,4016
0,g402.A0,4016
0,g401.Y,4016
0,g403.A0,4016
1,g401.A1,2020
0,g413.Y,927
0,g413.A0,927
0,g413.A1,927
0,g412.Y,927
0,g412.A1,927
0,g412.A0,927
0,g414.A0,927
1,g412.Y,25864
1,g413.A0,25864
1,g412.A1,1979
1,g412.A0,9967
0,g395.Y,5863
0,g395.A1,5863
0,g395.A0,5863
0,g398.A1,5863
1,g398.Y,33597
1,g398.A1,33597
1,g398.A0,33597
1,g395.Y,33597
1,g399.A0,33597
1,g395.A1,3893
1,g395.A0,17788
0,g370.Y,1002
0,g370.A1,1002
0,g370.A0,1002
0,g371.A0,1002
1,g371.Y,57735
1,g371.A0,57735
1,g371.A1,57735
1,g370.Y,57735
1,g369.Y,57735
1,g372.A0,57735
1,g370.A1,3885
1,g370.A0,23997
0,g257.Y,4024
0,g257.A0,4024
0,g257.A1,4024
1,g257.Y,40911
1,g257.A0,20054
1,g257.A1,2915
1,g245.Y,140089
1,g246.A0,140089
0,g245.A1,23935
0,g204.A1,4095
0,g175.Y,2898
0,g175.A0,2898
0,g175.A1,2898
0,g174.Y,2898
0,g176.A0,2898
0,g174.A1,957
0,g285.Y,7963
0,g286.A0,7963
1,g286.Y,3928
1,g286.A0,3928
1,g286.A1,3928
1,g285.Y,3928
1,g285.A0,3928
1,g285.A1,3928
1,g289.A1,3928
0,g285.A0,2066
0,g285.A1,3895
0,g166.Y,2003
0,g166.A0,2003
0,g166.A1,2003
0,g165.Y,2003
0,g165.A1,2003
0,g165.A0,2003
0,g170.A1,2003
1,g165.Y,6910
1,g166.A0,6910
1,g165.A1,3064
1,g165.A0,1920
0,g686.Y,4958
0,g686.A1,4958
0,g686.A0,4958
0,g687.A0,4958
1,g687.Y,2062
1,g687.A0,2062
1,g687.A1,2062
1,g686.Y,2062
1,g688.A0,2062
1,g686.A1,1034
1,g686.A0,1028
0,g144.Y,1998
1,g144.A,1998
0,g145.A0,1998
1,g145.Y,9868
1,g145.A0,9868
1,g145.A1,9868
1,g144.Y,9868
0,g144.A,9868
0,g124.A0,3049
0,g083.Y,8939
0,g083.A1,8939
0,g083.A0,8939
0,g082.Y,8939
0,g090.A1,8939
0,g497.Y,18910
0,g497.A0,18910
0,g497.A1,18910
0,g496.Y,18910
0,g493.Y,18910
0,g498.A0,18910
0,g328.Y,3957
0,g328.A1,3957
0,g328.A0,3957
0,g327.Y,3957
0,g332.A1,3957
1,g327.Y,3966
1,g327.A1,3966
1,g327.A0,3966
1,g328.A0,3966
0,g327.A1,1028
0,g327.A0,1914
0,g278.Y,3070
1,g278.A0,3070
1,g278.A1,3070
0,g279.A0,3070
1,g282.Y,48875
1,g282.A1,48875
1,g282.A0,48875
1,g260.Y,48875
1,g281.Y,48875
1,g281.A1,48875
1,g281.A0,48875
1,g267.Y,48875
1,g280.Y,48875
1,g280.A1,48875
1,g280.A0,48875
1,g271.Y,48875
1,g279.Y,48875
1,g279.A0,48875
1,g279.A1,48875
1,g278.Y,48875
1,g275.Y,48875
1,g283.A0,48875
0,g278.A0,8936
0,g278.A1,7989
0,g055.Y,930
0,g055.A1,930
0,g055.A0,930
0,g056.A0,930
1,g056.Y,87827
1,g056.A0,87827
1,g056.A1,87827
1,g055.Y,87827
1,g050.Y,87827
1,g057.A0,87827
1,g055.A1,4977
1,g055.A0,12013
0,g044.Y,2035
0,g044.A1,2035
0,g044.A0,2035
0,g043.Y,2035
0,g048.A1,2035
0,g043.A1,1025
0,g692.Y,16987
0,g692.A0,16987
0,g692.A1,16987
0,g693.A0,16987
1,g693.Y,4949
1,g693.A0,4949
1,g693.A1,4949
1,g692.Y,4949
1,g694.A0,4949
1,g692.A0,2006
1,g692.A1,2943
0,g458.Y,19208
1,g458.A0,19208
1,g458.A1,19208
1,g457.Y,19208
0,g459.A0,19208
1,g457.A1,10123
0,g448.Y,24728
1,g448.Y,4928
1,g448.A1,4928
1,g448.A0,4928
0,g448.A1,9115
0,g448.A0,6804
1,g691.Y,2945
0,g691.A0,2945
0,g691.A1,2945
0,g690.Y,2945
1,g690.A1,2945
1,g690.A0,2945
1,g694.A1,2945
1,g690.Y,8940
1,g691.A0,8940
0,g690.A1,6009
0,g690.A0,938
1,g595.Y,2932
1,g595.A0,2932
1,g595.A1,2932
1,g598.A1,2932
0,g595.A0,9979
0,g595.A1,4035
0,g302.Y,11927
0,g302.A1,11927
0,g302.A0,11927
0,g301.Y,11927
0,g303.A0,11927
1,g301.A0,5869
0,g500.Y,9942
1,g500.A1,9942
1,g500.A0,9942
0,g501.A0,9942
1,g501.Y,4871
1,g501.A1,4871
1,g501.A0,4871
1,g500.Y,4871
1,g502.A0,4871
0,g500.A1,905
0,g500.A0,3966
0,g295.Y,3999
0,g295.A1,3999
0,g295.A0,3999
0,g294.Y,3999
0,g297.A1,3999
1,g294.Y,5031
1,g294.A0,5031
1,g294.A1,5031
1,g295.A0,5031
0,g294.A0,2000
0,g294.A1,1999
1,g416.Y,110377
1,g416.A1,110377
1,g416.A0,110377
1,g394.Y,110377
1,g415.Y,110377
1,g415.A1,110377
1,g415.A0,110377
1,g404.Y,110377
1,g414.Y,110377
1,g414.A0,110377
1,g414.A1,110377
1,g413.Y,110377
1,g411.Y,110377
1,g417.A0,110377
1,g413.A1,3860
0,g289.Y,11974
0,g289.A0,11974
0,g289.A1,11974
0,g288.Y,11974
0,g288.A0,11974
0,g288.A1,11974
0,g286.Y,11974
0,g290.A0,11974
0,g286.A1,2030
0,g193.Y,10030
0,g193.A1,4913
1,g552.Y,10024
0,g552.A0,10024
0,g552.A1,10024
0,g551.Y,10024
1,g553.A0,10024
1,g551.Y,9124
1,g551.A0,9124
1,g551.A1,9124
1,g552.A0,9124
0,g551.A0,999
0,g551.A1,7046
0,g331.Y,2953
0,g331.A1,2953
0,g331.A0,2953
0,g332.A0,2953
1,g332.Y,12924
1,g332.A0,12924
1,g332.A1,12924
1,g331.Y,12924
1,g328.Y,12924
1,g333.A0,12924
1,g331.A1,5107
1,g331.A0,2920
0,g188.Y,8022
1,g188.Y,8876
1,g188.A0,8876
1,g188.A1,8876
0,g188.A0,4021
0,g188.A1,4001
1,g176.Y,12837
1,g176.A1,12837
1,g176.A0,12837
1,g175.Y,12837
1,g177.A0,12837
1,g175.A1,7828
0,g145.Y,4949
0,g145.A1,2951
0,g186.Y,1980
0,g186.A0,1980
0,g186.A1,1980
1,g186.Y,12069
1,g186.A0,3960
1,g186.A1,3076
1,g128.Y,20929
1,g128.A0,20929
1,g128.A1,20929
1,g127.Y,20929
1,g121.Y,20929
1,g133.A1,20929
1,g713.Y,8065
0,g713.A1,8065
0,g713.A0,8065
0,g712.Y,8065
1,g715.A1,8065
1,g712.Y,1994
0,g712.A0,1994
0,g712.A1,1994
1,g713.A0,1994
1,g712.A0,3027
1,g712.A1,1963
1,g651.Y,3978
0,g651.A0,3978
0,g651.A1,3978
0,g650.Y,3978
1,g652.A0,3978
1,g650.Y,1984
1,g650.A0,1984
1,g650.A1,1984
1,g651.A0,1984
0,g650.A0,1021
0,g650.A1,1956
0,g532.Y,5968
0,g532.A0,5968
0,g532.A1,5968
0,g531.Y,5968
0,g533.A0,5968
1,g531.Y,1028
1,g531.A1,1028
1,g531.A0,1028
1,g532.A0,1028
0,g531.A1,1997
0,g531.A0,1990
1,g403.Y,61602
1,g403.A1,61602
1,g403.A0,61602
1,g399.Y,61602
1,g402.Y,61602
1,g404.A0,61602
1,g402.A1,6908
0,g219.Y,2909
0,g219.A1,2909
0,g219.A0,2909
1,g219.Y,16828
1,g219.A1,6888
1,g219.A0,1962
0,g208.Y,21926
1,g208.Y,7893
1,g208.A1,7893
1,g208.A0,7893
0,g208.A1,6971
0,g208.A0,7953
0,g180.Y,22895
1,g180.Y,6039
1,g180.A1,6039
1,g180.A0,6039
0,g180.A1,9974
0,g180.A0,3063
0,g154.Y,4853
0,g154.A1,4853
0,g154.A0,4853
1,g154.Y,14027
1,g154.A1,6115
1,g154.A0,4936
0,g364.Y,1969
0,g364.A1,1969
0,g364.A0,1969
0,g363.Y,1969
0,g368.A1,1969
0,g363.A1,962
0,g149.Y,3917
0,g150.A0,3917
0,g149.A0,2905
0,g476.Y,12963
0,g476.A0,12963
0,g476.A1,12963
0,g477.A0,12963
1,g477.Y,4066
1,g477.A1,4066
1,g477.A0,4066
1,g476.Y,4066
1,g483.A1,4066
1,g476.A0,2085
1,g476.A1,1981
1,g112.Y,133189
1,g112.A1,133189
1,g112.A0,133189
1,g075.Y,133189
1,g111.Y,133189
1,g111.A1,133189
1,g111.A0,133189
1,g091.Y,133189
1,g110.Y,133189
1,g110.A0,133189
1,g110.A1,133189
1,g109.Y,133189
1,g105.Y,133189
1,g113.A0,133189
0,g109.A0,18872
0,g625.Y,17044
0,g625.A1,17044
0,g625.A0,17044
0,g624.Y,17044
0,g626.A0,17044
0,g624.A0,4041
0,g578.Y,29928
0,g578.A1,29928
0,g578.A0,29928
0,g569.Y,29928
0,g577.Y,29928
0,g577.A1,29928
0,g577.A0,29928
0,g575.Y,29928
0,g576.Y,29928
0,g579.A0,29928
1,g576.Y,1978
1,g576.A0,1978
1,g576.A1,1978
1,g577.A0,1978
0,g576.A0,8954
0,g576.A1,7006
1,g564.Y,1990
1,g564.A1,1990
1,g564.A0,1990
1,g565.A0,1990
0,g564.A1,991
0,g564.A0,5044
0,g560.Y,68509
0,g560.A1,68509
0,g560.A0,68509
0,g541.Y,68509
0,g559.Y,68509
0,g559.A0,68509
0,g559.A1,68509
0,g558.Y,68509
0,g555.Y,68509
0,g561.A0,68509
0,g558.A1,9720
0,g644.Y,5047
1,g644.A0,5047
1,g644.A1,5047
1,g644.Y,12150
0,g644.A0,3004
0,g644.A1,7095
1,g460.Y,3057
0,g460.A,3057
1,g462.A1,3057
0,g322.Y,18197
1,g322.Y,3909
0,g322.A0,3909
0,g322.A1,3909
1,g322.A0,7143
1,g322.A1,3039
0,g117.Y,25731
1,g117.Y,3925
0,g117.A0,3925
0,g117.A1,3925
1,g117.A0,11975
1,g117.A1,4893
0,g568.Y,16056
0,g568.A0,16056
0,g568.A1,16056
0,g567.Y,16056
0,g566.Y,16056
0,g569.A0,16056
1,g567.Y,1935
0,g567.A1,1935
0,g567.A0,1935
1,g568.A0,1935
1,g567.A1,5006
1,g567.A0,4011
0,g103.Y,8819
0,g103.A1,8819
0,g103.A0,8819
0,g102.Y,8819
0,g104.A0,8819
0,g102.A1,2971
1,g035.Y,8980
1,g035.A1,8980
1,g035.A0,8980
1,g026.Y,8980
1,g034.Y,8980
1,g034.A0,8980
1,g034.A1,8980
1,g031.Y,8980
1,g036.A0,8980
1,g026.A1,2972
1,g274.Y,15989
1,g275.A0,15989
1,g274.A0,7097
1,g274.A1,2971
0,g483.Y,28898
0,g483.A1,28898
0,g483.A0,28898
0,g477.Y,28898
0,g482.Y,28898
0,g482.A1,28898
0,g482.A0,28898
0,g478.Y,28898
0,g481.Y,28898
0,g484.A0,28898
1,g478.Y,3933
0,g478.A0,3933
0,g478.A1,3933
1,g482.A1,3933
1,g478.A0,13067
1,g478.A1,4963
0,g069.Y,4020
0,g069.A0,4020
0,g069.A1,4020
1,g069.Y,27043
1,g069.A0,16983
1,g069.A1,4977
0,g017.Y,3044
0,g017.A0,3044
0,g017.A1,3044
0,g016.Y,3044
1,g016.A1,3044
1,g016.A0,3044
0,g018.A0,3044
1,g016.Y,18073
1,g017.A0,18073
0,g016.A1,10077
0,g016.A0,999
1,g096.Y,30931
0,g096.A0,30931
0,g096.A1,30931
0,g094.Y,30931
1,g097.A0,30931
0,g094.A0,7039
0,g481.A1,3942
1,g342.A1,5062
0,g141.Y,2033
0,g141.A1,2033
0,g141.A0,2033
0,g140.Y,2033
0,g152.A1,2033
0,g493.A0,8935
1,g601.Y,3936
1,g601.A0,3936
1,g601.A1,3936
1,g600.Y,3936
1,g600.A1,3936
1,g600.A0,3936
1,g598.Y,3936
1,g602.A0,3936
1,g236.Y,4971
1,g236.A1,4971
1,g236.A0,4971
1,g239.A1,4971
0,g236.A1,2095
0,g236.A0,1003
0,g061.Y,7833
0,g061.A0,7833
0,g061.A1,7833
0,g066.A1,7833
1,g061.A0,3904
1,g061.A1,17915
1,g017.A1,4974
1,g566.Y,3963
1,g566.A1,3963
1,g566.A0,3963
1,g565.Y,3963
1,g568.A1,3963
0,g665.Y,41966
0,g665.A0,41966
0,g665.A1,41966
0,g664.Y,41966
0,g663.Y,41966
0,g667.A1,41966
1,g664.Y,1059
1,g664.A0,1059
1,g664.A1,1059
1,g665.A0,1059
0,g664.A0,10187
0,g664.A1,2934
0,g549.Y,16936
0,g549.A0,16936
0,g549.A1,16936
0,g550.A0,16936
1,g550.Y,4070
1,g550.A1,4070
1,g550.A0,4070
1,g549.Y,4070
1,g553.A1,4070
1,g549.A0,2091
1,g549.A1,1979
0,g471.Y,13774
0,g471.A1,13774
0,g471.A0,13774
0,g472.A0,13774
1,g472.Y,3027
1,g472.A1,3027
1,g472.A0,3027
1,g471.Y,3027
1,g473.A0,3027
1,g471.A1,2055
1,g471.A0,972
0,g429.Y,83954
1,g429.A,83954
1,g429.Y,11962
0,g429.A,11962
1,g423.A0,43581
0,g631.Y,37801
0,g631.A1,37801
0,g631.A0,37801
0,g622.Y,37801
0,g630.Y,37801
0,g630.A0,37801
0,g630.A1,37801
0,g629.Y,37801
0,g626.Y,37801
0,g632.A0,37801
0,g622.A1,22048
0,g606.Y,54445
0,g607.A0,54445
0,g606.A0,10985
0,g606.A1,11837
0,g600.Y,63602
0,g601.A0,63602
0,g600.A1,12790
0,g600.A0,13063
1,g214.Y,18931
1,g214.A0,18931
1,g214.A1,18931
1,g213.Y,18931
1,g207.Y,18931
1,g215.A0,18931
0,g067.Y,9853
0,g067.A1,9853
0,g067.A0,9853
0,g066.Y,9853
0,g074.A1,9853
0,g519.Y,281646
1,g519.A0,281646
1,g519.A1,281646
1,g518.Y,281646
0,g520.A0,281646
1,g518.A1,83729
1,g626.Y,3010
1,g626.A1,3010
1,g626.A0,3010
1,g625.Y,3010
1,g630.A1,3010
1,g625.A1,1043
0,g267.Y,15766
0,g267.A1,15766
0,g267.A0,15766
0,g266.Y,15766
0,g281.A1,15766
0,g648.Y,8065
0,g648.A0,8065
0,g648.A1,8065
0,g649.A0,8065
1,g649.Y,7969
1,g649.A0,7969
1,g649.A1,7969
1,g648.Y,7969
1,g652.A1,7969
1,g648.A0,1928
1,g648.A1,6041
0,g097.Y,3961
0,g097.A1,3961
0,g097.A0,3961
0,g096.Y,3961
0,g104.A1,3961
1,g096.A0,3014
0,g019.Y,5104
0,g019.A1,5104
0,g019.A0,5104
0,g018.Y,5104
0,g037.A1,5104
1,g660.Y,4980
1,g660.A1,4980
1,g660.A0,4980
1,g659.Y,4980
1,g662.A1,4980
0,g659.A1,1004
0,g451.A1,17811
1,g320.A1,2056
0,g554.Y,35761
0,g554.A1,35761
0,g554.A0,35761
0,g547.Y,35761
0,g553.Y,35761
0,g553.A1,35761
0,g553.A0,35761
0,g550.Y,35761
0,g552.Y,35761
0,g555.A0,35761
1,g552.A1,17569
0,g698.Y,73662
0,g698.A1,73662
0,g698.A0,73662
0,g697.Y,73662
0,g699.A0,73662
1,g697.Y,2071
0,g697.A1,2071
0,g697.A0,2071
1,g698.A0,2071
1,g697.A1,11958
1,g697.A0,21872
0,g695.Y,56817
0,g695.A1,56817
0,g695.A0,56817
0,g689.Y,56817
0,g694.Y,56817
0,g694.A0,56817
0,g694.A1,56817
0,g693.Y,56817
0,g691.Y,56817
0,g696.A0,56817
1,g691.A1,26890
0,g399.Y,9920
0,g399.A1,9920
0,g399.A0,9920
0,g398.Y,9920
0,g403.A1,9920
0,g398.A0,4057
0,g634.Y,17787
0,g635.A0,17787
0,g634.A0,6935
0,g634.A1,2895
0,g199.Y,5894
0,g199.A1,5894
0,g199.A0,5894
0,g198.Y,5894
0,g200.A0,5894
0,g198.A1,1977
0,g574.Y,15028
0,g574.A0,15028
0,g574.A1,15028
0,g573.Y,15028
0,g572.Y,15028
0,g575.A0,15028
0,g572.A1,2983
0,g639.Y,43821
0,g639.A0,43821
0,g639.A1,43821
0,g638.Y,43821
0,g635.Y,43821
0,g640.A0,43821
0,g701.A1,9872
1,g525.Y,6046
1,g525.A1,6046
1,g525.A0,6046
1,g524.Y,6046
1,g526.A0,6046
0,g524.A1,1053
0,g353.Y,12901
0,g353.A1,12901
0,g353.A0,12901
0,g352.Y,12901
0,g359.A1,12901
1,g306.Y,2012
0,g306.A0,2012
0,g306.A1,2012
1,g308.A1,2012
1,g306.A0,1000
1,g306.A1,1952
0,g357.Y,7975
0,g357.A0,7975
0,g357.A1,7975
1,g357.Y,51868
1,g357.A0,23919
1,g357.A1,7996
1,g288.Y,114551
1,g289.A0,114551
1,g288.A0,26878
1,g288.A1,35940
1,g584.Y,10869
1,g584.A1,10869
1,g584.A0,10869
1,g583.Y,10869
1,g586.A1,10869
1,g583.A1,3869
0,g439.A1,4890
0,g382.Y,3961
0,g382.A0,3961
0,g382.A1,3961
0,g381.Y,3961
0,g386.A1,3961
0,g381.A1,2998
0,g678.Y,25821
0,g678.A0,25821
0,g678.A1,25821
0,g677.Y,25821
0,g675.Y,25821
0,g679.A0,25821
0,g677.A1,17894
1,\token[2],876598
1,g349.Y,876598
1,g349.A0,876598
1,g349.A1,876598
1,g348.Y,876598
1,g339.Y,876598
0,g489.Y,48586
0,g489.A1,48586
0,g489.A0,48586
0,g474.Y,48586
0,g488.Y,48586
0,g488.A0,48586
0,g488.A1,48586
0,g487.Y,48586
0,g484.Y,48586
0,g490.A0,48586
0,g487.A1,2022
1,g252.A1,3931
1,g359.Y,83798
1,g359.A0,83798
1,g359.A1,83798
1,g358.Y,83798
1,g353.Y,83798
1,g360.A0,83798
1,g358.A0,21975
0,g682.Y,31972
0,g683.A0,31972
0,g682.A0,16958
0,g682.A1,4050
1,g443.Y,9169
1,g443.A1,9169
1,g443.A0,9169
1,g442.Y,9169
1,g453.A1,9169
1,g406.A1,6004
0,g703.A1,58739
0,g637.Y,10843
0,g638.A0,10843
1,g637.A0,7896
1,g610.Y,8061
1,g610.A1,3039
1,g573.Y,1011
1,g573.A0,1011
1,g573.A1,1011
1,g574.A0,1011
0,g573.A0,6006
0,g573.A1,3995
1,g452.Y,7943
1,g453.A0,7943
0,g254.Y,7893
0,g254.A1,7893
0,g254.A0,7893
0,g253.Y,7893
0,g259.A1,7893
0,\len[1],923131
0,g608.Y,923131
0,g608.A0,923131
0,g608.A1,923131
0,g607.Y,923131
0,g603.Y,923131
0,g031.Y,6974
0,g031.A0,6974
0,g031.A1,6974
0,g030.Y,6974
0,g034.A1,6974
0,g030.A0,1007
0,g411.Y,9030
0,g411.A1,9030
0,g411.A0,9030
0,g410.Y,9030
0,g414.A1,9030
1,g259.Y,23930
1,g259.A0,23930
1,g259.A1,23930
1,g258.Y,23930
1,g254.Y,23930
1,g260.A0,23930
1,g258.A0,7960
1,g166.A1,4959
0,g688.Y,26029
0,g688.A0,26029
0,g688.A1,26029
0,g687.Y,26029
0,g689.A0,26029
0,g687.A1,6032
1,g083.A1,16934
1,g498.Y,5974
1,g498.A1,5974
1,g498.A0,5974
1,g497.Y,5974
1,g502.A1,5974
1,g328.A1,4094
0,g279.Y,5008
0,g280.A0,5008
1,g044.A1,4884
0,g693.A1,18881
1,g459.Y,8099
1,g459.A1,8099
1,g459.A0,8099
1,g458.Y,8099
1,g465.A1,8099
0,g458.A1,3093
1,g545.Y,1988
1,g545.A0,1988
1,g545.A1,1988
1,g546.A0,1988
0,g545.A0,6917
0,g545.A1,1935
1,g303.Y,24969
1,g303.A0,24969
1,g303.A1,24969
1,g302.Y,24969
1,g298.Y,24969
1,g304.A0,24969
1,g302.A1,14978
0,g502.Y,38602
0,g502.A0,38602
0,g502.A1,38602
0,g501.Y,38602
0,g498.Y,38602
0,g503.A0,38602
0,g501.A1,11802
1,g295.A1,1979
1,g290.Y,164411
1,g290.A0,164411
1,g290.A1,164411
1,g289.Y,164411
1,g283.Y,164411
1,g291.A0,164411
0,g268.Y,4047
0,g268.A0,4047
0,g268.A1,4047
0,g270.A1,4047
1,g270.Y,15953
1,g270.A0,15953
1,g270.A1,15953
1,g269.Y,15953
1,g268.Y,15953
1,g271.A0,15953
1,g268.A0,8890
1,g268.A1,3037
0,g194.Y,8013
0,g194.A0,8013
0,g194.A1,8013
0,g200.A1,8013
1,g201.Y,12085
1,g201.A1,12085
1,g201.A0,12085
1,g191.Y,12085
1,g200.Y,12085
1,g200.A0,12085
1,g200.A1,12085
1,g199.Y,12085
1,g194.Y,12085
1,g202.A0,12085
1,g194.A0,5025
1,g194.A1,4047
0,g333.Y,6910
0,g333.A0,6910
0,g333.A1,6910
0,g332.Y,6910
0,g334.A0,6910
0,g375.Y,3949
0,g375.A1,3949
0,g375.A0,3949
0,g377.A1,3949
1,g375.A1,3007
1,g375.A0,2900
0,g189.Y,5976
1,g189.A0,5976
1,g189.A1,5976
0,g190.A0,5976
1,g190.Y,8064
1,g190.A1,8064
1,g190.A0,8064
1,g189.Y,8064
1,g191.A0,8064
0,g189.A0,4073
0,g189.A1,1948
0,g177.Y,4897
0,g177.A1,4897
0,g177.A0,4897
0,g176.Y,4897
0,g178.A0,4897
0,g176.A1,1999
0,g146.Y,2946
0,g146.A1,2946
0,g146.A0,2946
0,g150.A1,2946
1,g146.A1,2990
1,g146.A0,4909
0,g390.Y,1013
0,g390.A0,1013
0,g390.A1,1013
0,g391.A0,1013
1,g390.A0,2920
1,g390.A1,8078
0,g191.Y,8956
0,g191.A1,8956
0,g191.A0,8956
0,g190.Y,8956
0,g201.A1,8956
0,g190.A1,1980
1,g713.A1,3069
0,g653.Y,27939
0,g653.A1,27939
0,g653.A0,27939
0,g647.Y,27939
0,g652.Y,27939
0,g652.A0,27939
0,g652.A1,27939
0,g651.Y,27939
0,g649.Y,27939
0,g654.A0,27939
1,g651.A1,14875
1,g533.Y,2899
1,g533.A1,2899
1,g533.A0,2899
1,g532.Y,2899
1,g535.A1,2899
1,g532.A1,966
0,g385.Y,14966
0,g385.A0,14966
0,g385.A1,14966
0,g383.Y,14966
0,g386.A0,14966
1,g383.Y,11958
1,g383.A0,11958
1,g383.A1,11958
1,g385.A1,11958
0,g383.A0,1972
0,g383.A1,10875
0,g221.Y,937
0,g221.A1,937
0,g221.A0,937
0,g222.A0,937
1,g221.A1,4870
1,g221.A0,2082
0,g674.Y,17894
0,g674.A0,17894
0,g674.A1,17894
0,g673.Y,17894
0,g675.A0,17894
1,g673.Y,1887
1,g673.A0,1887
1,g673.A1,1887
1,g674.A0,1887
0,g673.A0,2987
0,g673.A1,5966
0,g616.Y,2901
0,g616.A0,2901
0,g616.A1,2901
0,g618.A1,2901
1,g616.A0,2004
1,g616.A1,2990
0,g529.Y,8079
0,g529.A0,8079
0,g529.A1,8079
0,g528.Y,8079
0,g530.A0,8079
1,g528.Y,983
1,g528.A0,983
1,g528.A1,983
1,g529.A0,983
0,g528.A0,2981
0,g528.A1,3087
1,g209.Y,7932
1,g213.A1,7932
1,g209.A1,4950
1,g209.A0,1991
0,g366.Y,3021
0,g366.A0,3021
0,g366.A1,3021
0,g365.Y,3021
0,g367.A0,3021
1,g365.Y,9957
0,g365.A0,9957
0,g365.A1,9957
1,g366.A0,9957
1,g365.A0,976
1,g365.A1,1028
0,g269.Y,6025
0,g269.A0,6025
0,g269.A1,6025
0,g270.A0,6025
1,g269.A0,3037
1,g269.A1,9941
0,g181.Y,2026
1,g181.A0,2026
1,g181.A1,2026
0,g182.A0,2026
1,g182.Y,72446
1,g182.A0,72446
1,g182.A1,72446
1,g181.Y,72446
1,g179.Y,72446
1,g183.A0,72446
0,g181.A0,11946
0,g181.A1,17115
0,g229.Y,1973
0,g229.A0,1973
0,g229.A1,1973
0,g230.A0,1973
1,g230.Y,85491
1,g230.A0,85491
1,g230.A1,85491
1,g229.Y,85491
1,g228.Y,85491
1,g231.A0,85491
1,g229.A0,14758
1,g229.A1,5991
0,g156.Y,3011
0,g156.A0,3011
0,g156.A1,3011
0,g155.Y,3011
0,g157.A0,3011
1,g155.Y,4025
1,g155.A1,4025
1,g155.A0,4025
1,g156.A0,4025
0,g155.A1,2066
0,g155.A0,945
1,g368.Y,32951
1,g368.A1,32951
1,g368.A0,32951
1,g364.Y,32951
1,g367.Y,32951
1,g367.A0,32951
1,g367.A1,32951
1,g366.Y,32951
1,g369.A0,32951
1,g364.A1,2047
0,g151.Y,7889
0,g151.A1,7889
0,g151.A0,7889
0,g150.Y,7889
0,g152.A0,7889
0,g477.A1,5944
0,g645.Y,3070
1,g645.A0,3070
1,g645.A1,3070
0,g646.A0,3070
0,g646.Y,11978
1,g646.A0,11978
1,g646.A1,11978
1,g645.Y,11978
0,g647.A0,11978
0,g645.A0,3102
0,g645.A1,4968
0,g586.Y,40983
0,g586.A0,40983
0,g586.A1,40983
0,g585.Y,40983
0,g584.Y,40983
0,g587.A0,40983
1,g585.Y,1018
1,g585.A0,1018
1,g585.A1,1018
1,g586.A0,1018
0,g585.A0,8118
0,g585.A1,3038
0,g323.Y,7032
0,g324.A0,7032
1,g323.A0,3909
0,g540.Y,32748
0,g540.A1,32748
0,g540.A0,32748
0,g527.Y,32748
0,g539.Y,32748
0,g539.A0,32748
0,g539.A1,32748
0,g538.Y,32748
0,g537.Y,32748
0,g541.A0,32748
1,g538.Y,2980
1,g538.A0,2980
1,g538.A1,2980
1,g539.A0,2980
0,g538.A0,15865
0,g538.A1,1979
0,g121.Y,2875
0,g121.A1,2875
0,g121.A0,2875
0,g120.Y,2875
0,g128.A1,2875
1,g120.A1,945
1,g104.Y,64667
1,g104.A0,64667
1,g104.A1,64667
1,g103.Y,64667
1,g097.Y,64667
1,g105.A0,64667
1,g103.A1,22022
1,g482.Y,6869
1,g483.A0,6869
1,g070.Y,7835
1,g070.A0,7835
1,g070.A1,7835
1,g073.A1,7835
0,g070.A0,927
0,g070.A1,1002
1,g152.Y,37742
1,g152.A0,37742
1,g152.A1,37742
1,g151.Y,37742
1,g141.Y,37742
1,g153.A0,37742
1,g141.A1,2075
1,g465.Y,43992
0,g465.A0,43992
0,g465.A1,43992
0,g464.Y,43992
0,g459.Y,43992
1,g466.A0,43992
0,g602.Y,417308
0,g602.A1,417308
0,g602.A0,417308
0,g594.Y,417308
0,g601.Y,417308
0,g603.A0,417308
0,g566.A1,3991
0,g550.A1,4937
0,g472.A1,1965
0,\len[2],934896
0,g672.Y,934896
0,g672.A0,934896
0,g672.A1,934896
0,g671.Y,934896
0,g669.Y,934896
0,g671.A1,56120
0,g430.Y,27834
0,g430.A1,27834
0,g430.A0,27834
0,g431.A0,27834
1,g431.Y,95509
1,g431.A1,95509
1,g431.A0,95509
1,g430.Y,95509
1,g432.A0,95509
1,g430.A1,83659
1,g430.A0,3938
0,\token[4],31817
0,g426.Y,31817
0,g426.A0,31817
0,g426.A1,31817
0,g424.Y,31817
1,g074.Y,86510
1,g074.A0,86510
1,g074.A1,86510
1,g073.Y,86510
1,g067.Y,86510
1,g075.A0,86510
1,g067.A1,18847
1,g520.Y,102362
1,g520.A1,102362
1,g520.A0,102362
1,g519.Y,102362
1,g521.A0,102362
0,g519.A1,86460
0,g626.A1,3992
1,g267.A1,18940
0,g649.A1,9922
1,g097.A1,4955
1,g037.Y,68877
1,g037.A0,68877
1,g037.A1,68877
1,g036.Y,68877
1,g019.Y,68877
1,g038.A0,68877
1,g019.A1,6032
0,g660.A1,5929
0,g325.Y,11921
0,g325.A1,11921
0,g325.A0,11921
0,g324.Y,11921
0,g334.A1,11921
1,g553.Y,16115
1,g554.A0,16115
1,g699.Y,11151
1,g699.A0,11151
1,g699.A1,11151
1,g698.Y,11151
1,g709.A1,11151
1,g698.A1,9080
1,g694.Y,7894
1,g695.A0,7894
1,g399.A1,2047
1,g199.A1,3976
1,g575.Y,5067
1,g575.A1,5067
1,g575.A0,5067
1,g574.Y,5067
1,g577.A1,5067
0,g525.A1,7848
1,g353.A1,31989
0,g427.Y,7975
0,g427.A0,7975
0,g427.A1,7975
1,g427.Y,211551
1,g427.A0,51868
1,g427.A1,24060
0,g584.A1,13109
1,g387.Y,15824
1,g387.A1,15824
1,g387.A0,15824
1,g378.Y,15824
1,g386.Y,15824
1,g386.A0,15824
1,g386.A1,15824
1,g385.Y,15824
1,g382.Y,15824
1,g388.A0,15824
1,g382.A1,5766
1,g511.Y,8083
1,g511.A1,8083
1,g511.A0,8083
1,g510.Y,8083
1,g512.A0,8083
0,g360.Y,17772
0,g360.A0,17772
0,g360.A1,17772
0,g359.Y,17772
0,g373.A1,17772
0,g684.Y,58817
0,g684.A1,58817
0,g684.A0,58817
0,g679.Y,58817
0,g683.Y,58817
0,g685.A0,58817
0,g443.A1,5863
1,g707.Y,226196
1,g708.A0,226196
0,g638.A1,8046
0,g629.A1,12002
0,g612.A1,6950
1,g454.Y,18119
1,g454.A1,18119
1,g454.A0,18119
1,g453.Y,18119
1,g467.A1,18119
1,g254.A1,8941
1,g031.A1,2977
1,g411.A1,32069
0,g260.Y,9922
0,g260.A1,9922
0,g260.A0,9922
0,g259.Y,9922
0,g282.A1,9922
0,g171.Y,4063
0,g171.A1,4063
0,g171.A0,4063
0,g170.Y,4063
0,g178.A1,4063
1,g689.Y,12012
1,g689.A1,12012
1,g689.A0,12012
1,g688.Y,12012
1,g695.A1,12012
1,g688.A1,8007
0,g091.Y,16959
0,g091.A1,16959
0,g091.A0,16959
0,g090.Y,16959
0,g111.A1,16959
0,g498.A1,4845
0,g050.Y,6015
0,g050.A0,6015
0,g050.A1,6015
0,g048.Y,6015
0,g056.A1,6015
0,g459.A1,6882
1,g547.Y,4935
1,g547.A1,4935
1,g547.A0,4935
1,g546.Y,4935
1,g554.A1,4935
1,g503.Y,12855
1,g503.A1,12855
1,g503.A0,12855
1,g502.Y,12855
1,g512.A1,12855
0,g298.Y,6093
0,g298.A1,6093
0,g298.A0,6093
0,g297.Y,6093
0,g303.A1,6093
0,g271.Y,18001
0,g271.A1,18001
0,g271.A0,18001
0,g270.Y,18001
0,g280.A1,18001
0,g200.Y,16947
0,g201.A0,16947
1,g334.Y,27785
1,g334.A1,27785
1,g334.A0,27785
1,g325.Y,27785
1,g333.Y,27785
1,g335.A0,27785
1,g333.A1,6852
0,g378.Y,4940
0,g378.A1,4940
0,g378.A0,4940
0,g377.Y,4940
0,g387.A1,4940
1,g178.Y,34704
1,g178.A0,34704
1,g178.A1,34704
1,g177.Y,34704
1,g171.Y,34704
1,g179.A0,34704
1,g177.A1,11938
0,g392.Y,3021
0,g392.A1,3021
0,g392.A0,3021
0,g391.Y,3021
0,g393.A0,3021
1,g191.A1,2987
1,g716.Y,116042
1,g716.A1,116042
1,g716.A0,116042
1,g715.Y,116042
1,g718.A1,116042
1,g652.Y,15905
1,g653.A0,15905
0,g533.A1,4015
1,g385.A0,3866
0,g223.Y,2003
0,g223.A1,2003
0,g223.A0,2003
0,g222.Y,2003
0,g227.A1,2003
1,g675.Y,5791
1,g675.A1,5791
1,g675.A0,5791
1,g674.Y,5791
1,g678.A1,5791
1,g674.A1,2879
0,g619.Y,37782
0,g619.A0,37782
0,g619.A1,37782
0,g618.Y,37782
0,g615.Y,37782
0,g620.A0,37782
1,g530.Y,2980
1,g530.A1,2980
1,g530.A0,2980
1,g529.Y,2980
1,g536.A1,2980
1,g529.A1,1997
1,g366.A1,11052
1,g157.Y,13815
1,g157.A1,13815
1,g157.A0,13815
1,g156.Y,13815
1,g161.A1,13815
1,g156.A1,3918
1,g151.A1,10896
1,g484.Y,10935
1,g484.A1,10935
1,g484.A0,10935
1,g483.Y,10935
1,g488.A1,10935
1,g647.Y,5006
1,g647.A1,5006
1,g647.A0,5006
1,g646.Y,5006
1,g653.A1,5006
0,g646.A1,1936
1,g587.Y,12889
1,g587.A1,12889
1,g587.A0,12889
1,g586.Y,12889
1,g590.A1,12889
1,g121.A1,3033
0,g105.Y,14797
0,g105.A1,14797
0,g105.A0,14797
0,g104.Y,14797
0,g110.A1,14797
0,g153.Y,9922
0,g153.A1,9922
0,g153.A0,9922
0,g152.Y,9922
0,g162.A1,9922
1,g466.Y,13143
0,g466.A1,13143
0,g466.A0,13143
0,g465.Y,13143
1,g467.A0,13143
0,g242.Y,6106
0,g242.A1,6106
0,g242.A0,6106
0,g241.Y,6106
0,g243.A0,6106
1,g569.Y,5898
1,g569.A1,5898
1,g569.A0,5898
1,g568.Y,5898
1,g578.A1,5898
1,g474.Y,3992
1,g474.A1,3992
1,g474.A0,3992
1,g473.Y,3992
1,g489.A1,3992
0,\token[5],31713
0,g432.Y,31713
0,g432.A1,31713
0,g432.A0,31713
0,g431.Y,31713
0,g431.A1,3879
1,\token[4],988183
1,g426.Y,988183
1,g426.A0,223175
0,g075.Y,14729
0,g075.A1,14729
0,g075.A0,14729
0,g074.Y,14729
0,g112.A1,14729
0,\len[0],782730
0,g521.Y,782730
0,g521.A0,782730
0,g521.A1,782730
0,g520.Y,782730
0,g516.Y,782730
0,g520.A1,140107
1,g630.Y,7022
1,g631.A0,7022
1,g663.Y,5995
1,g663.A1,5995
1,g663.A0,5995
1,g662.Y,5995
1,g665.A1,5995
1,g325.A1,10802
0,g699.A1,5047
0,g404.Y,17836
0,g404.A1,17836
0,g404.A0,17836
0,g403.Y,17836
0,g415.A1,17836
0,g575.A1,3951
1,g527.Y,10106
1,g527.A1,10106
1,g527.A0,10106
1,g526.Y,10106
1,g540.A1,10106
0,g312.Y,7955
0,g312.A1,7955
0,g312.A0,7955
0,g311.Y,7955
0,g313.A0,7955
0,g716.A1,4096
0,g386.Y,22826
0,g387.A0,22826
0,g513.Y,102039
0,g513.A1,102039
0,g513.A0,102039
0,g490.Y,102039
0,g512.Y,102039
0,g512.A0,102039
0,g512.A1,102039
0,g511.Y,102039
0,g503.Y,102039
0,g514.A0,102039
0,g511.A1,9898
1,g373.Y,180374
1,g373.A0,180374
1,g373.A1,180374
1,g372.Y,180374
1,g360.Y,180374
1,g374.A0,180374
1,g360.A1,17923
1,g708.Y,295286
1,g709.A0,295286
1,g640.Y,7004
1,g640.A1,7004
1,g640.A0,7004
1,g639.Y,7004
1,g641.A0,7004
1,g615.Y,5103
1,g615.A0,5103
1,g615.A1,5103
1,g614.Y,5103
1,g619.A1,5103
0,g467.Y,172401
0,g467.A1,172401
0,g467.A0,172401
0,g454.Y,172401
0,g466.Y,172401
0,g468.A0,172401
0,g454.A1,42083
0,g034.Y,14876
0,g035.A0,14876
0,g034.A0,3914
0,g414.Y,9957
0,g415.A0,9957
1,g260.A1,10948
1,g171.A1,3058
0,g689.A1,12056
1,g091.A1,13914
1,g050.A0,22226
0,g547.A1,4953
0,g503.A1,15843
1,g298.A1,3941
1,g271.A1,16988
0,g202.Y,25903
0,g202.A1,25903
0,g202.A0,25903
0,g201.Y,25903
0,g216.A1,25903
0,g335.Y,22718
0,g335.A1,22718
0,g335.A0,22718
0,g334.Y,22718
0,g336.A0,22718
1,g378.A1,4967
0,g179.Y,8960
0,g179.A1,8960
0,g179.A0,8960
0,g178.Y,8960
0,g182.A1,8960
1,g393.Y,52642
1,g393.A0,52642
1,g393.A1,52642
1,g392.Y,52642
1,g388.Y,52642
1,g394.A0,52642
1,g392.A1,2878
1,g535.Y,6848
1,g536.A0,6848
1,g223.A1,1932
0,g675.A1,3928
0,g530.A1,2914
0,g215.Y,16011
0,g215.A1,16011
0,g215.A0,16011
0,g214.Y,16011
0,g216.A0,16011
0,g367.Y,5972
0,g368.A0,5972
0,g367.A1,1995
0,g157.A1,3906
0,g484.A1,4905
0,g647.A1,3943
0,g587.A1,7958
1,g105.A1,22898
1,g162.Y,94713
1,g162.A0,94713
1,g162.A1,94713
1,g161.Y,94713
1,g153.Y,94713
1,g163.A0,94713
1,g153.A1,14949
1,g466.A1,30970
1,g243.Y,43247
1,g243.A0,43247
1,g243.A1,43247
1,g242.Y,43247
1,g246.A1,43247
1,g242.A1,4064
0,g569.A1,4966
0,g474.A1,3998
1,\token[5],988287
1,g432.Y,988287
1,g432.A1,223294
1,g075.A1,21985
1,g632.Y,13976
1,g632.A1,13976
1,g632.A0,13976
1,g631.Y,13976
1,g641.A1,13976
0,g663.A1,3975
1,g709.Y,498433
1,g710.A0,498433
1,g404.A1,6885
1,g577.Y,9038
1,g578.A0,9038
0,g527.A1,8970
1,g313.Y,56740
1,g313.A0,56740
1,g313.A1,56740
1,g312.Y,56740
1,g304.Y,56740
1,g314.A0,56740
1,g312.A1,5998
1,\len[4],1007888
1,g718.Y,1007888
0,g388.Y,30714
0,g388.A1,30714
0,g388.A0,30714
0,g387.Y,30714
0,g393.A1,30714
1,g512.Y,20938
1,g513.A0,20938
0,g642.Y,81603
0,g642.A1,81603
0,g642.A0,81603
0,g620.Y,81603
0,g641.Y,81603
0,g641.A0,81603
0,g641.A1,81603
0,g640.Y,81603
0,g632.Y,81603
0,g643.A0,81603
0,g640.A1,6909
0,g615.A1,3020
1,g468.Y,31262
1,g468.A1,31262
1,g468.A0,31262
1,g467.Y,31262
1,g515.A1,31262
0,g036.Y,22720
0,g036.A1,22720
0,g036.A0,22720
0,g035.Y,22720
0,g037.A0,22720
0,g415.Y,33738
0,g416.A0,33738
1,g696.Y,26764
1,g696.A1,26764
1,g696.A0,26764
1,g695.Y,26764
1,g710.A1,26764
0,g057.Y,6945
0,g057.A1,6945
0,g057.A0,6945
0,g056.Y,6945
0,g058.A0,6945
1,g555.Y,23079
1,g555.A1,23079
1,g555.A0,23079
1,g554.Y,23079
1,g559.A1,23079
0,g304.Y,20025
0,g304.A1,20025
0,g304.A0,20025
0,g303.Y,20025
0,g313.A1,20025
0,g280.Y,25069
0,g281.A0,25069
1,g216.Y,54644
1,g216.A1,54644
1,g216.A0,54644
1,g202.Y,54644
1,g215.Y,54644
1,g217.A0,54644
1,g202.A1,32452
1,g336.Y,127174
1,g336.A1,127174
1,g336.A0,127174
1,g314.Y,127174
1,g335.Y,127174
1,g337.A0,127174
1,g335.A1,46691
1,g179.A1,11017
1,g537.Y,11892
1,g537.A1,11892
1,g537.A0,11892
1,g536.Y,11892
1,g539.A1,11892
0,g228.Y,24803
0,g228.A1,24803
0,g228.A0,24803
0,g227.Y,24803
0,g230.A1,24803
1,g679.Y,21930
1,g679.A1,21930
1,g679.A0,21930
1,g678.Y,21930
1,g684.A1,21930
1,g215.A1,13756
0,g369.Y,9896
0,g369.A1,9896
0,g369.A0,9896
0,g368.Y,9896
0,g371.A1,9896
1,g488.Y,19951
1,g489.A0,19951
1,g654.Y,32899
1,g654.A1,32899
1,g654.A0,32899
1,g653.Y,32899
1,g655.A0,32899
1,g590.Y,16893
1,g591.A0,16893
1,\token[0],883732
1,g134.Y,883732
1,g134.A0,883732
1,g134.A1,883732
1,g133.Y,883732
1,g115.Y,883732
0,g110.Y,15800
0,g111.A0,15800
0,g163.Y,16839
0,g163.A1,16839
0,g163.A0,16839
0,g162.Y,16839
0,g184.A1,16839
0,g243.A1,930
1,g579.Y,14936
1,g579.A1,14936
1,g579.A0,14936
1,g578.Y,14936
1,g591.A1,14936
1,g490.Y,27065
1,g490.A1,27065
1,g490.A0,27065
1,g489.Y,27065
1,g513.A1,27065
0,g632.A1,10844
1,g388.A1,26834
1,g641.Y,22985
1,g642.A0,22985
1,g620.Y,11133
1,g620.A1,11133
1,g620.A0,11133
1,g619.Y,11133
1,g642.A1,11133
0,g515.Y,348597
0,g515.A0,348597
0,g515.A1,348597
0,g514.Y,348597
0,g468.Y,348597
0,g516.A0,348597
0,g468.A1,26760
1,g036.A1,41003
0,g696.A1,13008
1,g058.Y,184680
1,g058.A0,184680
1,g058.A1,184680
1,g057.Y,184680
1,g038.Y,184680
1,g059.A0,184680
1,g057.A1,9084
0,g555.A1,18957
1,g304.A1,17890
0,g281.Y,50732
0,g282.A0,50732
0,g217.Y,45818
0,g217.A1,45818
0,g217.A0,45818
0,g216.Y,45818
0,g232.A1,45818
0,g183.Y,10986
0,g183.A1,10986
0,g183.A0,10986
0,g182.Y,10986
0,g184.A0,10986
0,g537.A1,9834
1,g228.A1,27620
0,g679.A1,16085
1,g369.A1,4930
0,g655.Y,182425
0,g655.A0,182425
0,g655.A1,182425
0,g654.Y,182425
0,g643.Y,182425
0,g656.A0,182425
0,g654.A1,88216
0,g111.Y,41716
0,g112.A0,41716
1,g184.Y,193196
1,g184.A0,193196
1,g184.A1,193196
1,g183.Y,193196
1,g163.Y,193196
1,g185.A0,193196
1,g163.A1,15067
1,\token[1],890687
1,g247.Y,890687
1,g247.A0,890687
1,g247.A1,890687
1,g246.Y,890687
1,g235.Y,890687
0,g579.A1,14944
0,g490.A1,22670
0,g668.Y,433001
0,g668.A1,433001
0,g668.A0,433001
0,g656.Y,433001
0,g667.Y,433001
0,g669.A0,433001
0,g394.Y,35668
0,g394.A1,35668
0,g394.A0,35668
0,g393.Y,35668
0,g416.A1,35668
0,g620.A1,7871
0,g038.Y,30857
0,g038.A1,30857
0,g038.A0,30857
0,g037.Y,30857
0,g058.A1,30857
1,g710.Y,717761
1,g711.A0,717761
1,g559.Y,27129
1,g560.A0,27129
0,g314.Y,27980
0,g314.A1,27980
0,g314.A0,27980
0,g313.Y,27980
0,g336.A1,27980
0,g283.Y,63513
0,g283.A1,63513
0,g283.A0,63513
0,g282.Y,63513
0,g290.A1,63513
1,g232.Y,140135
1,g232.A0,140135
1,g232.A1,140135
1,g231.Y,140135
1,g217.Y,140135
1,g233.A0,140135
1,g217.A1,54799
1,g183.A1,25048
1,g539.Y,14872
1,g540.A0,14872
0,g231.Y,28787
0,g231.A1,28787
0,g231.A0,28787
0,g230.Y,28787
0,g232.A0,28787
1,g685.Y,33779
1,g685.A1,33779
1,g685.A0,33779
1,g684.Y,33779
1,g711.A1,33779
0,g372.Y,15942
0,g372.A1,15942
0,g372.A0,15942
0,g371.Y,15942
0,g373.A0,15942
0,g113.Y,67377
0,g113.A1,67377
0,g113.A0,67377
0,g112.Y,67377
0,g114.A0,67377
0,g185.Y,27825
0,g185.A1,27825
0,g185.A0,27825
0,g184.Y,27825
0,g234.A1,27825
1,g592.Y,31829
1,g592.A1,31829
1,g592.A0,31829
1,g591.Y,31829
1,g593.A0,31829
1,g514.Y,57851
1,g514.A1,57851
1,g514.A0,57851
1,g513.Y,57851
1,g515.A0,57851
1,g394.A1,24735
1,g643.Y,34118
1,g643.A1,34118
1,g643.A0,34118
1,g642.Y,34118
1,g655.A1,34118
1,g038.A1,45092
1,g314.A1,25856
1,g283.A1,73791
1,g541.Y,24978
1,g541.A1,24978
1,g541.A0,24978
1,g540.Y,24978
1,g560.A1,24978
1,g231.A1,30812
0,g685.A1,14066
1,g372.A1,35851
1,g114.Y,380706
1,g114.A0,380706
1,g114.A1,380706
1,g113.Y,380706
1,g059.Y,380706
1,g115.A0,380706
1,g113.A1,85899
1,g234.Y,388611
1,g234.A0,388611
1,g234.A1,388611
1,g233.Y,388611
1,g185.Y,388611
1,g235.A0,388611
1,g185.A1,23992
0,g593.Y,164672
0,g593.A0,164672
0,g593.A1,164672
0,g592.Y,164672
0,g561.Y,164672
0,g594.A0,164672
0,g592.A1,34737
0,g514.A1,97143
0,g417.Y,84279
0,g417.A1,84279
0,g417.A0,84279
0,g416.Y,84279
0,g418.A0,84279
0,g643.A1,35800
0,g059.Y,40861
0,g059.A1,40861
0,g059.A0,40861
0,g058.Y,40861
0,g114.A1,40861
0,g337.Y,52758
0,g337.A1,52758
0,g337.A0,52758
0,g336.Y,52758
0,g338.A0,52758
0,g291.Y,75487
0,g291.A0,75487
0,g291.A1,75487
0,g290.Y,75487
0,g338.A1,75487
0,g541.A1,22856
0,g233.Y,74605
0,g233.A1,74605
0,g233.A0,74605
0,g232.Y,74605
0,g234.A0,74605
1,\len[3],904366
1,g711.Y,904366
0,g374.Y,35718
0,g374.A1,35718
0,g374.A0,35718
0,g373.Y,35718
0,g418.A1,35718
1,g516.Y,98025
1,g516.A1,98025
1,g516.A0,98025
1,g515.Y,98025
1,g521.A1,98025
1,g418.Y,360899
1,g418.A0,360899
1,g418.A1,360899
1,g417.Y,360899
1,g374.Y,360899
1,g419.A0,360899
1,g417.A1,113439
1,g656.Y,67017
1,g656.A1,67017
1,g656.A0,67017
1,g655.Y,67017
1,g668.A1,67017
1,g059.A1,39576
1,g338.Y,370593
1,g338.A0,370593
1,g338.A1,370593
1,g337.Y,370593
1,g291.Y,370593
1,g339.A0,370593
1,g337.A1,61950
1,g291.A1,64656
1,g561.Y,52107
1,g561.A1,52107
1,g561.A0,52107
1,g560.Y,52107
1,g593.A1,52107
1,g233.A1,92310
1,g374.A1,24905
0,g516.A1,95191
0,\token[3],148990
0,g419.Y,148990
0,g419.A1,148990
0,g419.A0,148990
0,g418.Y,148990
0,g656.A1,66436
0,g115.Y,127342
0,g115.A1,127342
0,g115.A0,127342
0,g114.Y,127342
0,g134.A1,127342
0,g339.Y,136235
0,g339.A1,136235
0,g339.A0,136235
0,g338.Y,136235
0,g349.A1,136235
0,g561.A1,50516
0,g235.Y,119236
0,g235.A1,119236
0,g235.A0,119236
0,g234.Y,119236
0,g247.A1,119236
1,\len[0],237270
1,g521.Y,237270
1,\token[3],871010
1,g419.Y,871010
1,g419.A1,150117
1,g669.Y,77080
1,g669.A1,77080
1,g669.A0,77080
1,g668.Y,77080
1,g672.A1,77080
1,g115.A1,127031
1,g339.A1,136615
1,g594.Y,87830
1,g594.A1,87830
1,g594.A0,87830
1,g593.Y,87830
1,g602.A1,87830
1,g235.A1,117646
0,g669.A1,75965
0,\token[0],136268
0,g134.Y,136268
0,\token[2],143402
0,g349.Y,143402
0,g594.A1,87726
0,\token[1],129313
0,g247.Y,129313
1,\len[2],85104
1,g672.Y,85104
1,g603.Y,92773
1,g603.A1,92773
1,g603.A0,92773
1,g602.Y,92773
1,g608.A1,92773
0,g603.A1,91842
1,\len[1],96869
1,g608.Y,96869
0,g133.Y,6893
1,g671.Y,8024
1,g607.Y,4096
