                      Statistics Report                      
                       Stuck-at Faults                       
-------------------------------------------------------------
Fault Classes                           #faults              
                                        (total)              
------------------------  -----------------------------------
  FU (full)                              72316               
  ----------------------  -----------------------------------
  UC (uncontrolled)                     190          ( 0.26%)
  UO (unobserved)                     63463          (87.76%)
  DS (det_simulation)                  8663          (11.98%)
-------------------------------------------------------------
Coverage                                                     
  ----------------------                                     
  test_coverage                                       11.98% 
  fault_coverage                                      11.98% 
  atpg_effectiveness                                  11.98% 
-------------------------------------------------------------
#test_patterns                                             0 
#simulated_patterns                                      255 
CPU_time (secs)                                       3083.5 
-------------------------------------------------------------
Multiple Detection Statistics                                
-------------------------------------------------------------
  Detections                  DS Faults         Test Coverage
     (N)                  (Detections == N) (Detections >= N)
------------------------  ----------------- -----------------
      1                       913 (  1.26%)    8663 ( 11.98%)
      2                       631 (  0.87%)    7750 ( 10.72%)
      3                       396 (  0.55%)    7119 (  9.84%)
      4                       207 (  0.29%)    6723 (  9.30%)
      5                       189 (  0.26%)    6516 (  9.01%)
      6                       180 (  0.25%)    6327 (  8.75%)
      7                       201 (  0.28%)    6147 (  8.50%)
      8                       246 (  0.34%)    5946 (  8.22%)
      9                       347 (  0.48%)    5700 (  7.88%)
     10                       315 (  0.44%)    5353 (  7.40%)
     11                       211 (  0.29%)    5038 (  6.97%)
     12                       199 (  0.28%)    4827 (  6.67%)
     13                       214 (  0.30%)    4628 (  6.40%)
     14                       141 (  0.19%)    4414 (  6.10%)
     15                       128 (  0.18%)    4273 (  5.91%)
     16                       115 (  0.16%)    4145 (  5.73%)
     17                        97 (  0.13%)    4030 (  5.57%)
     18                       118 (  0.16%)    3933 (  5.44%)
     19                       101 (  0.14%)    3815 (  5.28%)
     20                       118 (  0.16%)    3714 (  5.14%)
     21                       106 (  0.15%)    3596 (  4.97%)
     22                       108 (  0.15%)    3490 (  4.83%)
     23                       115 (  0.16%)    3382 (  4.68%)
     24                       120 (  0.17%)    3267 (  4.52%)
     25                        94 (  0.13%)    3147 (  4.35%)
     26                        87 (  0.12%)    3053 (  4.22%)
     27                        74 (  0.10%)    2966 (  4.10%)
     28                        61 (  0.08%)    2892 (  4.00%)
     29                        58 (  0.08%)    2831 (  3.91%)
     30                        44 (  0.06%)    2773 (  3.83%)
     31                        37 (  0.05%)    2729 (  3.77%)
     32                        38 (  0.05%)    2692 (  3.72%)
     33                        23 (  0.03%)    2654 (  3.67%)
     34                        15 (  0.02%)    2631 (  3.64%)
     35                        14 (  0.02%)    2616 (  3.62%)
     36                         4 (  0.01%)    2602 (  3.60%)
     37                        11 (  0.02%)    2598 (  3.59%)
     38                         4 (  0.01%)    2587 (  3.58%)
     39                         7 (  0.01%)    2583 (  3.57%)
     40                         6 (  0.01%)    2576 (  3.56%)
     41                         6 (  0.01%)    2570 (  3.55%)
     42                         2 (  0.00%)    2564 (  3.55%)
     43                         4 (  0.01%)    2562 (  3.54%)
     44                         3 (  0.00%)    2558 (  3.54%)
     45                         4 (  0.01%)    2555 (  3.53%)
     46                         4 (  0.01%)    2551 (  3.53%)
     47                         3 (  0.00%)    2547 (  3.52%)
     48                         8 (  0.01%)    2544 (  3.52%)
     49                         9 (  0.01%)    2536 (  3.51%)
     50                        12 (  0.02%)    2527 (  3.49%)
     51                         8 (  0.01%)    2515 (  3.48%)
     52                        12 (  0.02%)    2507 (  3.47%)
     53                        13 (  0.02%)    2495 (  3.45%)
     54                        14 (  0.02%)    2482 (  3.43%)
     55                        10 (  0.01%)    2468 (  3.41%)
     56                        18 (  0.02%)    2458 (  3.40%)
     57                        20 (  0.03%)    2440 (  3.37%)
     58                        16 (  0.02%)    2420 (  3.35%)
     59                        11 (  0.02%)    2404 (  3.32%)
     60                        23 (  0.03%)    2393 (  3.31%)
     61                        20 (  0.03%)    2370 (  3.28%)
     62                        19 (  0.03%)    2350 (  3.25%)
     63                        20 (  0.03%)    2331 (  3.22%)
     64                        29 (  0.04%)    2311 (  3.20%)
     65                        11 (  0.02%)    2282 (  3.16%)
     66                        17 (  0.02%)    2271 (  3.14%)
     67                        24 (  0.03%)    2254 (  3.12%)
     68                        20 (  0.03%)    2230 (  3.08%)
     69                        13 (  0.02%)    2210 (  3.06%)
     70                        39 (  0.05%)    2197 (  3.04%)
     71                        17 (  0.02%)    2158 (  2.98%)
     72                        29 (  0.04%)    2141 (  2.96%)
     73                        15 (  0.02%)    2112 (  2.92%)
     74                        42 (  0.06%)    2097 (  2.90%)
     75                        52 (  0.07%)    2055 (  2.84%)
     76                        94 (  0.13%)    2003 (  2.77%)
     77                        54 (  0.07%)    1909 (  2.64%)
     78                        33 (  0.05%)    1855 (  2.57%)
     79                        57 (  0.08%)    1822 (  2.52%)
     80                        88 (  0.12%)    1765 (  2.44%)
     81                        36 (  0.05%)    1677 (  2.32%)
     82                        78 (  0.11%)    1641 (  2.27%)
     83                        53 (  0.07%)    1563 (  2.16%)
     84                        88 (  0.12%)    1510 (  2.09%)
     85                        97 (  0.13%)    1422 (  1.97%)
     86                        96 (  0.13%)    1325 (  1.83%)
     87                        68 (  0.09%)    1229 (  1.70%)
     88                        97 (  0.13%)    1161 (  1.61%)
     89                        57 (  0.08%)    1064 (  1.47%)
     90                        83 (  0.11%)    1007 (  1.39%)
     91                        82 (  0.11%)     924 (  1.28%)
     92                        68 (  0.09%)     842 (  1.16%)
     93                        72 (  0.10%)     774 (  1.07%)
     94                        35 (  0.05%)     702 (  0.97%)
     95                        48 (  0.07%)     667 (  0.92%)
     96                        31 (  0.04%)     619 (  0.86%)
     97                         7 (  0.01%)     588 (  0.81%)
     98                         2 (  0.00%)     581 (  0.80%)
     99                        24 (  0.03%)     579 (  0.80%)
    100                        12 (  0.02%)     555 (  0.77%)
    101                        13 (  0.02%)     543 (  0.75%)
    102                         5 (  0.01%)     530 (  0.73%)
    103                         1 (  0.00%)     525 (  0.73%)
    104                         0 (  0.00%)     524 (  0.72%)
    105                         0 (  0.00%)     524 (  0.72%)
    106                        10 (  0.01%)     524 (  0.72%)
    107                         0 (  0.00%)     514 (  0.71%)
    108                         2 (  0.00%)     514 (  0.71%)
    109                         0 (  0.00%)     512 (  0.71%)
    110                         0 (  0.00%)     512 (  0.71%)
    111                         2 (  0.00%)     512 (  0.71%)
    112                         2 (  0.00%)     510 (  0.71%)
    113                         4 (  0.01%)     508 (  0.70%)
    114                         0 (  0.00%)     504 (  0.70%)
    115                         0 (  0.00%)     504 (  0.70%)
    116                         2 (  0.00%)     504 (  0.70%)
    117                         6 (  0.01%)     502 (  0.69%)
    118                        12 (  0.02%)     496 (  0.69%)
    119                        16 (  0.02%)     484 (  0.67%)
    120                        10 (  0.01%)     468 (  0.65%)
    121                        10 (  0.01%)     458 (  0.63%)
    122                        10 (  0.01%)     448 (  0.62%)
    123                        10 (  0.01%)     438 (  0.61%)
    124                        10 (  0.01%)     428 (  0.59%)
    125                        10 (  0.01%)     418 (  0.58%)
    126                        22 (  0.03%)     408 (  0.56%)
    127                        12 (  0.02%)     386 (  0.53%)
    128                        10 (  0.01%)     374 (  0.52%)
    129                        18 (  0.02%)     364 (  0.50%)
    130                        12 (  0.02%)     346 (  0.48%)
    131                         4 (  0.01%)     334 (  0.46%)
    132                        12 (  0.02%)     330 (  0.46%)
    133                        14 (  0.02%)     318 (  0.44%)
    134                         6 (  0.01%)     304 (  0.42%)
    135                        10 (  0.01%)     298 (  0.41%)
    136                         2 (  0.00%)     288 (  0.40%)
    137                         6 (  0.01%)     286 (  0.40%)
    138                         6 (  0.01%)     280 (  0.39%)
    139                         4 (  0.01%)     274 (  0.38%)
    140                         4 (  0.01%)     270 (  0.37%)
    141                         4 (  0.01%)     266 (  0.37%)
    142                         2 (  0.00%)     262 (  0.36%)
    143                         0 (  0.00%)     260 (  0.36%)
    144                         0 (  0.00%)     260 (  0.36%)
    145                         2 (  0.00%)     260 (  0.36%)
    146                         0 (  0.00%)     258 (  0.36%)
    147                         0 (  0.00%)     258 (  0.36%)
    148                         0 (  0.00%)     258 (  0.36%)
    149                         2 (  0.00%)     258 (  0.36%)
    150                         0 (  0.00%)     256 (  0.35%)
    151                         0 (  0.00%)     256 (  0.35%)
    152                         0 (  0.00%)     256 (  0.35%)
    153                         0 (  0.00%)     256 (  0.35%)
    154                         2 (  0.00%)     256 (  0.35%)
    155                         2 (  0.00%)     254 (  0.35%)
    156                         4 (  0.01%)     252 (  0.35%)
    157                         0 (  0.00%)     248 (  0.34%)
    158                         0 (  0.00%)     248 (  0.34%)
    159                         6 (  0.01%)     248 (  0.34%)
    160                         8 (  0.01%)     242 (  0.33%)
    161                         6 (  0.01%)     234 (  0.32%)
    162                        14 (  0.02%)     228 (  0.32%)
    163                        12 (  0.02%)     214 (  0.30%)
    164                        14 (  0.02%)     202 (  0.28%)
    165                        14 (  0.02%)     188 (  0.26%)
    166                         8 (  0.01%)     174 (  0.24%)
    167                        16 (  0.02%)     166 (  0.23%)
    168                        10 (  0.01%)     150 (  0.21%)
    169                        18 (  0.02%)     140 (  0.19%)
    170                        18 (  0.02%)     122 (  0.17%)
    171                        16 (  0.02%)     104 (  0.14%)
    172                         8 (  0.01%)      88 (  0.12%)
    173                        14 (  0.02%)      80 (  0.11%)
    174                         4 (  0.01%)      66 (  0.09%)
    175                        16 (  0.02%)      62 (  0.09%)
    176                         8 (  0.01%)      46 (  0.06%)
    177                         0 (  0.00%)      38 (  0.05%)
    178                         8 (  0.01%)      38 (  0.05%)
    179                        14 (  0.02%)      30 (  0.04%)
    180                         4 (  0.01%)      16 (  0.02%)
    181                         4 (  0.01%)      12 (  0.02%)
    182                         0 (  0.00%)       8 (  0.01%)
    183                         2 (  0.00%)       8 (  0.01%)
    184                         0 (  0.00%)       6 (  0.01%)
    185                         4 (  0.01%)       6 (  0.01%)
    186                         0 (  0.00%)       2 (  0.00%)
    187                         0 (  0.00%)       2 (  0.00%)
    188                         0 (  0.00%)       2 (  0.00%)
    189                         0 (  0.00%)       2 (  0.00%)
    190                         0 (  0.00%)       2 (  0.00%)
    191                         0 (  0.00%)       2 (  0.00%)
    192                         0 (  0.00%)       2 (  0.00%)
    193                         0 (  0.00%)       2 (  0.00%)
    194                         0 (  0.00%)       2 (  0.00%)
    195                         0 (  0.00%)       2 (  0.00%)
    196                         0 (  0.00%)       2 (  0.00%)
    197                         0 (  0.00%)       2 (  0.00%)
    198                         0 (  0.00%)       2 (  0.00%)
    199                         0 (  0.00%)       2 (  0.00%)
    200                         0 (  0.00%)       2 (  0.00%)
    201                         0 (  0.00%)       2 (  0.00%)
    202                         0 (  0.00%)       2 (  0.00%)
    203                         0 (  0.00%)       2 (  0.00%)
    204                         0 (  0.00%)       2 (  0.00%)
    205                         0 (  0.00%)       2 (  0.00%)
    206                         0 (  0.00%)       2 (  0.00%)
    207                         0 (  0.00%)       2 (  0.00%)
    208                         0 (  0.00%)       2 (  0.00%)
    209                         0 (  0.00%)       2 (  0.00%)
    210                         0 (  0.00%)       2 (  0.00%)
    211                         0 (  0.00%)       2 (  0.00%)
    212                         0 (  0.00%)       2 (  0.00%)
    213                         0 (  0.00%)       2 (  0.00%)
    214                         0 (  0.00%)       2 (  0.00%)
    215                         0 (  0.00%)       2 (  0.00%)
    216                         0 (  0.00%)       2 (  0.00%)
    217                         0 (  0.00%)       2 (  0.00%)
    218                         0 (  0.00%)       2 (  0.00%)
    219                         0 (  0.00%)       2 (  0.00%)
    220                         0 (  0.00%)       2 (  0.00%)
    221                         0 (  0.00%)       2 (  0.00%)
    222                         0 (  0.00%)       2 (  0.00%)
    223                         0 (  0.00%)       2 (  0.00%)
    224                         0 (  0.00%)       2 (  0.00%)
    225                         0 (  0.00%)       2 (  0.00%)
    226                         0 (  0.00%)       2 (  0.00%)
    227                         0 (  0.00%)       2 (  0.00%)
    228                         0 (  0.00%)       2 (  0.00%)
    229                         0 (  0.00%)       2 (  0.00%)
    230                         0 (  0.00%)       2 (  0.00%)
    231                         0 (  0.00%)       2 (  0.00%)
    232                         0 (  0.00%)       2 (  0.00%)
    233                         0 (  0.00%)       2 (  0.00%)
    234                         0 (  0.00%)       2 (  0.00%)
    235                         0 (  0.00%)       2 (  0.00%)
    236                         0 (  0.00%)       2 (  0.00%)
    237                         0 (  0.00%)       2 (  0.00%)
    238                         0 (  0.00%)       2 (  0.00%)
    239                         0 (  0.00%)       2 (  0.00%)
    240                         0 (  0.00%)       2 (  0.00%)
    241                         0 (  0.00%)       2 (  0.00%)
    242                         0 (  0.00%)       2 (  0.00%)
    243                         0 (  0.00%)       2 (  0.00%)
    244                         0 (  0.00%)       2 (  0.00%)
    245                         0 (  0.00%)       2 (  0.00%)
    246                         0 (  0.00%)       2 (  0.00%)
    247                         0 (  0.00%)       2 (  0.00%)
    248                         0 (  0.00%)       2 (  0.00%)
    249                         0 (  0.00%)       2 (  0.00%)
    250                         0 (  0.00%)       2 (  0.00%)
    251                         0 (  0.00%)       2 (  0.00%)
    252                         0 (  0.00%)       2 (  0.00%)
    253                         0 (  0.00%)       2 (  0.00%)
    254                         0 (  0.00%)       2 (  0.00%)
    255+                        2 (  0.00%)       2 (  0.00%)
-------------------------------------------------------------
bridge_coverage_estimate                              11.03% 
-------------------------------------------------------------

