                      Statistics Report                      
                       Stuck-at Faults                       
-------------------------------------------------------------
Fault Classes                           #faults              
                                        (total)              
------------------------  -----------------------------------
  FU (full)                               8716               
  ----------------------  -----------------------------------
  UC (uncontrolled)                     764          ( 8.77%)
  UO (unobserved)                      2070          (23.75%)
  DS (det_simulation)                  5880          (67.46%)
  TI (tied)                               2          ( 0.02%)
-------------------------------------------------------------
Coverage                                                     
  ----------------------                                     
  test_coverage                                       67.48% 
  fault_coverage                                      67.46% 
  atpg_effectiveness                                  67.49% 
-------------------------------------------------------------
#test_patterns                                             0 
#simulated_patterns                                      255 
CPU_time (secs)                                        382.1 
-------------------------------------------------------------
Multiple Detection Statistics                                
-------------------------------------------------------------
  Detections                  DS Faults         Test Coverage
     (N)                  (Detections == N) (Detections >= N)
------------------------  ----------------- -----------------
      1                       402 (  4.61%)    5880 ( 67.48%)
      2                       302 (  3.46%)    5478 ( 62.86%)
      3                       207 (  2.37%)    5176 ( 59.40%)
      4                       159 (  1.82%)    4969 ( 57.02%)
      5                        82 (  0.94%)    4810 ( 55.20%)
      6                        56 (  0.64%)    4728 ( 54.26%)
      7                        85 (  0.98%)    4672 ( 53.61%)
      8                        78 (  0.89%)    4587 ( 52.64%)
      9                        70 (  0.80%)    4509 ( 51.74%)
     10                       105 (  1.20%)    4439 ( 50.94%)
     11                       100 (  1.15%)    4334 ( 49.74%)
     12                        55 (  0.63%)    4234 ( 48.59%)
     13                        71 (  0.81%)    4179 ( 47.96%)
     14                        94 (  1.08%)    4108 ( 47.14%)
     15                        92 (  1.06%)    4014 ( 46.06%)
     16                       118 (  1.35%)    3922 ( 45.01%)
     17                       118 (  1.35%)    3804 ( 43.65%)
     18                       103 (  1.18%)    3686 ( 42.30%)
     19                       106 (  1.22%)    3583 ( 41.12%)
     20                       141 (  1.62%)    3477 ( 39.90%)
     21                        97 (  1.11%)    3336 ( 38.28%)
     22                        67 (  0.77%)    3239 ( 37.17%)
     23                        39 (  0.45%)    3172 ( 36.40%)
     24                        69 (  0.79%)    3133 ( 35.95%)
     25                        38 (  0.44%)    3064 ( 35.16%)
     26                        44 (  0.50%)    3026 ( 34.73%)
     27                        60 (  0.69%)    2982 ( 34.22%)
     28                        50 (  0.57%)    2922 ( 33.53%)
     29                        53 (  0.61%)    2872 ( 32.96%)
     30                        45 (  0.52%)    2819 ( 32.35%)
     31                        55 (  0.63%)    2774 ( 31.83%)
     32                        49 (  0.56%)    2719 ( 31.20%)
     33                        46 (  0.53%)    2670 ( 30.64%)
     34                        88 (  1.01%)    2624 ( 30.11%)
     35                        64 (  0.73%)    2536 ( 29.10%)
     36                        39 (  0.45%)    2472 ( 28.37%)
     37                        55 (  0.63%)    2433 ( 27.92%)
     38                        48 (  0.55%)    2378 ( 27.29%)
     39                        41 (  0.47%)    2330 ( 26.74%)
     40                        23 (  0.26%)    2289 ( 26.27%)
     41                        30 (  0.34%)    2266 ( 26.00%)
     42                        54 (  0.62%)    2236 ( 25.66%)
     43                        11 (  0.13%)    2182 ( 25.04%)
     44                        49 (  0.56%)    2171 ( 24.91%)
     45                        40 (  0.46%)    2122 ( 24.35%)
     46                        16 (  0.18%)    2082 ( 23.89%)
     47                        47 (  0.54%)    2066 ( 23.71%)
     48                         9 (  0.10%)    2019 ( 23.17%)
     49                        16 (  0.18%)    2010 ( 23.07%)
     50                        21 (  0.24%)    1994 ( 22.88%)
     51                        23 (  0.26%)    1973 ( 22.64%)
     52                        32 (  0.37%)    1950 ( 22.38%)
     53                        12 (  0.14%)    1918 ( 22.01%)
     54                        37 (  0.42%)    1906 ( 21.87%)
     55                        38 (  0.44%)    1869 ( 21.45%)
     56                        29 (  0.33%)    1831 ( 21.01%)
     57                        34 (  0.39%)    1802 ( 20.68%)
     58                        67 (  0.77%)    1768 ( 20.29%)
     59                        40 (  0.46%)    1701 ( 19.52%)
     60                       102 (  1.17%)    1661 ( 19.06%)
     61                        43 (  0.49%)    1559 ( 17.89%)
     62                        44 (  0.50%)    1516 ( 17.40%)
     63                        71 (  0.81%)    1472 ( 16.89%)
     64                        90 (  1.03%)    1401 ( 16.08%)
     65                       111 (  1.27%)    1311 ( 15.04%)
     66                        86 (  0.99%)    1200 ( 13.77%)
     67                        55 (  0.63%)    1114 ( 12.78%)
     68                        64 (  0.73%)    1059 ( 12.15%)
     69                        79 (  0.91%)     995 ( 11.42%)
     70                        57 (  0.65%)     916 ( 10.51%)
     71                        66 (  0.76%)     859 (  9.86%)
     72                        21 (  0.24%)     793 (  9.10%)
     73                        32 (  0.37%)     772 (  8.86%)
     74                        11 (  0.13%)     740 (  8.49%)
     75                        21 (  0.24%)     729 (  8.37%)
     76                         7 (  0.08%)     708 (  8.12%)
     77                         1 (  0.01%)     701 (  8.04%)
     78                        12 (  0.14%)     700 (  8.03%)
     79                        14 (  0.16%)     688 (  7.90%)
     80                        11 (  0.13%)     674 (  7.73%)
     81                        32 (  0.37%)     663 (  7.61%)
     82                         4 (  0.05%)     631 (  7.24%)
     83                         6 (  0.07%)     627 (  7.20%)
     84                        13 (  0.15%)     621 (  7.13%)
     85                        17 (  0.20%)     608 (  6.98%)
     86                         8 (  0.09%)     591 (  6.78%)
     87                         2 (  0.02%)     583 (  6.69%)
     88                         3 (  0.03%)     581 (  6.67%)
     89                         1 (  0.01%)     578 (  6.63%)
     90                         6 (  0.07%)     577 (  6.62%)
     91                        23 (  0.26%)     571 (  6.55%)
     92                         0 (  0.00%)     548 (  6.29%)
     93                         1 (  0.01%)     548 (  6.29%)
     94                         8 (  0.09%)     547 (  6.28%)
     95                         3 (  0.03%)     539 (  6.19%)
     96                         4 (  0.05%)     536 (  6.15%)
     97                         3 (  0.03%)     532 (  6.11%)
     98                         0 (  0.00%)     529 (  6.07%)
     99                         2 (  0.02%)     529 (  6.07%)
    100                         0 (  0.00%)     527 (  6.05%)
    101                         0 (  0.00%)     527 (  6.05%)
    102                         1 (  0.01%)     527 (  6.05%)
    103                         8 (  0.09%)     526 (  6.04%)
    104                         2 (  0.02%)     518 (  5.94%)
    105                         3 (  0.03%)     516 (  5.92%)
    106                         0 (  0.00%)     513 (  5.89%)
    107                         8 (  0.09%)     513 (  5.89%)
    108                         0 (  0.00%)     505 (  5.80%)
    109                         7 (  0.08%)     505 (  5.80%)
    110                         8 (  0.09%)     498 (  5.71%)
    111                        12 (  0.14%)     490 (  5.62%)
    112                         2 (  0.02%)     478 (  5.49%)
    113                         2 (  0.02%)     476 (  5.46%)
    114                         6 (  0.07%)     474 (  5.44%)
    115                         6 (  0.07%)     468 (  5.37%)
    116                        11 (  0.13%)     462 (  5.30%)
    117                         4 (  0.05%)     451 (  5.18%)
    118                         4 (  0.05%)     447 (  5.13%)
    119                         1 (  0.01%)     443 (  5.08%)
    120                        12 (  0.14%)     442 (  5.07%)
    121                         3 (  0.03%)     430 (  4.93%)
    122                         6 (  0.07%)     427 (  4.90%)
    123                        13 (  0.15%)     421 (  4.83%)
    124                        10 (  0.11%)     408 (  4.68%)
    125                         4 (  0.05%)     398 (  4.57%)
    126                         4 (  0.05%)     394 (  4.52%)
    127                         1 (  0.01%)     390 (  4.48%)
    128                         7 (  0.08%)     389 (  4.46%)
    129                         4 (  0.05%)     382 (  4.38%)
    130                         6 (  0.07%)     378 (  4.34%)
    131                        14 (  0.16%)     372 (  4.27%)
    132                        14 (  0.16%)     358 (  4.11%)
    133                         5 (  0.06%)     344 (  3.95%)
    134                         2 (  0.02%)     339 (  3.89%)
    135                        10 (  0.11%)     337 (  3.87%)
    136                         3 (  0.03%)     327 (  3.75%)
    137                         4 (  0.05%)     324 (  3.72%)
    138                         4 (  0.05%)     320 (  3.67%)
    139                        15 (  0.17%)     316 (  3.63%)
    140                        12 (  0.14%)     301 (  3.45%)
    141                         4 (  0.05%)     289 (  3.32%)
    142                         1 (  0.01%)     285 (  3.27%)
    143                         0 (  0.00%)     284 (  3.26%)
    144                         6 (  0.07%)     284 (  3.26%)
    145                         0 (  0.00%)     278 (  3.19%)
    146                         2 (  0.02%)     278 (  3.19%)
    147                         0 (  0.00%)     276 (  3.17%)
    148                        10 (  0.11%)     276 (  3.17%)
    149                         0 (  0.00%)     266 (  3.05%)
    150                         6 (  0.07%)     266 (  3.05%)
    151                         6 (  0.07%)     260 (  2.98%)
    152                         0 (  0.00%)     254 (  2.91%)
    153                         0 (  0.00%)     254 (  2.91%)
    154                         0 (  0.00%)     254 (  2.91%)
    155                         0 (  0.00%)     254 (  2.91%)
    156                         0 (  0.00%)     254 (  2.91%)
    157                         2 (  0.02%)     254 (  2.91%)
    158                         0 (  0.00%)     252 (  2.89%)
    159                         6 (  0.07%)     252 (  2.89%)
    160                         0 (  0.00%)     246 (  2.82%)
    161                         2 (  0.02%)     246 (  2.82%)
    162                         0 (  0.00%)     244 (  2.80%)
    163                         0 (  0.00%)     244 (  2.80%)
    164                         8 (  0.09%)     244 (  2.80%)
    165                         0 (  0.00%)     236 (  2.71%)
    166                         2 (  0.02%)     236 (  2.71%)
    167                         0 (  0.00%)     234 (  2.69%)
    168                         0 (  0.00%)     234 (  2.69%)
    169                         0 (  0.00%)     234 (  2.69%)
    170                         0 (  0.00%)     234 (  2.69%)
    171                         0 (  0.00%)     234 (  2.69%)
    172                         0 (  0.00%)     234 (  2.69%)
    173                         0 (  0.00%)     234 (  2.69%)
    174                         2 (  0.02%)     234 (  2.69%)
    175                         2 (  0.02%)     232 (  2.66%)
    176                         2 (  0.02%)     230 (  2.64%)
    177                         2 (  0.02%)     228 (  2.62%)
    178                         0 (  0.00%)     226 (  2.59%)
    179                         0 (  0.00%)     226 (  2.59%)
    180                         2 (  0.02%)     226 (  2.59%)
    181                         0 (  0.00%)     224 (  2.57%)
    182                         2 (  0.02%)     224 (  2.57%)
    183                         4 (  0.05%)     222 (  2.55%)
    184                         8 (  0.09%)     218 (  2.50%)
    185                         6 (  0.07%)     210 (  2.41%)
    186                         4 (  0.05%)     204 (  2.34%)
    187                         8 (  0.09%)     200 (  2.30%)
    188                         4 (  0.05%)     192 (  2.20%)
    189                        20 (  0.23%)     188 (  2.16%)
    190                         6 (  0.07%)     168 (  1.93%)
    191                        18 (  0.21%)     162 (  1.86%)
    192                         2 (  0.02%)     144 (  1.65%)
    193                         5 (  0.06%)     142 (  1.63%)
    194                         4 (  0.05%)     137 (  1.57%)
    195                        12 (  0.14%)     133 (  1.53%)
    196                         2 (  0.02%)     121 (  1.39%)
    197                         6 (  0.07%)     119 (  1.37%)
    198                         0 (  0.00%)     113 (  1.30%)
    199                         2 (  0.02%)     113 (  1.30%)
    200                         4 (  0.05%)     111 (  1.27%)
    201                         2 (  0.02%)     107 (  1.23%)
    202                         0 (  0.00%)     105 (  1.20%)
    203                         0 (  0.00%)     105 (  1.20%)
    204                         2 (  0.02%)     105 (  1.20%)
    205                         0 (  0.00%)     103 (  1.18%)
    206                         0 (  0.00%)     103 (  1.18%)
    207                         0 (  0.00%)     103 (  1.18%)
    208                         2 (  0.02%)     103 (  1.18%)
    209                         0 (  0.00%)     101 (  1.16%)
    210                         2 (  0.02%)     101 (  1.16%)
    211                         2 (  0.02%)      99 (  1.14%)
    212                         2 (  0.02%)      97 (  1.11%)
    213                         0 (  0.00%)      95 (  1.09%)
    214                         0 (  0.00%)      95 (  1.09%)
    215                         0 (  0.00%)      95 (  1.09%)
    216                         0 (  0.00%)      95 (  1.09%)
    217                         0 (  0.00%)      95 (  1.09%)
    218                         0 (  0.00%)      95 (  1.09%)
    219                         0 (  0.00%)      95 (  1.09%)
    220                         0 (  0.00%)      95 (  1.09%)
    221                         5 (  0.06%)      95 (  1.09%)
    222                         0 (  0.00%)      90 (  1.03%)
    223                         0 (  0.00%)      90 (  1.03%)
    224                         0 (  0.00%)      90 (  1.03%)
    225                         2 (  0.02%)      90 (  1.03%)
    226                         0 (  0.00%)      88 (  1.01%)
    227                         0 (  0.00%)      88 (  1.01%)
    228                         2 (  0.02%)      88 (  1.01%)
    229                         0 (  0.00%)      86 (  0.99%)
    230                         2 (  0.02%)      86 (  0.99%)
    231                         0 (  0.00%)      84 (  0.96%)
    232                         4 (  0.05%)      84 (  0.96%)
    233                         4 (  0.05%)      80 (  0.92%)
    234                         6 (  0.07%)      76 (  0.87%)
    235                        12 (  0.14%)      70 (  0.80%)
    236                         2 (  0.02%)      58 (  0.67%)
    237                         4 (  0.05%)      56 (  0.64%)
    238                         6 (  0.07%)      52 (  0.60%)
    239                         4 (  0.05%)      46 (  0.53%)
    240                         4 (  0.05%)      42 (  0.48%)
    241                         2 (  0.02%)      38 (  0.44%)
    242                         2 (  0.02%)      36 (  0.41%)
    243                         2 (  0.02%)      34 (  0.39%)
    244                         0 (  0.00%)      32 (  0.37%)
    245                         2 (  0.02%)      32 (  0.37%)
    246                         0 (  0.00%)      30 (  0.34%)
    247                         0 (  0.00%)      30 (  0.34%)
    248                         2 (  0.02%)      30 (  0.34%)
    249                         0 (  0.00%)      28 (  0.32%)
    250                         6 (  0.07%)      28 (  0.32%)
    251                         4 (  0.05%)      22 (  0.25%)
    252                         6 (  0.07%)      18 (  0.21%)
    253                         4 (  0.05%)      12 (  0.14%)
    254                         6 (  0.07%)       8 (  0.09%)
    255+                        2 (  0.02%)       2 (  0.02%)
-------------------------------------------------------------
bridge_coverage_estimate                              63.84% 
-------------------------------------------------------------

