safType,netID,numDetections
0,X,441736
1,X,442341
1,g001.Y,346396
0,g001.A,346396
0,Clear,346396
0,g001.Y,346788
1,g001.A,346788
1,Clear,346788
0,g307.A0,0
0,g307.A1,0
0,g306.Y,0
0,g306.A0,0
0,g306.A1,0
0,g305.Y,0
0,g305.A1,0
0,g305.A0,0
0,C_32,0
0,g310.A1,0
1,C_32,0
1,g305.A1,0
0,g309.A0,0
0,g309.A1,0
0,g308.Y,0
0,g308.A1,0
0,g308.A0,0
0,C_31,0
0,g310.A0,0
1,C_31,0
1,g308.A1,0
0,g214.A0,0
0,g214.A1,0
0,g213.Y,0
0,g213.A1,0
0,g213.A0,0
0,C_30,0
0,g303.A1,0
1,C_30,0
1,g213.A1,0
0,g216.A0,0
0,g216.A1,0
0,g215.Y,0
0,g215.A1,0
0,g215.A0,0
0,C_29,0
0,g302.A1,0
1,C_29,0
1,g215.A1,0
0,g218.A0,0
0,g218.A1,0
0,g217.Y,0
0,g217.A1,0
0,g217.A0,0
0,C_28,0
0,g301.A1,0
1,C_28,0
1,g217.A1,0
0,g220.A0,0
0,g220.A1,0
0,g219.Y,0
0,g219.A1,0
0,g219.A0,0
0,C_27,0
0,g300.A1,0
1,C_27,0
1,g219.A1,0
0,g222.A0,0
0,g222.A1,0
0,g221.Y,0
0,g221.A1,0
0,g221.A0,0
0,C_26,0
0,g299.A1,0
1,C_26,0
1,g221.A1,0
0,g224.A0,0
0,g224.A1,0
0,g223.Y,0
0,g223.A1,0
0,g223.A0,0
0,C_25,0
0,g298.A1,0
1,C_25,0
1,g223.A1,0
0,g226.A0,0
0,g226.A1,0
0,g225.Y,0
0,g225.A1,0
0,g225.A0,0
0,C_24,0
0,g297.A1,0
1,C_24,0
1,g225.A1,0
0,g228.A0,0
0,g228.A1,0
0,g227.Y,0
0,g227.A1,0
0,g227.A0,0
0,C_23,0
0,g296.A1,0
1,C_23,1
1,g227.A1,1
0,g230.A0,0
0,g230.A1,0
0,g229.Y,0
0,g229.A1,0
0,g229.A0,0
0,C_22,0
0,g295.A1,0
1,C_22,0
1,g229.A1,0
0,g232.A0,0
0,g232.A1,0
0,g231.Y,0
0,g231.A1,0
0,g231.A0,0
0,C_21,0
0,g294.A1,0
1,C_21,0
1,g231.A1,0
0,g234.A0,0
0,g234.A1,0
0,g233.Y,0
0,g233.A1,0
0,g233.A0,0
0,C_20,0
0,g293.A1,0
1,C_20,0
1,g233.A1,0
0,g236.A0,1
0,g236.A1,1
0,g235.Y,1
0,g235.A1,1
0,g235.A0,1
0,C_19,1
0,g292.A1,1
1,C_19,1
1,g235.A1,1
0,g238.A0,0
0,g238.A1,0
0,g237.Y,0
0,g237.A1,0
0,g237.A0,0
0,C_18,0
0,g291.A1,0
1,C_18,3
1,g237.A1,3
0,g240.A0,1
0,g240.A1,1
0,g239.Y,1
0,g239.A1,1
0,g239.A0,1
0,C_17,1
0,g290.A1,1
1,C_17,0
1,g239.A1,0
0,g242.A0,0
0,g242.A1,0
0,g241.Y,0
0,g241.A1,0
0,g241.A0,0
0,C_16,0
0,g289.A1,0
1,C_16,4
1,g241.A1,4
0,g244.A0,4
0,g244.A1,4
0,g243.Y,4
0,g243.A1,4
0,g243.A0,4
0,C_15,4
0,g288.A1,4
1,C_15,4
1,g243.A1,4
0,g246.A0,7
0,g246.A1,7
0,g245.Y,7
0,g245.A1,7
0,g245.A0,7
0,C_14,7
0,g287.A1,7
1,C_14,3
1,g245.A1,3
0,g248.A0,11
0,g248.A1,11
0,g247.Y,11
0,g247.A1,11
0,g247.A0,11
0,C_13,11
0,g286.A1,11
1,C_13,9
1,g247.A1,9
0,g250.A0,28
0,g250.A1,28
0,g249.Y,28
0,g249.A1,28
0,g249.A0,28
0,C_12,28
0,g285.A1,28
1,C_12,21
1,g249.A1,21
0,g252.A0,73
0,g252.A1,73
0,g251.Y,73
0,g251.A1,73
0,g251.A0,73
0,C_11,73
0,g284.A1,73
1,C_11,71
1,g251.A1,71
0,g254.A0,149
0,g254.A1,149
0,g253.Y,149
0,g253.A1,149
0,g253.A0,149
0,C_10,149
0,g283.A1,149
1,C_10,141
1,g253.A1,141
0,g256.A0,266
0,g256.A1,266
0,g255.Y,266
0,g255.A1,266
0,g255.A0,266
0,C_9,266
0,g282.A1,266
1,C_9,252
1,g255.A1,252
0,g258.Y,485
0,g258.A0,485
0,g258.A1,485
0,g257.Y,485
0,g257.A1,485
0,g257.A0,485
0,C_8,485
0,g281.A1,485
1,C_8,524
1,g257.A1,524
0,g260.Y,1036
0,g260.A0,1036
0,g260.A1,1036
0,g259.Y,1036
0,g259.A1,1036
0,g259.A0,1036
0,C_7,1036
0,g280.A1,1036
1,C_7,977
1,g259.A1,977
0,g262.Y,1988
0,g262.A0,1988
0,g262.A1,1988
0,g261.Y,1988
0,g261.A1,1988
0,g261.A0,1988
0,C_6,1988
0,g279.A1,1988
1,C_6,1976
1,g261.A1,1976
0,g264.Y,4038
0,g264.A0,4038
0,g264.A1,4038
0,g263.Y,4038
0,g263.A1,4038
0,g263.A0,4038
0,C_5,4038
0,g278.A1,4038
1,C_5,4023
1,g263.A1,4023
0,g266.Y,7892
0,g266.A0,7892
0,g266.A1,7892
0,g265.Y,7892
0,g265.A1,7892
0,g265.A0,7892
0,C_4,7892
0,g277.A1,7892
1,C_4,8008
1,g265.A1,8008
0,g268.Y,15804
0,g268.A0,15804
0,g268.A1,15804
0,g267.Y,15804
0,g267.A1,15804
0,g267.A0,15804
0,C_3,15804
0,g276.A1,15804
1,C_3,15871
1,g267.A1,15871
0,g272.Y,31603
0,g272.A0,31603
0,g272.A1,31603
0,g271.Y,31603
0,g271.A1,31603
0,g271.A0,31603
0,C_2,31603
0,g274.A1,31603
1,C_2,32161
1,g271.A1,32161
0,g270.Y,63775
0,g270.A0,63775
0,g270.A1,63775
0,g269.Y,63775
0,g269.A0,63775
0,g269.A1,63775
0,C_1,63775
0,g275.A1,63775
1,C_1,63772
1,g269.A0,63772
0,g273.Y,127357
0,g273.A0,127357
0,g273.A1,127357
0,C_0,127357
0,g274.A0,127357
1,C_0,127822
1,g273.A0,127822
0,Y_4,146184
1,Y_4,146656
0,Y_3,150420
1,Y_3,150308
0,Y_2,158229
1,Y_2,158489
0,Y_1,174470
1,Y_1,173761
0,Y_8,44643
1,Y_8,44241
0,Y_7,45011
1,Y_7,44925
0,Y_6,46039
1,Y_6,45702
0,Y_5,47781
1,Y_5,48182
0,Y_12,43874
1,Y_12,43985
0,Y_11,43961
1,Y_11,44176
0,Y_10,43931
1,Y_10,44392
0,Y_9,44100
1,Y_9,44107
0,Y_16,43850
1,Y_16,43935
0,Y_15,43974
1,Y_15,43576
0,Y_14,43988
1,Y_14,43798
0,Y_13,43957
1,Y_13,44083
0,Y_20,43938
1,Y_20,43948
0,Y_19,43912
1,Y_19,44113
0,Y_18,43905
1,Y_18,43854
0,Y_17,43959
1,Y_17,43791
0,Y_24,43895
1,Y_24,44157
0,Y_23,44139
1,Y_23,43806
0,Y_22,44068
1,Y_22,43705
0,Y_21,44079
1,Y_21,44134
0,Y_28,43955
1,Y_28,43969
0,Y_27,44060
1,Y_27,43948
0,Y_26,43897
1,Y_26,43991
0,Y_25,43923
1,Y_25,44100
0,Y_32,77647
1,Y_32,77604
0,Y_31,77506
1,Y_31,77708
0,Y_30,77580
1,Y_30,77498
0,Y_29,77625
1,Y_29,77380
1,Z,638363
1,g311.Y,638363
1,g311.A0,638363
1,g311.A1,638363
1,g310.Y,638363
1,g310.A0,638363
1,g310.A1,638363
1,g303.Y,638363
1,g303.A0,638363
1,g303.A1,638363
1,g309.Y,638363
1,g307.Y,638363
1,g302.Y,638363
1,g302.A0,638363
1,g302.A1,638363
1,g214.Y,638363
1,g301.Y,638363
1,g301.A0,638363
1,g301.A1,638363
1,g216.Y,638363
1,g300.Y,638363
1,g300.A0,638363
1,g300.A1,638363
1,g218.Y,638363
1,g299.Y,638363
1,g299.A0,638363
1,g299.A1,638363
1,g220.Y,638363
1,g298.Y,638363
1,g298.A0,638363
1,g298.A1,638363
1,g222.Y,638363
1,g297.Y,638363
1,g297.A0,638363
1,g297.A1,638363
1,g224.Y,638363
1,g296.Y,638363
1,g296.A0,638363
1,g296.A1,638363
1,g226.Y,638363
1,g295.Y,638363
1,g295.A0,638363
1,g295.A1,638363
1,g228.Y,638363
1,g294.Y,638363
1,g294.A0,638363
1,g294.A1,638363
1,g230.Y,638363
1,g293.Y,638363
1,g293.A0,638363
1,g293.A1,638363
1,g232.Y,638363
1,g292.Y,638363
1,g292.A0,638363
1,g292.A1,638363
1,g234.Y,638363
1,g291.Y,638363
1,g291.A0,638363
1,g291.A1,638363
1,g236.Y,638363
1,g290.Y,638363
1,g290.A0,638363
1,g290.A1,638363
1,g238.Y,638363
1,g289.Y,638363
1,g289.A0,638363
1,g289.A1,638363
1,g240.Y,638363
1,g288.Y,638363
1,g288.A0,638363
1,g288.A1,638363
1,g242.Y,638363
1,g287.Y,638363
1,g287.A0,638363
1,g287.A1,638363
1,g244.Y,638363
1,g286.Y,638363
1,g286.A0,638363
1,g286.A1,638363
1,g246.Y,638363
1,g285.Y,638363
1,g285.A0,638363
1,g285.A1,638363
1,g248.Y,638363
1,g284.Y,638363
1,g284.A0,638363
1,g284.A1,638363
1,g250.Y,638363
1,g283.Y,638363
1,g283.A0,638363
1,g283.A1,638363
1,g252.Y,638363
1,g282.Y,638363
1,g282.A0,638363
1,g282.A1,638363
1,g254.Y,638363
1,g281.Y,638363
1,g281.A0,638363
1,g281.A1,638363
1,g256.Y,638363
1,g280.Y,638363
1,g280.A0,638363
1,g280.A1,638363
1,g258.Y,638363
1,g279.Y,638363
1,g279.A0,638363
1,g279.A1,638363
1,g260.Y,638363
1,g278.Y,638363
1,g278.A0,638363
1,g278.A1,638363
1,g262.Y,638363
1,g277.Y,638363
1,g277.A0,638363
1,g277.A1,638363
1,g264.Y,638363
1,g276.Y,638363
1,g276.A0,638363
1,g276.A1,638363
1,g266.Y,638363
1,g275.Y,638363
1,g275.A0,638363
1,g275.A1,638363
1,g268.Y,638363
1,g274.Y,638363
1,g274.A0,638363
1,g274.A1,638363
1,g270.Y,638363
1,g273.Y,638363
1,g272.Y,638363
1,g273.A1,254934
1,g269.Y,319123
1,g270.A0,319123
1,g269.A1,127292
1,g305.Y,0
1,g306.A0,0
1,g305.A0,0
1,g308.Y,0
1,g309.A0,0
1,g308.A0,0
1,g213.Y,0
1,g214.A0,0
1,g213.A0,0
1,g215.Y,0
1,g216.A0,0
1,g215.A0,0
1,g217.Y,0
1,g218.A0,0
1,g217.A0,0
1,g219.Y,0
1,g220.A0,0
1,g219.A0,0
1,g221.Y,0
1,g222.A0,0
1,g221.A0,0
1,g223.Y,0
1,g224.A0,0
1,g223.A0,0
1,g225.Y,0
1,g226.A0,0
1,g225.A0,0
1,g227.Y,1
1,g228.A0,1
1,g227.A0,0
1,g229.Y,1
1,g230.A0,1
1,g229.A0,0
1,g231.Y,1
1,g232.A0,1
1,g231.A0,0
1,g233.Y,1
1,g234.A0,1
1,g233.A0,0
1,g235.Y,2
1,g236.A0,2
1,g235.A0,1
1,g237.Y,5
1,g238.A0,5
1,g237.A0,2
1,g239.Y,5
1,g240.A0,5
1,g239.A0,2
1,g241.Y,9
1,g242.A0,9
1,g241.A0,1
1,g243.Y,13
1,g244.A0,13
1,g243.A0,5
1,g245.Y,16
1,g246.A0,16
1,g245.A0,6
1,g247.Y,25
1,g248.A0,25
1,g247.A0,11
1,g249.Y,46
1,g250.A0,46
1,g249.A0,18
1,g251.Y,117
1,g252.A0,117
1,g251.A0,28
1,g253.Y,258
1,g254.A0,258
1,g253.A0,62
1,g255.Y,510
1,g256.A0,510
1,g255.A0,128
1,g257.Y,1034
1,g258.A0,1034
1,g257.A0,264
1,g259.Y,2011
1,g260.A0,2011
1,g259.A0,524
1,g261.Y,3987
1,g262.A0,3987
1,g261.A0,993
1,g263.Y,8010
1,g264.A0,8010
1,g263.A0,2072
1,g265.Y,16018
1,g266.A0,16018
1,g265.A0,4014
1,g267.Y,31889
1,g268.A0,31889
1,g267.A0,8018
1,g271.Y,64050
1,g272.A0,64050
1,g271.A0,16185
0,g021.Y,29814
0,g021.A0,29814
0,g021.A1,29814
0,g020.Y,29814
0,g020.A1,29814
0,g020.A0,29814
1,g020.Y,89770
1,g021.A0,89770
1,g020.A1,29881
1,g020.A0,30091
0,g006.Y,24132
1,g006.A,24132
1,g006.Y,19810
0,g006.A,19810
0,g016.Y,48010
1,g016.A,48010
1,g016.Y,39879
0,g016.A,39879
0,g008.Y,16045
0,g008.A0,16045
0,g008.A1,16045
0,g007.Y,16045
0,g007.A0,16045
0,g007.A1,16045
0,g013.A1,16045
1,g007.Y,31970
1,g008.A0,31970
1,g007.A0,16103
1,g007.A1,15867
0,g153.Y,95559
1,g153.A,95559
1,g153.Y,79879
0,g153.A,79879
0,g009.Y,46862
0,g009.A0,46862
0,g009.A1,46862
1,g009.Y,140627
1,g009.A0,46897
1,g009.A1,47062
1,g270.A1,31745
0,g000.Y,158934
1,g000.A,158934
1,g000.Y,143550
0,g000.A,143550
0,g040.Y,29989
0,g040.A0,29989
0,g040.A1,29989
0,g039.Y,29989
0,g039.A1,29989
0,g039.A0,29989
1,g039.Y,89117
1,g040.A0,89117
1,g039.A1,29689
1,g039.A0,29746
0,g025.Y,16343
1,g025.A,16343
1,g025.Y,16265
0,g025.A,16265
0,g033.Y,16928
1,g033.A,16928
1,g033.Y,16391
0,g033.A,16391
0,g027.Y,1968
0,g027.A0,1968
0,g027.A1,1968
0,g026.Y,1968
0,g026.A0,1968
0,g026.A1,1968
0,g032.A1,1968
1,g026.Y,3967
1,g027.A0,3967
1,g026.A0,1976
1,g026.A1,1991
0,g157.Y,9948
1,g157.A,9948
1,g157.Y,8936
0,g157.A,8936
0,g028.Y,32078
0,g028.A0,32078
0,g028.A1,32078
1,g028.Y,96270
1,g028.A0,32360
1,g028.A1,31871
0,g019.Y,20017
1,g019.A,20017
1,g019.Y,17886
0,g019.A,17886
0,g059.Y,29759
0,g059.A0,29759
0,g059.A1,29759
0,g058.Y,29759
0,g058.A1,29759
0,g058.A0,29759
1,g058.Y,89458
1,g059.A0,89458
1,g058.A1,29715
1,g058.A0,29773
0,g044.Y,16064
1,g044.A,16064
1,g044.Y,15971
0,g044.A,15971
0,g052.Y,16052
1,g052.A,16052
1,g052.Y,16037
0,g052.A,16037
0,g046.Y,1982
0,g046.A0,1982
0,g046.A1,1982
0,g045.Y,1982
0,g045.A0,1982
0,g045.A1,1982
0,g051.A1,1982
1,g045.Y,4012
1,g046.A0,4012
1,g045.A0,1998
1,g045.A1,2014
0,g161.Y,8171
1,g161.A,8171
1,g161.Y,7997
0,g161.A,7997
0,g047.Y,31884
0,g047.A0,31884
0,g047.A1,31884
1,g047.Y,95922
1,g047.A0,31805
1,g047.A1,32173
0,g038.Y,16293
1,g038.A,16293
1,g038.Y,16109
0,g038.A,16109
0,g078.Y,29941
0,g078.A0,29941
0,g078.A1,29941
0,g077.Y,29941
0,g077.A1,29941
0,g077.A0,29941
1,g077.Y,89650
1,g078.A0,89650
1,g077.A1,29853
1,g077.A0,29853
0,g063.Y,15973
1,g063.A,15973
1,g063.Y,15851
0,g063.A,15851
0,g071.Y,15852
1,g071.A,15852
1,g071.Y,15973
0,g071.A,15973
0,g065.A0,2022
0,g065.A1,2022
0,g064.Y,2022
0,g064.A0,2022
0,g064.A1,2022
0,g070.A1,2022
1,g064.Y,4012
1,g065.A0,4012
1,g064.A0,1951
1,g064.A1,2061
0,g165.Y,7977
1,g165.A,7977
1,g165.Y,7981
0,g165.A,7981
0,g066.Y,32082
0,g066.A0,32082
0,g066.A1,32082
1,g066.Y,96325
1,g066.A0,32199
1,g066.A1,31946
0,g057.Y,15883
1,g057.A,15883
1,g057.Y,15954
0,g057.A,15954
0,g097.Y,29873
0,g097.A0,29873
0,g097.A1,29873
0,g096.Y,29873
0,g096.A1,29873
0,g096.A0,29873
1,g096.Y,89565
1,g097.A0,89565
1,g096.A1,29925
1,g096.A0,29702
0,g082.Y,15999
1,g082.A,15999
1,g082.Y,15978
0,g082.A,15978
0,g090.Y,16027
1,g090.A,16027
1,g090.Y,15951
0,g090.A,15951
0,g084.Y,1887
0,g084.A0,1887
0,g084.A1,1887
0,g083.Y,1887
0,g083.A0,1887
0,g083.A1,1887
0,g089.A1,1887
1,g083.Y,4059
1,g084.A0,4059
1,g083.A0,2023
1,g083.A1,2036
0,g169.Y,8059
1,g169.A,8059
1,g169.Y,7941
0,g169.A,7941
0,g085.Y,31883
0,g085.A0,31883
0,g085.A1,31883
1,g085.Y,95685
1,g085.A0,31811
1,g085.A1,31871
0,g076.Y,15980
1,g076.A,15980
1,g076.Y,15998
0,g076.A,15998
0,g116.Y,29918
0,g116.A0,29918
0,g116.A1,29918
0,g115.Y,29918
0,g115.A1,29918
0,g115.A0,29918
1,g115.Y,90085
1,g116.A0,90085
1,g115.A1,30014
1,g115.A0,30008
0,g101.Y,16034
1,g101.A,16034
1,g101.Y,15836
0,g101.A,15836
0,g109.Y,15790
1,g109.A,15790
1,g109.Y,16080
0,g109.A,16080
0,g103.A0,2020
0,g103.A1,2020
0,g102.Y,2020
0,g102.A0,2020
0,g102.A1,2020
0,g108.A1,2020
1,g102.Y,4001
1,g103.A0,4001
1,g102.A0,2004
1,g102.A1,1997
0,g173.Y,8070
1,g173.A,8070
1,g173.Y,7950
0,g173.A,7950
0,g104.Y,32076
0,g104.A0,32076
0,g104.A1,32076
1,g104.Y,96039
1,g104.A0,32361
1,g104.A1,31946
0,g095.Y,15850
1,g095.A,15850
1,g095.Y,16020
0,g095.A,16020
0,g135.Y,29906
0,g135.A0,29906
0,g135.A1,29906
0,g134.Y,29906
0,g134.A1,29906
0,g134.A0,29906
1,g134.Y,89222
1,g135.A0,89222
1,g134.A1,29845
1,g134.A0,29787
0,g120.Y,16016
1,g120.A,16016
1,g120.Y,15927
0,g120.A,15927
0,g128.Y,15911
1,g128.A,15911
1,g128.Y,16032
0,g128.A,16032
0,g122.Y,1958
0,g122.A0,1958
0,g122.A1,1958
0,g121.Y,1958
0,g121.A0,1958
0,g121.A1,1958
0,g127.A1,1958
1,g121.Y,3964
1,g122.A0,3964
1,g121.A0,1939
1,g121.A1,2025
0,g177.Y,8016
1,g177.A,8016
1,g177.Y,7879
0,g177.A,7879
0,g123.Y,32011
0,g123.A0,32011
0,g123.A1,32011
1,g123.Y,95965
1,g123.A0,32111
1,g123.A1,31924
0,g114.Y,16048
1,g114.A,16048
1,g114.Y,15895
0,g114.A,15895
0,g142.Y,13952
1,g142.A,13952
0,g145.A1,13952
0,g146.Y,14005
0,g146.A0,14005
0,g146.A1,14005
0,g145.Y,14005
1,g145.A0,14005
1,g145.A1,14005
1,g142.Y,14005
0,g142.A,14005
0,g147.A0,14005
0,g139.Y,16042
1,g139.A,16042
1,g139.Y,15935
0,g139.A,15935
0,g181.Y,8029
1,g181.A,8029
1,g181.Y,8025
0,g181.A,8025
0,g143.Y,65591
0,g143.A0,65591
0,g143.A1,65591
1,g143.Y,196742
1,g143.A0,65425
1,g143.A1,65481
0,g133.Y,15923
1,g133.A,15923
1,g133.Y,16054
0,g133.A,16054
0,g002.Y,239074
0,g002.A0,239074
0,g002.A1,239074
1,g002.Y,717197
1,g002.A0,238616
1,g002.A1,239363
1,g306.Y,0
1,g307.A0,0
1,g306.A1,0
0,g010.Y,30817
0,g010.A0,30817
0,g010.A1,30817
1,g010.Y,215850
1,g010.A0,92864
1,g010.A1,30864
0,g184.Y,63386
0,g184.A0,63386
0,g184.A1,63386
1,g184.Y,287342
1,g184.A0,31836
1,g184.A1,127726
0,g003.Y,127222
0,g003.A0,127222
0,g003.A1,127222
1,g003.Y,892778
1,g003.A0,382345
1,g003.A1,127719
0,g035.Y,11943
0,g035.A1,11943
0,g035.A0,11943
0,g034.Y,11943
1,g034.A0,11943
1,g034.A1,11943
0,g037.A1,11943
1,g034.Y,15871
1,g035.A0,15871
0,g034.A0,3959
0,g034.A1,11912
0,g029.Y,30110
0,g029.A0,30110
0,g029.A1,30110
1,g029.Y,210120
1,g029.A0,90342
1,g029.A1,29995
0,g054.Y,12007
0,g054.A1,12007
0,g054.A0,12007
0,g053.Y,12007
1,g053.A0,12007
1,g053.A1,12007
0,g056.A1,12007
1,g053.Y,16054
1,g054.A0,16054
0,g053.A0,3996
0,g053.A1,12058
0,g048.Y,29902
0,g048.A0,29902
0,g048.A1,29902
1,g048.Y,210238
1,g048.A0,89964
1,g048.A1,30057
0,g073.Y,11887
0,g073.A1,11887
0,g073.A0,11887
0,g072.Y,11887
1,g072.A0,11887
1,g072.A1,11887
0,g075.A1,11887
1,g072.Y,16037
1,g073.A0,16037
0,g072.A0,4083
0,g072.A1,11954
0,g067.Y,30060
0,g067.A0,30060
0,g067.A1,30060
1,g067.Y,210299
1,g067.A0,90378
1,g067.A1,29665
0,g092.Y,12027
0,g092.A1,12027
0,g092.A0,12027
0,g091.Y,12027
1,g091.A0,12027
1,g091.A1,12027
0,g094.A1,12027
1,g091.Y,15933
1,g092.A0,15933
0,g091.A0,3923
0,g091.A1,12010
0,g086.Y,29996
0,g086.A0,29996
0,g086.A1,29996
1,g086.Y,210132
1,g086.A0,89634
1,g086.A1,30079
0,g111.Y,12063
0,g111.A1,12063
0,g111.A0,12063
0,g110.Y,12063
1,g110.A0,12063
1,g110.A1,12063
0,g113.A1,12063
1,g110.Y,15874
1,g111.A0,15874
0,g110.A0,4017
0,g110.A1,11857
0,g105.Y,30056
0,g105.A0,30056
0,g105.A1,30056
1,g105.Y,209962
1,g105.A0,90032
1,g105.A1,29945
0,g130.Y,12049
0,g130.A1,12049
0,g130.A0,12049
0,g129.Y,12049
1,g129.A0,12049
1,g129.A1,12049
0,g132.A1,12049
1,g129.Y,15998
1,g130.A0,15998
0,g129.A0,3983
0,g129.A1,12015
0,g124.Y,30053
0,g124.A0,30053
0,g124.A1,30053
1,g124.Y,209851
1,g124.A0,89859
1,g124.A1,29994
0,g149.Y,11915
0,g149.A1,11915
0,g149.A0,11915
0,g148.Y,11915
1,g148.A0,11915
1,g148.A1,11915
0,g151.A1,11915
1,g148.Y,16057
1,g149.A0,16057
0,g148.A0,4020
0,g148.A1,12037
0,g141.A0,1949
0,g141.A1,1949
0,g140.Y,1949
1,g140.A1,1949
1,g140.A0,1949
0,g147.A1,1949
1,g140.Y,4099
1,g141.A0,4099
0,g140.A1,2071
0,g140.A0,2028
0,g144.Y,63642
0,g144.A0,63642
0,g144.A1,63642
1,g144.Y,446096
1,g144.A0,190815
1,g144.A1,63643
0,g014.Y,669075
0,g015.A0,669075
0,g015.Y,95644
1,g015.A0,95644
1,g015.A1,95644
1,g014.Y,95644
0,g014.A0,95644
0,g014.A1,95644
0,g018.A1,95644
1,g014.A0,287060
1,g014.A1,95354
0,g011.Y,780968
0,g012.A0,780968
0,g012.Y,111405
1,g012.A0,111405
1,g012.A1,111405
1,g011.Y,111405
0,g011.A0,111405
0,g011.A1,111405
0,g013.A0,111405
1,g011.A0,334494
1,g011.A1,111624
0,g004.Y,111852
0,g004.A0,111852
0,g004.A1,111852
1,g004.Y,780437
1,g004.A0,334852
1,g004.A1,111161
1,g021.Y,926517
1,g021.A1,208810
1,II3,892550
1,g013.Y,892550
1,g013.A0,892550
1,g013.A1,892550
1,g012.Y,892550
1,g008.Y,892550
0,g012.A1,15867
1,g272.A1,143873
0,g185.Y,31783
0,g185.A1,31783
0,g185.A0,31783
1,g185.Y,303405
1,g185.A1,15936
1,g185.A0,143469
0,g152.Y,63565
0,g152.A0,63565
0,g152.A1,63565
0,g155.A1,63565
1,II5,892659
1,g155.Y,892659
1,g155.A0,892659
1,g155.A1,892659
1,g154.Y,892659
1,g152.Y,892659
1,g152.A0,446584
1,g152.A1,63657
1,II156,1004066
1,g037.Y,1004066
1,g037.A0,1004066
1,g037.A1,1004066
1,g036.Y,1004066
1,g035.Y,1004066
1,g035.A1,372170
1,g040.Y,926516
1,g040.A1,209246
0,g031.Y,14011
0,g031.A1,14011
0,g031.A0,14011
0,g030.Y,14011
1,g030.A0,14011
1,g030.A1,14011
0,g032.A0,14011
1,g030.Y,15826
1,g031.A0,15826
0,g030.A0,1991
0,g030.A1,13835
1,II308,1004051
1,g056.Y,1004051
1,g056.A0,1004051
1,g056.A1,1004051
1,g055.Y,1004051
1,g054.Y,1004051
1,g054.A1,369968
1,g059.Y,926463
1,g059.A1,209416
0,g050.Y,13949
0,g050.A1,13949
0,g050.A0,13949
0,g049.Y,13949
1,g049.A0,13949
1,g049.A1,13949
0,g051.A0,13949
1,g049.Y,16072
1,g050.A0,16072
0,g049.A0,2014
0,g049.A1,14058
1,II460,1004217
1,g075.Y,1004217
1,g075.A0,1004217
1,g075.A1,1004217
1,g074.Y,1004217
1,g073.Y,1004217
1,g073.A1,371102
1,g078.Y,926236
1,g078.A1,209447
0,g069.Y,13788
0,g069.A1,13788
0,g069.A0,13788
0,g068.Y,13788
1,g068.A0,13788
1,g068.A1,13788
0,g070.A0,13788
1,g068.Y,16010
1,g069.A0,16010
0,g068.A0,2061
0,g068.A1,13949
1,II612,1003956
1,g094.Y,1003956
1,g094.A0,1003956
1,g094.A1,1003956
1,g093.Y,1003956
1,g092.Y,1003956
1,g092.A1,370032
1,g097.Y,926212
1,g097.A1,209239
0,g088.Y,13942
0,g088.A1,13942
0,g088.A0,13942
0,g087.Y,13942
1,g087.A0,13942
1,g087.A1,13942
0,g089.A0,13942
1,g087.Y,16148
1,g088.A0,16148
0,g087.A0,2036
0,g087.A1,14112
1,II764,1004004
1,g113.Y,1004004
1,g113.A0,1004004
1,g113.A1,1004004
1,g112.Y,1004004
1,g111.Y,1004004
1,g111.A1,370625
1,g116.Y,926244
1,g116.A1,209119
0,g107.Y,13839
0,g107.A1,13839
0,g107.A0,13839
0,g106.Y,13839
1,g106.A0,13839
1,g106.A1,13839
0,g108.A0,13839
1,g106.Y,16011
1,g107.A0,16011
0,g106.A0,1997
0,g106.A1,14014
1,II916,1004055
1,g132.Y,1004055
1,g132.A0,1004055
1,g132.A1,1004055
1,g131.Y,1004055
1,g130.Y,1004055
1,g130.A1,370198
1,g135.Y,926452
1,g135.A1,209030
0,g126.Y,13902
0,g126.A1,13902
0,g126.A0,13902
0,g125.Y,13902
1,g125.A0,13902
1,g125.A1,13902
0,g127.A0,13902
1,g125.Y,16083
1,g126.A0,16083
0,g125.A0,2025
0,g125.A1,14058
1,II1068,1004080
1,g151.Y,1004080
1,g151.A0,1004080
1,g151.A1,1004080
1,g150.Y,1004080
1,g149.Y,1004080
1,g149.A1,370035
0,W,63642
0,g312.Y,63642
0,g312.A0,63642
0,g312.A1,63642
1,W,956358
1,g312.Y,956358
1,g312.A0,446096
1,g312.A1,63652
1,g145.Y,16023
1,g146.A0,16023
0,g145.A0,2071
1,II4,892325
1,g018.Y,892325
1,g018.A0,892325
1,g018.A1,892325
1,g017.Y,892325
1,g015.Y,892325
0,g015.A1,31912
0,g154.Y,63776
0,g154.A0,63776
0,g154.A1,63776
0,g155.A0,63776
1,g154.A0,446075
1,g154.A1,63943
0,g005.Y,48076
0,g005.A0,48076
0,g005.A1,48076
1,g005.Y,716751
1,g005.A0,334362
1,g005.A1,47853
1,II155,1004021
1,g032.Y,1004021
1,g032.A0,1004021
1,g032.A1,1004021
1,g031.Y,1004021
1,g027.Y,1004021
1,g031.A1,432547
0,g023.Y,13846
0,g023.A0,13846
0,g023.A1,13846
1,g023.Y,878347
1,g023.A0,431918
1,g023.A1,13943
0,g022.Y,15968
0,g022.A0,15968
0,g022.A1,15968
1,g022.Y,1004032
1,g022.A0,494599
1,g022.A1,15837
0,g274.Y,190651
0,g275.A0,190651
1,g268.A1,151763
0,g186.Y,15979
0,g186.A1,15979
0,g186.A0,15979
1,g186.Y,311723
1,g186.A1,7967
1,g186.A0,151642
0,II5,127341
0,g155.Y,127341
1,II307,1004069
1,g051.Y,1004069
1,g051.A0,1004069
1,g051.A1,1004069
1,g050.Y,1004069
1,g046.Y,1004069
1,g050.A1,432155
0,g042.Y,13970
0,g042.A0,13970
0,g042.A1,13970
1,g042.Y,878881
1,g042.A0,432640
1,g042.A1,14048
0,g041.Y,16019
0,g041.A0,16019
0,g041.A1,16019
1,g041.Y,1003981
1,g041.A0,493876
1,g041.A1,15984
1,II459,1004190
1,g070.Y,1004190
1,g070.A0,1004190
1,g070.A1,1004190
1,g069.Y,1004190
1,g065.Y,1004190
1,g069.A1,432750
0,g061.Y,13889
0,g061.A0,13889
0,g061.A1,13889
1,g061.Y,878585
1,g061.A0,431581
1,g061.A1,13846
0,g060.Y,15870
0,g060.A0,15870
0,g060.A1,15870
1,g060.Y,1004130
1,g060.A0,494882
1,g060.A1,15950
1,II611,1004171
1,g089.Y,1004171
1,g089.A0,1004171
1,g089.A1,1004171
1,g088.Y,1004171
1,g084.Y,1004171
1,g088.A1,432286
0,g080.Y,13962
0,g080.A0,13962
0,g080.A1,13962
1,g080.Y,878618
1,g080.A0,431729
1,g080.A1,13988
0,g079.Y,15979
0,g079.A0,15979
0,g079.A1,15979
1,g079.Y,1004021
1,g079.A0,494507
1,g079.A1,15998
1,II763,1004141
1,g108.Y,1004141
1,g108.A0,1004141
1,g108.A1,1004141
1,g107.Y,1004141
1,g103.Y,1004141
1,g107.A1,432143
0,g099.Y,14023
0,g099.A0,14023
0,g099.A1,14023
1,g099.Y,877882
1,g099.A0,432376
1,g099.A1,13801
0,g098.Y,15850
0,g098.A0,15850
0,g098.A1,15850
1,g098.Y,1004150
1,g098.A0,493836
1,g098.A1,16020
1,II915,1004140
1,g127.Y,1004140
1,g127.A0,1004140
1,g127.A1,1004140
1,g126.Y,1004140
1,g122.Y,1004140
1,g126.A1,431761
0,g118.Y,13870
0,g118.A0,13870
0,g118.A1,13870
1,g118.Y,878606
1,g118.A0,431995
1,g118.A1,14063
0,g117.Y,16048
0,g117.A0,16048
0,g117.A1,16048
1,g117.Y,1003952
1,g117.A0,494249
1,g117.A1,15895
1,II1067,1004046
1,g147.Y,1004046
1,g147.A0,1004046
1,g147.A1,1004046
1,g146.Y,1004046
1,g141.Y,1004046
1,g146.A1,432091
0,g137.Y,13983
0,g137.A0,13983
0,g137.A1,13983
1,g137.Y,878922
1,g137.A0,432413
1,g137.A1,13927
0,g136.Y,15923
0,g136.A0,15923
0,g136.A1,15923
1,g136.Y,1004077
1,g136.A0,494039
1,g136.A1,16054
0,g017.Y,32031
0,g017.A0,32031
0,g017.A1,32031
0,g018.A0,32031
1,g017.A0,477638
1,g017.A1,31912
1,g008.A1,239113
0,g158.Y,7887
0,g158.A0,7887
0,g158.A1,7887
0,g159.A0,7887
1,II157,1004087
1,g159.Y,1004087
1,g159.A0,1004087
1,g159.A1,1004087
1,g158.Y,1004087
1,g156.Y,1004087
1,g158.A0,501697
1,g158.A1,7950
0,g024.Y,5959
0,g024.A0,5959
0,g024.A1,5959
1,g024.Y,758305
1,g024.A0,376650
1,g024.A1,5913
0,g156.Y,8026
0,g156.A0,8026
0,g156.A1,8026
0,g159.A1,8026
1,g156.A0,502390
1,g156.A1,7942
0,g275.Y,318088
0,g276.A0,318088
0,g276.Y,349740
0,g277.A0,349740
1,g266.A1,155743
0,g187.Y,8087
0,g187.A1,8087
0,g187.A0,8087
1,g187.Y,315324
1,g187.A1,3943
1,g187.A0,155980
0,g162.Y,8046
0,g162.A0,8046
0,g162.A1,8046
0,g163.A0,8046
1,II309,1003998
1,g163.Y,1003998
1,g163.A0,1003998
1,g163.A1,1003998
1,g162.Y,1003998
1,g160.Y,1003998
1,g162.A0,501993
1,g162.A1,7938
0,g043.Y,5924
0,g043.A0,5924
0,g043.A1,5924
1,g043.Y,759747
1,g043.A0,376888
1,g043.A1,6018
0,g160.Y,7956
0,g160.A0,7956
0,g160.A1,7956
0,g163.A1,7956
1,g160.A0,502005
1,g160.A1,8063
0,g166.Y,7971
0,g166.A0,7971
0,g166.A1,7971
0,g167.A0,7971
1,II461,1004026
1,g167.Y,1004026
1,g167.A0,1004026
1,g167.A1,1004026
1,g166.Y,1004026
1,g164.Y,1004026
1,g166.A0,502025
1,g166.A1,7979
0,g062.Y,5918
0,g062.A0,5918
0,g062.A1,5918
1,g062.Y,758673
1,g062.A0,376560
1,g062.A1,5999
0,g164.Y,8003
0,g164.A0,8003
0,g164.A1,8003
0,g167.A1,8003
1,g164.A0,502001
1,g164.A1,7867
0,g170.Y,8058
0,g170.A0,8058
0,g170.A1,8058
0,g171.A0,8058
1,II613,1003938
1,g171.Y,1003938
1,g171.A0,1003938
1,g171.A1,1003938
1,g170.Y,1003938
1,g168.Y,1003938
1,g170.A0,501614
1,g170.A1,7940
0,g081.Y,5904
0,g081.A0,5904
0,g081.A1,5904
1,g081.Y,759517
1,g081.A0,377004
1,g081.A1,6064
0,g168.Y,8004
0,g168.A0,8004
0,g168.A1,8004
0,g171.A1,8004
1,g168.A0,502324
1,g168.A1,7975
0,g174.Y,8070
0,g174.A0,8070
0,g174.A1,8070
0,g175.A0,8070
1,II765,1003871
1,g175.Y,1003871
1,g175.A0,1003871
1,g175.A1,1003871
1,g174.Y,1003871
1,g172.Y,1003871
1,g174.A0,501121
1,g174.A1,7950
0,g100.Y,5953
0,g100.A0,5953
0,g100.A1,5953
1,g100.Y,758945
1,g100.A0,376761
1,g100.A1,6006
0,g172.A0,8059
0,g172.A1,8059
0,g175.A1,8059
1,g172.A0,502750
1,g172.A1,7791
0,g178.Y,8016
0,g178.A0,8016
0,g178.A1,8016
0,g179.A0,8016
1,II917,1003994
1,g179.Y,1003994
1,g179.A0,1003994
1,g179.A1,1003994
1,g178.Y,1003994
1,g176.Y,1003994
1,g178.A0,502485
1,g178.A1,7879
0,g119.Y,5854
0,g119.A0,5854
0,g119.A1,5854
1,g119.Y,759688
1,g119.A0,376121
1,g119.A1,6045
0,g176.Y,7990
0,g176.A0,7990
0,g176.A1,7990
0,g179.A1,7990
1,g176.A0,501509
1,g176.A1,8058
0,g182.Y,8029
0,g182.A0,8029
0,g182.A1,8029
0,g183.A0,8029
1,II1069,1003987
1,g183.Y,1003987
1,g183.A0,1003987
1,g183.A1,1003987
1,g182.Y,1003987
1,g180.Y,1003987
1,g182.A0,502467
1,g182.A1,8025
0,g138.Y,5954
0,g138.A0,5954
0,g138.A1,5954
1,g138.Y,759589
1,g138.A0,376455
1,g138.A1,6046
0,g180.Y,7984
0,g180.A0,7984
0,g180.A1,7984
0,g183.A1,7984
1,g180.A0,501520
1,g180.A1,7939
0,II4,127675
0,g018.Y,127675
0,II3,127450
0,g013.Y,127450
0,II157,15913
0,g159.Y,15913
0,g036.Y,3991
0,g036.A0,3991
0,g036.A1,3991
0,g037.A0,3991
1,g036.A0,504756
1,g036.A1,3959
1,g027.A1,253549
0,g277.Y,365572
0,g278.A0,365572
1,g264.A1,157310
0,g188.Y,4049
0,g188.A1,4049
0,g188.A0,4049
1,g188.Y,317573
1,g188.A1,2049
1,g188.A0,158014
0,II309,16002
0,g163.Y,16002
0,g055.A0,3942
0,g055.A1,3942
0,g056.A0,3942
1,g055.A0,506877
1,g055.A1,3996
1,g046.A1,252870
0,II461,15974
0,g167.Y,15974
0,g074.Y,3896
0,g074.A0,3896
0,g074.A1,3896
0,g075.A0,3896
1,g074.A0,505490
1,g074.A1,4083
1,g065.A1,253183
0,II613,16062
0,g171.Y,16062
0,g093.A0,4017
0,g093.A1,4017
0,g094.A0,4017
1,g093.A0,506435
1,g093.A1,3923
1,g084.A1,253082
0,II765,16129
0,g175.Y,16129
0,g112.Y,3933
0,g112.A0,3933
0,g112.A1,3933
0,g113.A0,3933
1,g112.A0,505350
1,g112.A1,4017
1,g103.A1,253595
0,II917,16006
0,g179.Y,16006
0,g131.A0,3896
0,g131.A1,3896
0,g132.A0,3896
1,g131.A0,506579
1,g131.A1,3983
1,g122.A1,253109
0,II1069,16013
0,g183.Y,16013
0,g150.Y,4005
0,g150.A0,4005
0,g150.A1,4005
0,g151.A0,4005
1,g150.A0,506751
1,g150.A1,4020
1,g141.A1,252838
0,II156,15934
0,g037.Y,15934
0,II155,15979
0,g032.Y,15979
0,g278.Y,373542
0,g279.A0,373542
1,g262.A1,158386
0,g189.Y,2061
0,g189.A1,2061
0,g189.A0,2061
1,g189.Y,319115
1,g189.A1,986
1,g189.A0,159187
0,II308,15949
0,g056.Y,15949
0,II307,15931
0,g051.Y,15931
0,II460,15783
0,g075.Y,15783
0,II459,15810
0,g070.Y,15810
0,II612,16044
0,g094.Y,16044
0,II611,15829
0,g089.Y,15829
0,II764,15996
0,g113.Y,15996
0,II763,15859
0,g108.Y,15859
0,II916,15945
0,g132.Y,15945
0,II915,15860
0,g127.Y,15860
0,II1068,15920
0,g151.Y,15920
0,II1067,15954
0,g147.Y,15954
0,g279.Y,377584
0,g280.A0,377584
1,g260.A1,159435
0,g190.Y,1025
0,g190.A0,1025
0,g190.A1,1025
1,g190.Y,319768
1,g190.A0,159680
1,g190.A1,489
0,g280.Y,379635
0,g281.A0,379635
1,g258.A1,160085
0,g191.A1,540
0,g191.A0,540
1,g191.Y,319536
1,g191.A1,263
1,g191.A0,159683
0,g281.Y,380604
0,g282.A0,380604
1,g256.A1,159675
0,g192.A1,274
0,g192.A0,274
1,g192.Y,319860
1,g192.A1,125
1,g192.A0,159861
0,g282.Y,381120
0,g283.A0,381120
1,g254.A1,159595
0,g193.A1,125
0,g193.A0,125
1,g193.Y,319308
1,g193.A1,59
1,g193.A0,160265
0,g283.Y,381394
0,g284.A0,381394
1,g252.A1,159309
0,g194.A0,52
0,g194.A1,52
1,g194.Y,319836
1,g194.A0,159999
1,g194.A1,34
0,g284.Y,381527
0,g285.A0,381527
1,g250.A1,159745
0,g195.A1,24
0,g195.A0,24
1,g195.Y,319910
1,g195.A1,8
1,g195.A0,160091
0,g285.Y,381577
0,g286.A0,381577
1,g248.A1,159610
0,g196.A1,13
0,g196.A0,13
1,g196.Y,320103
1,g196.A1,4
1,g196.A0,160300
0,g286.Y,381606
0,g287.A0,381606
1,g246.A1,159877
0,g197.A1,6
0,g197.A0,6
1,g197.Y,319934
1,g197.A1,2
1,g197.A0,160226
0,g287.Y,381621
0,g288.A0,381621
1,g244.A1,159924
0,g198.A0,2
0,g198.A1,2
1,g198.Y,319529
1,g198.A0,160010
1,g198.A1,3
0,g288.Y,381630
0,g289.A0,381630
1,g242.A1,160116
0,g199.A1,2
0,g199.A0,2
1,g199.Y,318559
1,g199.A1,2
1,g199.A0,159413
0,g289.Y,381635
0,g290.A0,381635
1,g240.A1,159032
0,g200.A1,1
0,g200.A0,1
1,g200.Y,318542
1,g200.A1,0
1,g200.A0,159527
0,g290.Y,381636
0,g291.A0,381636
1,g238.A1,159352
0,g201.A1,1
0,g201.A0,1
1,g201.Y,319301
1,g201.A1,1
1,g201.A0,159190
0,g291.Y,381636
0,g292.A0,381636
1,g236.A1,159733
0,g202.A0,0
0,g202.A1,0
1,g202.Y,319067
1,g202.A0,159568
1,g202.A1,1
0,g292.Y,381637
0,g293.A0,381637
1,g234.A1,159400
0,g203.A1,0
0,g203.A0,0
1,g203.Y,319036
1,g203.A1,0
1,g203.A0,159667
0,g293.Y,381637
0,g294.A0,381637
1,g232.A1,159803
0,g204.A1,0
0,g204.A0,0
1,g204.Y,319260
1,g204.A1,0
1,g204.A0,159233
0,g294.Y,381637
0,g295.A0,381637
1,g230.A1,159697
0,g205.A1,0
0,g205.A0,0
1,g205.Y,318969
1,g205.A1,0
1,g205.A0,159563
0,g295.Y,381637
0,g296.A0,381637
1,g228.A1,160088
0,g206.A0,0
0,g206.A1,0
1,g206.Y,318382
1,g206.A0,158881
1,g206.A1,0
0,g296.Y,381637
0,g297.A0,381637
1,g226.A1,159459
0,g207.A1,0
0,g207.A0,0
1,g207.Y,317769
1,g207.A1,0
1,g207.A0,158923
0,g297.Y,381637
0,g298.A0,381637
1,g224.A1,159726
0,g208.A1,0
0,g208.A0,0
1,g208.Y,316359
1,g208.A1,0
1,g208.A0,158043
0,g298.Y,381637
0,g299.A0,381637
1,g222.A1,159251
0,g209.A1,0
0,g209.A0,0
1,g209.Y,313634
1,g209.A1,0
1,g209.A0,157108
0,g299.Y,381637
0,g300.A0,381637
1,g220.A1,159490
0,g210.A0,0
0,g210.A1,0
1,g210.Y,308678
1,g210.A0,154144
1,g210.A1,0
0,g300.Y,381637
0,g301.A0,381637
1,g218.A1,159328
0,g211.A1,0
0,g211.A0,0
1,g211.Y,298720
1,g211.A1,0
1,g211.A0,149350
0,g301.Y,381637
0,g302.A0,381637
1,g216.A1,159450
0,g212.A1,0
0,g212.A0,0
1,g212.Y,278754
1,g212.A1,0
1,g212.A0,139270
0,g302.Y,381637
0,g303.A0,381637
0,g304.A1,0
0,g304.A0,0
1,g304.Y,239253
1,g304.A1,0
1,g304.A0,119574
1,g214.A1,159180
0,g303.Y,381637
0,g311.A1,381637
1,g309.A1,159414
1,g307.A1,79839
0,g311.A0,0
0,Z,381637
0,g311.Y,381637
0,II6,127222
1,II6,892778
0,II158,15968
1,II158,1004032
0,II310,16019
1,II310,1003981
0,II462,15870
1,II462,1004130
0,II614,15979
1,II614,1004021
0,II766,15850
1,II766,1004150
0,II918,16048
1,II918,1003952
0,II1070,15923
1,II1070,1004077
0,g256.Y,266
0,g065.Y,2022
0,g141.Y,1949
0,g172.Y,8059
0,g191.Y,540
0,g055.Y,3942
0,g093.Y,4017
0,g131.Y,3896
0,g103.Y,2020
0,g254.Y,149
0,g192.Y,274
0,g193.Y,125
0,g194.Y,52
0,g250.Y,28
0,g252.Y,73
0,g248.Y,11
0,g195.Y,24
0,g246.Y,7
0,g196.Y,13
0,g244.Y,4
0,g197.Y,6
0,g198.Y,2
0,g199.Y,2
0,g200.Y,1
0,g201.Y,1
0,g202.Y,0
0,g203.Y,0
0,g236.Y,1
0,g242.Y,0
0,g240.Y,1
0,g204.Y,0
0,g205.Y,0
