                      Statistics Report                      
                       Stuck-at Faults                       
-------------------------------------------------------------
Fault Classes                           #faults              
                                        (total)              
------------------------  -----------------------------------
  FU (full)                              80010               
  ----------------------  -----------------------------------
  UC (uncontrolled)                    1392          ( 1.74%)
  UO (unobserved)                      8130          (10.16%)
  DS (det_simulation)                 70452          (88.05%)
  TI (tied)                              24          ( 0.03%)
  BL (blocked)                           12          ( 0.01%)
-------------------------------------------------------------
Coverage                                                     
  ----------------------                                     
  test_coverage                                       88.09% 
  fault_coverage                                      88.05% 
  atpg_effectiveness                                  88.10% 
-------------------------------------------------------------
#test_patterns                                             0 
#simulated_patterns                                      255 
CPU_time (secs)                                      17435.5 
-------------------------------------------------------------
Multiple Detection Statistics                                
-------------------------------------------------------------
  Detections                  DS Faults         Test Coverage
     (N)                  (Detections == N) (Detections >= N)
------------------------  ----------------- -----------------
      1                      7091 (  8.86%)   70452 ( 88.09%)
      2                      8838 ( 11.05%)   63361 ( 79.23%)
      3                      8399 ( 10.50%)   54523 ( 68.18%)
      4                      8217 ( 10.27%)   46124 ( 57.67%)
      5                      6840 (  8.55%)   37907 ( 47.40%)
      6                      5812 (  7.26%)   31067 ( 38.85%)
      7                      4572 (  5.71%)   25255 ( 31.58%)
      8                      3483 (  4.35%)   20683 ( 25.86%)
      9                      2427 (  3.03%)   17200 ( 21.51%)
     10                      1863 (  2.33%)   14773 ( 18.47%)
     11                      1440 (  1.80%)   12910 ( 16.14%)
     12                      1051 (  1.31%)   11470 ( 14.34%)
     13                       830 (  1.04%)   10419 ( 13.03%)
     14                       810 (  1.01%)    9589 ( 11.99%)
     15                       615 (  0.77%)    8779 ( 10.98%)
     16                       635 (  0.79%)    8164 ( 10.21%)
     17                       447 (  0.56%)    7529 (  9.41%)
     18                       466 (  0.58%)    7082 (  8.86%)
     19                       422 (  0.53%)    6616 (  8.27%)
     20                       345 (  0.43%)    6194 (  7.75%)
     21                       316 (  0.39%)    5849 (  7.31%)
     22                       243 (  0.30%)    5533 (  6.92%)
     23                       165 (  0.21%)    5290 (  6.61%)
     24                       179 (  0.22%)    5125 (  6.41%)
     25                       113 (  0.14%)    4946 (  6.18%)
     26                       111 (  0.14%)    4833 (  6.04%)
     27                       109 (  0.14%)    4722 (  5.90%)
     28                       111 (  0.14%)    4613 (  5.77%)
     29                       139 (  0.17%)    4502 (  5.63%)
     30                       117 (  0.15%)    4363 (  5.46%)
     31                       146 (  0.18%)    4246 (  5.31%)
     32                       111 (  0.14%)    4100 (  5.13%)
     33                       135 (  0.17%)    3989 (  4.99%)
     34                        65 (  0.08%)    3854 (  4.82%)
     35                       126 (  0.16%)    3789 (  4.74%)
     36                       111 (  0.14%)    3663 (  4.58%)
     37                        82 (  0.10%)    3552 (  4.44%)
     38                        86 (  0.11%)    3470 (  4.34%)
     39                       112 (  0.14%)    3384 (  4.23%)
     40                       112 (  0.14%)    3272 (  4.09%)
     41                        72 (  0.09%)    3160 (  3.95%)
     42                        96 (  0.12%)    3088 (  3.86%)
     43                       157 (  0.20%)    2992 (  3.74%)
     44                        94 (  0.12%)    2835 (  3.54%)
     45                        53 (  0.07%)    2741 (  3.43%)
     46                       102 (  0.13%)    2688 (  3.36%)
     47                        77 (  0.10%)    2586 (  3.23%)
     48                        63 (  0.08%)    2509 (  3.14%)
     49                        80 (  0.10%)    2446 (  3.06%)
     50                        58 (  0.07%)    2366 (  2.96%)
     51                        82 (  0.10%)    2308 (  2.89%)
     52                        43 (  0.05%)    2226 (  2.78%)
     53                        53 (  0.07%)    2183 (  2.73%)
     54                        98 (  0.12%)    2130 (  2.66%)
     55                        34 (  0.04%)    2032 (  2.54%)
     56                        32 (  0.04%)    1998 (  2.50%)
     57                        20 (  0.02%)    1966 (  2.46%)
     58                        42 (  0.05%)    1946 (  2.43%)
     59                        32 (  0.04%)    1904 (  2.38%)
     60                         6 (  0.01%)    1872 (  2.34%)
     61                        18 (  0.02%)    1866 (  2.33%)
     62                        12 (  0.01%)    1848 (  2.31%)
     63                        59 (  0.07%)    1836 (  2.30%)
     64                        16 (  0.02%)    1777 (  2.22%)
     65                        11 (  0.01%)    1761 (  2.20%)
     66                         6 (  0.01%)    1750 (  2.19%)
     67                         7 (  0.01%)    1744 (  2.18%)
     68                        18 (  0.02%)    1737 (  2.17%)
     69                         9 (  0.01%)    1719 (  2.15%)
     70                         8 (  0.01%)    1710 (  2.14%)
     71                         4 (  0.00%)    1702 (  2.13%)
     72                         3 (  0.00%)    1698 (  2.12%)
     73                        17 (  0.02%)    1695 (  2.12%)
     74                        65 (  0.08%)    1678 (  2.10%)
     75                        12 (  0.01%)    1613 (  2.02%)
     76                        67 (  0.08%)    1601 (  2.00%)
     77                        23 (  0.03%)    1534 (  1.92%)
     78                        24 (  0.03%)    1511 (  1.89%)
     79                        19 (  0.02%)    1487 (  1.86%)
     80                        37 (  0.05%)    1468 (  1.84%)
     81                        18 (  0.02%)    1431 (  1.79%)
     82                        13 (  0.02%)    1413 (  1.77%)
     83                        21 (  0.03%)    1400 (  1.75%)
     84                        11 (  0.01%)    1379 (  1.72%)
     85                        20 (  0.02%)    1368 (  1.71%)
     86                        36 (  0.04%)    1348 (  1.69%)
     87                        23 (  0.03%)    1312 (  1.64%)
     88                        17 (  0.02%)    1289 (  1.61%)
     89                        30 (  0.04%)    1272 (  1.59%)
     90                        22 (  0.03%)    1242 (  1.55%)
     91                        14 (  0.02%)    1220 (  1.53%)
     92                        11 (  0.01%)    1206 (  1.51%)
     93                         7 (  0.01%)    1195 (  1.49%)
     94                        12 (  0.01%)    1188 (  1.49%)
     95                        13 (  0.02%)    1176 (  1.47%)
     96                        21 (  0.03%)    1163 (  1.45%)
     97                        20 (  0.02%)    1142 (  1.43%)
     98                        18 (  0.02%)    1122 (  1.40%)
     99                        22 (  0.03%)    1104 (  1.38%)
    100                        24 (  0.03%)    1082 (  1.35%)
    101                        44 (  0.05%)    1058 (  1.32%)
    102                        32 (  0.04%)    1014 (  1.27%)
    103                        47 (  0.06%)     982 (  1.23%)
    104                         4 (  0.00%)     935 (  1.17%)
    105                        30 (  0.04%)     931 (  1.16%)
    106                        69 (  0.09%)     901 (  1.13%)
    107                         1 (  0.00%)     832 (  1.04%)
    108                        16 (  0.02%)     831 (  1.04%)
    109                        40 (  0.05%)     815 (  1.02%)
    110                        17 (  0.02%)     775 (  0.97%)
    111                         7 (  0.01%)     758 (  0.95%)
    112                         9 (  0.01%)     751 (  0.94%)
    113                         0 (  0.00%)     742 (  0.93%)
    114                        13 (  0.02%)     742 (  0.93%)
    115                        16 (  0.02%)     729 (  0.91%)
    116                        18 (  0.02%)     713 (  0.89%)
    117                        17 (  0.02%)     695 (  0.87%)
    118                        15 (  0.02%)     678 (  0.85%)
    119                        40 (  0.05%)     663 (  0.83%)
    120                        54 (  0.07%)     623 (  0.78%)
    121                        35 (  0.04%)     569 (  0.71%)
    122                        35 (  0.04%)     534 (  0.67%)
    123                        26 (  0.03%)     499 (  0.62%)
    124                        66 (  0.08%)     473 (  0.59%)
    125                       240 (  0.30%)     407 (  0.51%)
    126                         0 (  0.00%)     167 (  0.21%)
    127                         1 (  0.00%)     167 (  0.21%)
    128                         0 (  0.00%)     166 (  0.21%)
    129                         0 (  0.00%)     166 (  0.21%)
    130                       103 (  0.13%)     166 (  0.21%)
    131                         0 (  0.00%)      63 (  0.08%)
    132                         0 (  0.00%)      63 (  0.08%)
    133                         0 (  0.00%)      63 (  0.08%)
    134                         0 (  0.00%)      63 (  0.08%)
    135                         0 (  0.00%)      63 (  0.08%)
    136                         0 (  0.00%)      63 (  0.08%)
    137                         0 (  0.00%)      63 (  0.08%)
    138                         0 (  0.00%)      63 (  0.08%)
    139                         1 (  0.00%)      63 (  0.08%)
    140                         0 (  0.00%)      62 (  0.08%)
    141                         0 (  0.00%)      62 (  0.08%)
    142                         0 (  0.00%)      62 (  0.08%)
    143                        10 (  0.01%)      62 (  0.08%)
    144                         0 (  0.00%)      52 (  0.07%)
    145                         0 (  0.00%)      52 (  0.07%)
    146                         0 (  0.00%)      52 (  0.07%)
    147                         0 (  0.00%)      52 (  0.07%)
    148                        10 (  0.01%)      52 (  0.07%)
    149                         0 (  0.00%)      42 (  0.05%)
    150                         0 (  0.00%)      42 (  0.05%)
    151                         0 (  0.00%)      42 (  0.05%)
    152                         1 (  0.00%)      42 (  0.05%)
    153                         0 (  0.00%)      41 (  0.05%)
    154                         0 (  0.00%)      41 (  0.05%)
    155                         0 (  0.00%)      41 (  0.05%)
    156                         0 (  0.00%)      41 (  0.05%)
    157                         0 (  0.00%)      41 (  0.05%)
    158                         0 (  0.00%)      41 (  0.05%)
    159                        10 (  0.01%)      41 (  0.05%)
    160                         0 (  0.00%)      31 (  0.04%)
    161                         0 (  0.00%)      31 (  0.04%)
    162                         0 (  0.00%)      31 (  0.04%)
    163                         0 (  0.00%)      31 (  0.04%)
    164                         0 (  0.00%)      31 (  0.04%)
    165                         0 (  0.00%)      31 (  0.04%)
    166                        10 (  0.01%)      31 (  0.04%)
    167                         0 (  0.00%)      21 (  0.03%)
    168                         0 (  0.00%)      21 (  0.03%)
    169                         0 (  0.00%)      21 (  0.03%)
    170                         0 (  0.00%)      21 (  0.03%)
    171                         0 (  0.00%)      21 (  0.03%)
    172                         0 (  0.00%)      21 (  0.03%)
    173                         0 (  0.00%)      21 (  0.03%)
    174                         0 (  0.00%)      21 (  0.03%)
    175                         0 (  0.00%)      21 (  0.03%)
    176                         0 (  0.00%)      21 (  0.03%)
    177                         0 (  0.00%)      21 (  0.03%)
    178                         0 (  0.00%)      21 (  0.03%)
    179                         1 (  0.00%)      21 (  0.03%)
    180                         0 (  0.00%)      20 (  0.03%)
    181                         0 (  0.00%)      20 (  0.03%)
    182                         0 (  0.00%)      20 (  0.03%)
    183                         0 (  0.00%)      20 (  0.03%)
    184                        10 (  0.01%)      20 (  0.03%)
    185                         0 (  0.00%)      10 (  0.01%)
    186                         0 (  0.00%)      10 (  0.01%)
    187                        10 (  0.01%)      10 (  0.01%)
    188+                        0 (  0.00%)       0 (  0.00%)
-------------------------------------------------------------
bridge_coverage_estimate                              78.49% 
-------------------------------------------------------------

